{
   "2025-02-07" : {
      "13:30:00" : {
         "HAFC" : {
            "bills" : [],
            "date" : "2025-02-07",
            "datetime" : "2025-02-07T13:30:00",
            "mtime" : "2025-02-06T11:08:09",
            "name" : "HAFC",
            "room" : "307",
            "time" : "1:30 PM",
            "url" : "2025/02/HAFC/HAFCageFeb07.25.pdf",
            "zoom" : "https://us02web.zoom.us/j/88154987441"
         }
      }
   }
}
