{
   "2025-02-05" : {
      "13:30:00" : {
         "SJC" : {
            "bills" : ["SB155","SB85","SB124","SB220"],
            "date" : "2025-02-05",
            "datetime" : "2025-02-05T13:30:00",
            "mtime" : "2025-02-04T15:38:56",
            "name" : "SJC",
            "room" : "321",
            "time" : "1:30 PM or 1/2 hour after floor session",
            "url" : "2025/02/SJC/SJCageFeb05.25.pdf",
            "zoom" : "https://us02web.zoom.us/j/88109017169"
         }
      }
   }
}
