{
   "2023-02-22" : {
      "11:00:00" : {
         "Senate" : {
            "bills" : ["SB63","SB64","SB72","SB144","SB180","SB77","SB307","SB351","SB145","SB68","SB206","SB48","SB188","SJM3","SJM6","SJM13","SJM12","SM3","SM21","SM35","SM45","SM46","SM53","SM55","SM56"],
            "date" : "2023-02-22",
            "datetime" : "2023-02-22T11:00:00",
            "mtime" : "2023-02-21T19:37:24",
            "name" : "Senate",
            "room" : "Senate Floor",
            "time" : "11:00 AM",
            "url" : "2023/02/sFloor/sFloor022223.pdf"
         }
      }
   }
}
