{
   "2021-01-25" : {
      "09:00:00" : {
         "SRC" : {
            "bills" : [],
            "date" : "2021-01-25",
            "datetime" : "2021-01-25T09:00:00",
            "mtime" : "2021-01-22T11:08:24",
            "name" : "SRC",
            "time" : "9:00 AM",
            "url" : "2021/01/SRC/SRCageJan25.21.pdf"
         }
      }
   }
}
