{
   "2022-01-26" : {
      "09:00:00" : {
         "SRC" : {
            "bills" : ["SB6"],
            "date" : "2022-01-26",
            "datetime" : "2022-01-26T09:00:00",
            "mtime" : "2022-01-25T14:23:48",
            "name" : "SRC",
            "room" : "321",
            "time" : "9:00 AM",
            "url" : "2022/01/SRC/SRCageJan26.22.pdf",
            "zoom" : "https://us02web.zoom.us/j/86412647187"
         }
      }
   }
}
