{
   "2024-02-03" : {
      "00:00:00" : {
         "House" : {
            "bills" : ["HB5","HB88","HB193"],
            "date" : "2024-02-03",
            "mtime" : "2024-02-03T13:16:17",
            "name" : "House",
            "room" : "House Floor",
            "url" : "2024/02/hFloor/hFloor020324_Supplemental.pdf"
         }
      }
   }
}
