{
   "2024-02-02" : {
      "10:30:00" : {
         "House" : {
            "bills" : ["HB114","HB27","HB48","HB151","HJM1","HM1","HM15","HM10","HM4","HM13","HM21","HM28","HM48"],
            "date" : "2024-02-02",
            "datetime" : "2024-02-02T10:30:00",
            "mtime" : "2024-02-01T18:09:53",
            "name" : "House",
            "room" : "House Floor",
            "time" : "10:30 AM",
            "url" : "2024/02/hFloor/hFloor020224.pdf"
         }
      }
   }
}
