{
   "2023-02-28" : {
      "10:30:00" : {
         "House" : {
            "bills" : ["HJR2","HB177","HB100","HB170","HB147","HB53","HB186","HB231","HB253","HB269","HB175","HB201","HB226","HB228","HB365","HB83","HB179","HB207","HB364","HM35","HM47","HM51","HM55","HM58","HM11","HM12","HM16","HM18","HM25","HM37","HM43","HM48","HM61","HM63","HM65","HM70","SJM13","HB132","HB209","HB271","HB277","HB286","HB342","HB353","HB512","HJR5","HJR6","HM34","HM56"],
            "date" : "2023-02-28",
            "datetime" : "2023-02-28T10:30:00",
            "mtime" : "2023-02-27T20:04:02",
            "name" : "House",
            "room" : "House Floor",
            "time" : "10:30 AM",
            "url" : "2023/02/hFloor/hFloor022823.pdf"
         }
      }
   }
}
