{
   "2023-02-21" : {
      "10:30:00" : {
         "House" : {
            "bills" : ["HB7","HB126","HB145","HB159","HB4","HB184","HJR2","HB151","HB177","HJR8","HB73","HB204","HB368","HJM1","HM4","HM19","HM35","HM22","HM41","HJM6","HM11","HM12","HM16","HM18","HM24","HM25","HM37","HM43","HM48","HM50","HM61","HM62","HB33","HB100","HB148","HB165","HB172","HJM3"],
            "date" : "2023-02-21",
            "datetime" : "2023-02-21T10:30:00",
            "mtime" : "2023-02-20T17:11:15",
            "name" : "House",
            "room" : "House Floor",
            "time" : "10:30 AM",
            "url" : "2023/02/hFloor/hFloor022123.pdf"
         }
      }
   }
}
