{
   "2021-02-04" : {
      "09:00:00" : {
         "SCONC" : {
            "bills" : ["SB83","SB112","SB86","SB118","SB68","SB101","SB126","SB85","SB103","SB113","SB132","SB82"],
            "date" : "2021-02-04",
            "datetime" : "2021-02-04T09:00:00",
            "mtime" : "2021-02-03T17:53:05",
            "name" : "SCONC",
            "time" : "9:00 AM",
            "url" : "2021/02/sSched/sSched020421.pdf"
         },
         "SIRC" : {
            "bills" : ["SB157","SB166","SB172","SB193"],
            "date" : "2021-02-04",
            "datetime" : "2021-02-04T09:00:00",
            "mtime" : "2021-02-03T17:53:05",
            "name" : "SIRC",
            "time" : "9:00 AM",
            "url" : "2021/02/sSched/sSched020421.pdf"
         }
      },
      "13:00:00" : {
         "SFC" : {
            "bills" : ["SB1","SB2","SB3"],
            "date" : "2021-02-04",
            "datetime" : "2021-02-04T13:00:00",
            "mtime" : "2021-02-03T17:53:05",
            "name" : "SFC",
            "time" : "1:00 PM",
            "url" : "2021/02/sSched/sSched020421.pdf"
         }
      },
      "13:30:00" : {
         "STBTC" : {
            "bills" : ["SB22","SB37","SB53","SB56","SB58","SB59","SB62","SB66","SB72","SB73"],
            "date" : "2021-02-04",
            "datetime" : "2021-02-04T13:30:00",
            "mtime" : "2021-02-03T17:53:05",
            "name" : "STBTC",
            "time" : "1:30 PM",
            "url" : "2021/02/sSched/sSched020421.pdf"
         }
      }
   },
   "2021-02-05" : {
      "09:00:00" : {
         "SEC" : {
            "bills" : ["SB135","SB139","SB144","SB148","SB151","SB159","SB163"],
            "date" : "2021-02-05",
            "datetime" : "2021-02-05T09:00:00",
            "mtime" : "2021-02-03T17:53:05",
            "name" : "SEC",
            "time" : "9:00 AM",
            "url" : "2021/02/sSched/sSched020421.pdf"
         }
      },
      "13:30:00" : {
         "SHPAC" : {
            "bills" : ["SB115","SB116","SB119","SB122","SB124","SB125","SB127","SB128"],
            "date" : "2021-02-05",
            "datetime" : "2021-02-05T13:30:00",
            "mtime" : "2021-02-03T17:53:05",
            "name" : "SHPAC",
            "time" : "1:30 PM",
            "url" : "2021/02/sSched/sSched020421.pdf"
         }
      }
   },
   "2021-02-08" : {
      "09:00:00" : {
         "SEC" : {
            "bills" : ["SB169","SB170","SB171","SB177","SB206","SB210","SB225"],
            "date" : "2021-02-08",
            "datetime" : "2021-02-08T09:00:00",
            "mtime" : "2021-02-03T17:53:05",
            "name" : "SEC",
            "time" : "9:00 AM",
            "url" : "2021/02/sSched/sSched020421.pdf"
         }
      },
      "13:00:00" : {
         "SFC" : {
            "bills" : [],
            "date" : "2021-02-08",
            "datetime" : "2021-02-08T13:00:00",
            "mtime" : "2021-02-03T17:53:05",
            "name" : "SFC",
            "time" : "1:00 PM",
            "url" : "2021/02/sSched/sSched020421.pdf"
         }
      }
   },
   "2021-02-09" : {
      "09:00:00" : {
         "SIRC" : {
            "bills" : ["SB204","SB257","SB273","SB278"],
            "date" : "2021-02-09",
            "datetime" : "2021-02-09T09:00:00",
            "mtime" : "2021-02-03T17:53:05",
            "name" : "SIRC",
            "time" : "9:00 AM",
            "url" : "2021/02/sSched/sSched020421.pdf"
         }
      },
      "13:00:00" : {
         "SFC" : {
            "bills" : [],
            "date" : "2021-02-09",
            "datetime" : "2021-02-09T13:00:00",
            "mtime" : "2021-02-03T17:53:05",
            "name" : "SFC",
            "time" : "1:00 PM",
            "url" : "2021/02/sSched/sSched020421.pdf"
         }
      }
   },
   "2021-02-10" : {
      "13:00:00" : {
         "SFC" : {
            "bills" : [],
            "date" : "2021-02-10",
            "datetime" : "2021-02-10T13:00:00",
            "mtime" : "2021-02-03T17:53:05",
            "name" : "SFC",
            "time" : "1:00 PM",
            "url" : "2021/02/sSched/sSched020421.pdf"
         }
      }
   },
   "2021-02-12" : {
      "13:00:00" : {
         "SFC" : {
            "bills" : [],
            "date" : "2021-02-12",
            "datetime" : "2021-02-12T13:00:00",
            "mtime" : "2021-02-03T17:53:05",
            "name" : "SFC",
            "time" : "1:00 PM",
            "url" : "2021/02/sSched/sSched020421.pdf"
         }
      }
   },
   "2021-02-15" : {
      "13:00:00" : {
         "SFC" : {
            "bills" : [],
            "date" : "2021-02-15",
            "datetime" : "2021-02-15T13:00:00",
            "mtime" : "2021-02-03T17:53:05",
            "name" : "SFC",
            "time" : "1:00 PM",
            "url" : "2021/02/sSched/sSched020421.pdf"
         }
      }
   }
}
