{
   "2021-02-18" : {
      "08:30:00" : {
         "SCONC" : {
            "bills" : ["SB156","SB296","SB297"],
            "date" : "2021-02-18",
            "datetime" : "2021-02-18T08:30:00",
            "mtime" : "2021-02-18T09:37:00",
            "name" : "SCONC",
            "time" : "8:30 AM",
            "url" : "2021/02/sSched/sSched021821.pdf"
         }
      },
      "13:00:00" : {
         "SFC" : {
            "bills" : ["SB42","SB145","SB88","SB181","SB70","SB20"],
            "date" : "2021-02-18",
            "datetime" : "2021-02-18T13:00:00",
            "mtime" : "2021-02-18T09:37:00",
            "name" : "SFC",
            "time" : "1:00 PM or 1/2 hour after floor session or",
            "url" : "2021/02/sSched/sSched021821.pdf"
         }
      },
      "13:30:00" : {
         "STBTC" : {
            "bills" : ["SB153","SB158","SB161","SB168","SB175","SB186","SB189","SB256","SB277","SB218"],
            "date" : "2021-02-18",
            "datetime" : "2021-02-18T13:30:00",
            "mtime" : "2021-02-18T09:37:00",
            "name" : "STBTC",
            "time" : "1:30 PM",
            "url" : "2021/02/sSched/sSched021821.pdf"
         }
      }
   },
   "2021-02-19" : {
      "09:00:00" : {
         "SEC" : {
            "bills" : ["SM1","SJM1","SB307","SB330","SB289","SB302","SB318","SB335","SB337","SB341","SB348","SB353"],
            "date" : "2021-02-19",
            "datetime" : "2021-02-19T09:00:00",
            "mtime" : "2021-02-18T09:37:00",
            "name" : "SEC",
            "time" : "9:00 AM",
            "url" : "2021/02/sSched/sSched021821.pdf"
         },
         "SRC" : {
            "bills" : ["SB48"],
            "date" : "2021-02-19",
            "datetime" : "2021-02-19T09:00:00",
            "mtime" : "2021-02-18T09:37:00",
            "name" : "SRC",
            "time" : "9:00 AM",
            "url" : "2021/02/sSched/sSched021821.pdf"
         }
      },
      "13:30:00" : {
         "SHPAC" : {
            "bills" : ["SB128","SB232","SB244","SB238","SB242","SB227","SB274"],
            "date" : "2021-02-19",
            "datetime" : "2021-02-19T13:30:00",
            "mtime" : "2021-02-18T09:37:00",
            "name" : "SHPAC",
            "time" : "1:30 PM",
            "url" : "2021/02/sSched/sSched021821.pdf"
         }
      }
   },
   "2021-02-23" : {
      "09:00:00" : {
         "SCONC" : {
            "bills" : ["SB312","SB347","HB57"],
            "date" : "2021-02-23",
            "datetime" : "2021-02-23T09:00:00",
            "mtime" : "2021-02-18T09:37:00",
            "name" : "SCONC",
            "time" : "9:00 AM",
            "url" : "2021/02/sSched/sSched021821.pdf"
         }
      }
   }
}
