{
   "2025-02-20" : {
      "13:30:00" : {
         "SFC" : {
            "bills" : ["SB21","SB133","SB92","SB282"],
            "date" : "2025-02-20",
            "datetime" : "2025-02-20T13:30:00",
            "mtime" : "2025-02-19T17:49:22",
            "name" : "SFC",
            "room" : "322",
            "time" : "1:30 PM",
            "url" : "2025/02/SFC/SFCageFeb20.25.pdf",
            "zoom" : "https://us02web.zoom.us/j/81696207177"
         }
      }
   }
}
