{
   "2025-02-21" : {
      "09:00:00" : {
         "SFC" : {
            "bills" : ["SB21","SB133","SB92","SB282","SB162","SB158"],
            "date" : "2025-02-21",
            "datetime" : "2025-02-21T09:00:00",
            "mtime" : "2025-02-20T18:04:01",
            "name" : "SFC",
            "room" : "322",
            "time" : "9:00 AM",
            "url" : "2025/02/SFC/SFCageFeb21.25.pdf",
            "zoom" : "https://us02web.zoom.us/j/81696207177"
         }
      }
   }
}
