{
   "2025-02-13" : {
      "13:30:00" : {
         "SFC" : {
            "bills" : ["SB220","SB82","SB23"],
            "date" : "2025-02-13",
            "datetime" : "2025-02-13T13:30:00",
            "mtime" : "2025-02-12T17:22:56",
            "name" : "SFC",
            "room" : "322",
            "time" : "1:30 PM",
            "url" : "2025/02/SFC/SFCageFeb13.25.pdf",
            "zoom" : "https://us02web.zoom.us/j/81696207177"
         }
      }
   }
}
