{
   "2025-03-08" : {
      "00:00:00" : {
         "SJC" : {
            "bills" : ["SB10","SB14","SB78","SB105","SB302","SB303","SB375","SB457"],
            "date" : "2025-03-08",
            "datetime" : "2025-03-08T00:00:00",
            "mtime" : "2025-03-08T16:25:53",
            "name" : "SJC",
            "room" : "321",
            "url" : "2025/03/SJC/SJCageMar08.25.pdf",
            "zoom" : "https://us02web.zoom.us/j/88109017169"
         }
      }
   }
}
