{
   "2023-03-10" : {
      "08:30:00" : {
         "HEC" : {
            "bills" : ["HB325","SB4","SB450"],
            "date" : "2023-03-10",
            "datetime" : "2023-03-10T08:30:00",
            "mtime" : "2023-03-09T17:10:01",
            "name" : "HEC",
            "room" : "309",
            "time" : "8:30 AM",
            "url" : "2023/03/hSched/hSched031023.pdf",
            "zoom" : "https://us02web.zoom.us/j/82501768249"
         },
         "HGEIC" : {
            "bills" : ["HB471","HB285","SB63","SB226","SB58","SB335","SB111"],
            "date" : "2023-03-10",
            "datetime" : "2023-03-10T08:30:00",
            "mtime" : "2023-03-09T17:10:01",
            "name" : "HGEIC",
            "room" : "305",
            "time" : "8:30 AM",
            "url" : "2023/03/hSched/hSched031023.pdf",
            "zoom" : "https://us02web.zoom.us/j/81850374006"
         },
         "HHHC" : {
            "bills" : ["SB7","SB16","SB35","SB81","SB92","SB106","SB107"],
            "date" : "2023-03-10",
            "datetime" : "2023-03-10T08:30:00",
            "mtime" : "2023-03-09T17:10:01",
            "name" : "HHHC",
            "room" : "307",
            "time" : "8:30 AM",
            "url" : "2023/03/hSched/hSched031023.pdf",
            "zoom" : "https://us02web.zoom.us/j/84266137922"
         },
         "HTRC" : {
            "bills" : ["SB474","HB505"],
            "date" : "2023-03-10",
            "datetime" : "2023-03-10T08:30:00",
            "mtime" : "2023-03-09T17:10:01",
            "name" : "HTRC",
            "room" : "317",
            "time" : "8:30 AM",
            "url" : "2023/03/hSched/hSched031023.pdf",
            "zoom" : "https://us02web.zoom.us/j/89087836680"
         }
      },
      "13:30:00" : {
         "HAFC" : {
            "bills" : [],
            "date" : "2023-03-10",
            "datetime" : "2023-03-10T13:30:00",
            "mtime" : "2023-03-09T17:10:01",
            "name" : "HAFC",
            "room" : "307",
            "time" : "1:30 PM",
            "url" : "2023/03/hSched/hSched031023.pdf"
         },
         "HCEDC" : {
            "bills" : ["SB11","SB143"],
            "date" : "2023-03-10",
            "datetime" : "2023-03-10T13:30:00",
            "mtime" : "2023-03-09T17:10:01",
            "name" : "HCEDC",
            "room" : "317",
            "time" : "1:30 PM",
            "url" : "2023/03/hSched/hSched031023.pdf",
            "zoom" : "https://us02web.zoom.us/j/81561067239"
         },
         "HJC" : {
            "bills" : ["SB260","SB302","HB6","SB133","SB53","HB462","HB15","SB180","SB187","SB43","HB494"],
            "date" : "2023-03-10",
            "datetime" : "2023-03-10T13:30:00",
            "mtime" : "2023-03-09T17:10:01",
            "name" : "HJC",
            "room" : "309",
            "time" : "1:30 PM",
            "url" : "2023/03/hSched/hSched031023.pdf",
            "zoom" : "https://us02web.zoom.us/j/81793611432"
         }
      }
   },
   "2023-03-11" : {
      "09:00:00" : {
         "HGEIC" : {
            "bills" : ["SB188","SJR12","SB182","SB206","HB430","HB431","HB482","HB435"],
            "date" : "2023-03-11",
            "datetime" : "2023-03-11T09:00:00",
            "mtime" : "2023-03-09T17:10:01",
            "name" : "HGEIC",
            "room" : "305",
            "time" : "9:00 AM",
            "url" : "2023/03/hSched/hSched031023.pdf",
            "zoom" : "https://us02web.zoom.us/j/88261854647"
         }
      }
   },
   "2023-03-13" : {
      "13:30:00" : {
         "HCEDC" : {
            "bills" : ["SB251","SB327","SB389"],
            "date" : "2023-03-13",
            "datetime" : "2023-03-13T13:30:00",
            "mtime" : "2023-03-09T17:10:01",
            "name" : "HCEDC",
            "room" : "317",
            "time" : "1:30 PM",
            "url" : "2023/03/hSched/hSched031023.pdf",
            "zoom" : "https://us02web.zoom.us/j/81561067239"
         }
      }
   }
}
