{
   "2023-03-11" : {
      "09:00:00" : {
         "HGEIC" : {
            "bills" : ["SB63","SB335","SB111","SB188","SJR12","SB182","SB206","HB430","HB431","HB522"],
            "date" : "2023-03-11",
            "datetime" : "2023-03-11T09:00:00",
            "mtime" : "2023-03-10T19:52:39",
            "name" : "HGEIC",
            "room" : "305",
            "time" : "9:00 AM",
            "url" : "2023/03/hSched/hSched031123.pdf",
            "zoom" : "https://us02web.zoom.us/j/88261854647"
         },
         "HJC" : {
            "bills" : ["HB288","SB224","SB42","HB158","SB280","SB84","SB29","SB41","SB102","SB31","HB470","SB71"],
            "date" : "2023-03-11",
            "datetime" : "2023-03-11T09:00:00",
            "mtime" : "2023-03-10T19:52:39",
            "name" : "HJC",
            "room" : "309",
            "time" : "9:00 AM",
            "url" : "2023/03/hSched/hSched031123.pdf",
            "zoom" : "https://us02web.zoom.us/j/81793611432"
         }
      },
      "11:30:00" : {
         "HAAWC" : {
            "bills" : ["SB391","SB314","SB222"],
            "date" : "2023-03-11",
            "datetime" : "2023-03-11T11:30:00",
            "mtime" : "2023-03-10T19:52:39",
            "name" : "HAAWC",
            "room" : "315",
            "time" : "11:30 AM",
            "url" : "2023/03/hSched/hSched031123.pdf",
            "zoom" : "https://us02web.zoom.us/j/85936697460"
         }
      }
   },
   "2023-03-13" : {
      "08:30:00" : {
         "HGEIC" : {
            "bills" : ["HB435","SB286","SB160","SB16","HB482"],
            "date" : "2023-03-13",
            "datetime" : "2023-03-13T08:30:00",
            "mtime" : "2023-03-10T19:52:39",
            "name" : "HGEIC",
            "room" : "305",
            "time" : "8:30 AM",
            "url" : "2023/03/hSched/hSched031123.pdf",
            "zoom" : "https://us02web.zoom.us/j/81850374006"
         },
         "HHHC" : {
            "bills" : ["SB117","SB150","SB242","SB245","SB273","SB397"],
            "date" : "2023-03-13",
            "datetime" : "2023-03-13T08:30:00",
            "mtime" : "2023-03-10T19:52:39",
            "name" : "HHHC",
            "room" : "307",
            "time" : "8:30 AM",
            "url" : "2023/03/hSched/hSched031123.pdf",
            "zoom" : "https://us02web.zoom.us/j/84266137922"
         }
      },
      "09:30:00" : {
         "HTRC" : {
            "bills" : ["SB240","SB396"],
            "date" : "2023-03-13",
            "datetime" : "2023-03-13T09:30:00",
            "mtime" : "2023-03-10T19:52:39",
            "name" : "HTRC",
            "room" : "317",
            "time" : "9:30 AM",
            "url" : "2023/03/hSched/hSched031123.pdf",
            "zoom" : "https://us02web.zoom.us/j/89087836680"
         }
      },
      "13:30:00" : {
         "HCEDC" : {
            "bills" : ["SB251","SB327","SB389"],
            "date" : "2023-03-13",
            "datetime" : "2023-03-13T13:30:00",
            "mtime" : "2023-03-10T19:52:39",
            "name" : "HCEDC",
            "room" : "317",
            "time" : "1:30 PM",
            "url" : "2023/03/hSched/hSched031123.pdf",
            "zoom" : "https://us02web.zoom.us/j/81561067239"
         }
      }
   },
   "2023-03-14" : {
      "09:00:00" : {
         "HTPWC" : {
            "bills" : ["SB69","HB328"],
            "date" : "2023-03-14",
            "datetime" : "2023-03-14T09:00:00",
            "mtime" : "2023-03-10T19:52:39",
            "name" : "HTPWC",
            "room" : "305",
            "time" : "9:00 AM",
            "url" : "2023/03/hSched/hSched031123.pdf",
            "zoom" : "https://us02web.zoom.us/j/83429763870"
         }
      }
   }
}
