{
   "2023-03-15" : {
      "08:30:00" : {
         "HGEIC" : {
            "bills" : ["SJR14","HM83","HM28"],
            "date" : "2023-03-15",
            "datetime" : "2023-03-15T08:30:00",
            "mtime" : "2023-03-14T18:30:44",
            "name" : "HGEIC",
            "room" : "305",
            "time" : "8:30 AM",
            "url" : "2023/03/hSched/hSched031523.pdf",
            "zoom" : "https://us02web.zoom.us/j/81850374006"
         },
         "HHHC" : {
            "bills" : ["SB17","SB181","SB203","SB232","SB328","HJM4","HM5","HM7","HM23"],
            "date" : "2023-03-15",
            "datetime" : "2023-03-15T08:30:00",
            "mtime" : "2023-03-14T18:30:44",
            "name" : "HHHC",
            "room" : "307",
            "time" : "8:30 AM",
            "url" : "2023/03/hSched/hSched031523.pdf",
            "zoom" : "https://us02web.zoom.us/j/84266137922"
         }
      },
      "09:30:00" : {
         "HEC" : {
            "bills" : ["SB108","SB357","SB492"],
            "date" : "2023-03-15",
            "datetime" : "2023-03-15T09:30:00",
            "mtime" : "2023-03-14T18:30:44",
            "name" : "HEC",
            "room" : "309",
            "time" : "9:30 AM",
            "url" : "2023/03/hSched/hSched031523.pdf",
            "zoom" : "https://us02web.zoom.us/j/82501768249"
         },
         "HTRC" : {
            "bills" : ["SB251","SB157","SB396","SB240","SB205","SB275","SB309"],
            "date" : "2023-03-15",
            "datetime" : "2023-03-15T09:30:00",
            "mtime" : "2023-03-14T18:30:44",
            "name" : "HTRC",
            "room" : "317",
            "time" : "9:30 AM",
            "url" : "2023/03/hSched/hSched031523.pdf",
            "zoom" : "https://us02web.zoom.us/j/89087836680"
         }
      },
      "13:30:00" : {
         "HAFC" : {
            "bills" : ["SB144","SB145","SB521","SB382","SB210","SB273","SB314","SB450"],
            "date" : "2023-03-15",
            "datetime" : "2023-03-15T13:30:00",
            "mtime" : "2023-03-14T18:30:44",
            "name" : "HAFC",
            "room" : "307",
            "time" : "1:30 PM",
            "url" : "2023/03/hSched/hSched031523.pdf",
            "zoom" : "https://us02web.zoom.us/j/82340595935"
         },
         "HCEDC" : {
            "bills" : ["SB336"],
            "date" : "2023-03-15",
            "datetime" : "2023-03-15T13:30:00",
            "mtime" : "2023-03-14T18:30:44",
            "name" : "HCEDC",
            "room" : "317",
            "time" : "1:30 PM",
            "url" : "2023/03/hSched/hSched031523.pdf",
            "zoom" : "https://us02web.zoom.us/j/81561067239"
         },
         "HJC" : {
            "bills" : ["SB200","SB71","SB383","HB429","SB388","SB13","SB428","SB398","SB368","SB50","SB117","SB106","SB107"],
            "date" : "2023-03-15",
            "datetime" : "2023-03-15T13:30:00",
            "mtime" : "2023-03-14T18:30:44",
            "name" : "HJC",
            "room" : "309",
            "time" : "1:30 PM",
            "url" : "2023/03/hSched/hSched031523.pdf",
            "zoom" : "https://us02web.zoom.us/j/81793611432"
         }
      }
   },
   "2023-03-16" : {
      "09:00:00" : {
         "HTRC" : {
            "bills" : ["SB75"],
            "date" : "2023-03-16",
            "datetime" : "2023-03-16T09:00:00",
            "mtime" : "2023-03-14T18:30:44",
            "name" : "HTRC",
            "room" : "305",
            "time" : "9:00 AM",
            "url" : "2023/03/hSched/hSched031523.pdf",
            "zoom" : "https://us02web.zoom.us/j/83429763870"
         }
      },
      "13:30:00" : {
         "HLVMC" : {
            "bills" : ["SB124"],
            "date" : "2023-03-16",
            "datetime" : "2023-03-16T13:30:00",
            "mtime" : "2023-03-14T18:30:44",
            "name" : "HLVMC",
            "room" : "315",
            "time" : "1:30 PM",
            "url" : "2023/03/hSched/hSched031523.pdf",
            "zoom" : "https://us02web.zoom.us/j/83177147401"
         }
      }
   }
}
