{
   "2023-02-10" : {
      "13:30:00" : {
         "SJC" : {
            "bills" : ["SB73","SB41","SB42","SB219"],
            "date" : "2023-02-10",
            "datetime" : "2023-02-10T13:30:00",
            "mtime" : "2023-02-09T18:44:33",
            "name" : "SJC",
            "room" : "321",
            "time" : "1:30 PM or 1/2 hour after floor session",
            "url" : "2023/02/SJC/SJCageFeb10.23.pdf",
            "zoom" : "https://us02web.zoom.us/j/3616365786"
         }
      }
   }
}
