{
   "2025-02-15" : {
      "09:00:00" : {
         "SCONC" : {
            "bills" : ["SB178","SB214","SB231","SB240","SB260","SB262","SB281"],
            "date" : "2025-02-15",
            "datetime" : "2025-02-15T09:00:00",
            "mtime" : "2025-02-13T16:14:37",
            "name" : "SCONC",
            "room" : "311",
            "time" : "9:00 AM",
            "url" : "2025/02/SCONC/SCONCageFeb15.25.pdf",
            "zoom" : "https://us02web.zoom.us/j/82404382748"
         }
      }
   }
}
