{
   "2025-02-18" : {
      "09:00:00" : {
         "SCONC" : {
            "bills" : ["SB231","SB240","SB260","SB262","SB264","SB281"],
            "date" : "2025-02-18",
            "datetime" : "2025-02-18T09:00:00",
            "mtime" : "2025-02-15T13:36:09",
            "name" : "SCONC",
            "room" : "311",
            "time" : "9:00 AM",
            "url" : "2025/02/SCONC/SCONCageFeb18.25.pdf",
            "zoom" : "https://us02web.zoom.us/j/82404382748"
         }
      }
   }
}
