{
   "2023-01-18" : {
      "00:00:00" : {
         "House" : {
            "bills" : [],
            "date" : "2023-01-18",
            "mtime" : "2023-01-18T12:00:46",
            "name" : "House",
            "room" : "House Floor",
            "url" : "2023/01/hFloor/hFloor011823_Supplemental.pdf"
         }
      }
   }
}
