{
   "2023-01-18" : {
      "10:30:00" : {
         "House" : {
            "bills" : [],
            "date" : "2023-01-18",
            "datetime" : "2023-01-18T10:30:00",
            "mtime" : "2023-01-17T18:18:24",
            "name" : "House",
            "room" : "House Floor",
            "time" : "10:30 AM",
            "url" : "2023/01/hFloor/hFloor011823.pdf"
         }
      }
   }
}
