{
   "2024-02-05" : {
      "08:00:00" : {
         "SRC" : {
            "bills" : [],
            "date" : "2024-02-05",
            "datetime" : "2024-02-05T08:00:00",
            "mtime" : "2024-02-02T17:46:30",
            "name" : "SRC",
            "room" : "321",
            "time" : "8:00 AM",
            "url" : "2024/02/SRC/SRCageFeb05.24.pdf",
            "zoom" : "https://us02web.zoom.us/j/81944191844"
         }
      }
   }
}
