{
   "2021-02-18" : {
      "13:30:00" : {
         "HCPAC" : {
            "bills" : ["HB226","HB254","HB276","HJR6","HJR7"],
            "date" : "2021-02-18",
            "datetime" : "2021-02-18T13:30:00",
            "mtime" : "2021-02-17T11:17:25",
            "name" : "HCPAC",
            "time" : "1:30 PM",
            "url" : "2021/02/HCPAC/HCPACageFeb18.21.pdf",
            "zoom" : "https://us02web.zoom.us/j/89243737297"
         }
      }
   }
}
