{
   "2024-01-27" : {
      "09:00:00" : {
         "HHHC" : {
            "bills" : ["HB94","HB104","HB131","HB149","HB151"],
            "date" : "2024-01-27",
            "datetime" : "2024-01-27T09:00:00",
            "mtime" : "2024-01-26T20:01:30",
            "name" : "HHHC",
            "room" : "307",
            "time" : "9:00 AM",
            "url" : "2024/01/HHHC/HHHCageJan27.24.pdf",
            "zoom" : "https://us02web.zoom.us/j/89525670464"
         }
      }
   }
}
