{
   "2021-01-21" : {
      "09:00:00" : {
         "HAAWC" : {
            "bills" : [],
            "date" : "2021-01-21",
            "datetime" : "2021-01-21T09:00:00",
            "mtime" : "2021-01-21T15:06:19",
            "name" : "HAAWC",
            "time" : "9:00 AM",
            "url" : "2021/01/hSched/hSched012021.pdf",
            "zoom" : "https://us02web.zoom.us/j/88339525118"
         },
         "HENRC" : {
            "bills" : [],
            "date" : "2021-01-21",
            "datetime" : "2021-01-21T09:00:00",
            "mtime" : "2021-01-21T15:06:19",
            "name" : "HENRC",
            "time" : "9:00 AM",
            "url" : "2021/01/hSched/hSched012021.pdf",
            "zoom" : "https://us02web.zoom.us/j/82056044028"
         }
      },
      "13:30:00" : {
         "HCPAC" : {
            "bills" : [],
            "date" : "2021-01-21",
            "datetime" : "2021-01-21T13:30:00",
            "mtime" : "2021-01-21T15:06:19",
            "name" : "HCPAC",
            "time" : "1:30 PM",
            "url" : "2021/01/hSched/hSched012021.pdf",
            "zoom" : "https://us02web.zoom.us/j/89247448940?pwd=bHJySDVYRThYanN5U3BNOFpEY1VSQT09"
         }
      },
      "14:30:00" : {
         "HAFC" : {
            "bills" : [],
            "date" : "2021-01-21",
            "datetime" : "2021-01-21T14:30:00",
            "mtime" : "2021-01-21T15:06:19",
            "name" : "HAFC",
            "room" : "307",
            "time" : "2:30 PM",
            "url" : "2021/01/hSched/hSched012021.pdf",
            "zoom" : "https://us02web.zoom.us/j/86784927749"
         }
      },
      "15:00:00" : {
         "HLVMC" : {
            "bills" : [],
            "date" : "2021-01-21",
            "datetime" : "2021-01-21T15:00:00",
            "mtime" : "2021-01-21T15:06:19",
            "name" : "HLVMC",
            "time" : "3:00 PM",
            "url" : "2021/01/hSched/hSched012021.pdf",
            "zoom" : "https://us02web.zoom.us/j/84249828480?pwd=NHlCMkpSSG8vQ3VyYnlNcGt5Wk9pQT09"
         }
      }
   },
   "2021-01-22" : {
      "08:00:00" : {
         "HEC" : {
            "bills" : [],
            "date" : "2021-01-22",
            "datetime" : "2021-01-22T08:00:00",
            "mtime" : "2021-01-21T15:06:19",
            "name" : "HEC",
            "time" : "8:00 AM",
            "url" : "2021/01/hSched/hSched012021.pdf",
            "zoom" : "https://us02web.zoom.us/j/82200627988"
         }
      },
      "08:30:00" : {
         "HHHC" : {
            "bills" : [],
            "date" : "2021-01-22",
            "datetime" : "2021-01-22T08:30:00",
            "mtime" : "2021-01-21T15:06:19",
            "name" : "HHHC",
            "time" : "8:30 AM",
            "url" : "2021/01/hSched/hSched012021.pdf",
            "zoom" : "https://us02web.zoom.us/j/89696974795"
         }
      },
      "10:00:00" : {
         "HGEIC" : {
            "bills" : [],
            "date" : "2021-01-22",
            "datetime" : "2021-01-22T10:00:00",
            "mtime" : "2021-01-21T15:06:19",
            "name" : "HGEIC",
            "time" : "10:00 AM",
            "url" : "2021/01/hSched/hSched012021.pdf",
            "zoom" : "https://us02web.zoom.us/j/89896332986"
         }
      },
      "13:30:00" : {
         "HJC" : {
            "bills" : [],
            "date" : "2021-01-22",
            "datetime" : "2021-01-22T13:30:00",
            "mtime" : "2021-01-21T15:06:19",
            "name" : "HJC",
            "time" : "1:30 PM",
            "url" : "2021/01/hSched/hSched012021.pdf",
            "zoom" : "https://us02web.zoom.us/j/89543370073"
         }
      },
      "14:00:00" : {
         "HCEDC" : {
            "bills" : [],
            "date" : "2021-01-22",
            "datetime" : "2021-01-22T14:00:00",
            "mtime" : "2021-01-21T15:06:19",
            "name" : "HCEDC",
            "time" : "2:00 PM",
            "url" : "2021/01/hSched/hSched012021.pdf",
            "zoom" : "https://us02web.zoom.us/j/89851721423"
         }
      }
   },
   "2021-01-26" : {
      "09:00:00" : {
         "HRDLC" : {
            "bills" : [],
            "date" : "2021-01-26",
            "datetime" : "2021-01-26T09:00:00",
            "mtime" : "2021-01-21T15:06:19",
            "name" : "HRDLC",
            "time" : "9:00 AM",
            "url" : "2021/01/hSched/hSched012021.pdf"
         }
      },
      "12:00:00" : {
         "HXRC" : {
            "bills" : ["HR1"],
            "date" : "2021-01-26",
            "datetime" : "2021-01-26T12:00:00",
            "mtime" : "2021-01-21T15:06:19",
            "name" : "HXRC",
            "time" : "12:00 PM",
            "url" : "2021/01/hSched/hSched012021.pdf",
            "zoom" : "https://us02web.zoom.us/j/86399360062"
         }
      }
   }
}
