{
   "2021-03-05" : {
      "13:30:00" : {
         "HJC" : {
            "bills" : ["HB189","HB216","SB114","HB202"],
            "date" : "2021-03-05",
            "datetime" : "2021-03-05T13:30:00",
            "mtime" : "2021-03-05T12:39:46",
            "name" : "HJC",
            "time" : "1:30 PM",
            "url" : "2021/03/HJC/HJCageMar05.21.pdf",
            "zoom" : "https://us02web.zoom.us/j/89543370073"
         }
      }
   }
}
