{
   "2023-03-17" : {
      "00:00:00" : {
         "HHHC" : {
            "bills" : ["SB51"],
            "date" : "2023-03-17",
            "datetime" : "2023-03-17T00:00:00",
            "mtime" : "2023-03-16T09:28:24",
            "name" : "HHHC",
            "room" : "315",
            "url" : "2023/03/HHHC/HHHCageMar16.23.pdf",
            "zoom" : "https://us02web.zoom.us/j/84266137922"
         }
      }
   }
}
