{
   "2024-01-29" : {
      "08:00:00" : {
         "SRC" : {
            "bills" : ["SB14","SB108","SB137","SJR2","SJR5","SJM1","SJR16"],
            "date" : "2024-01-29",
            "datetime" : "2024-01-29T08:00:00",
            "mtime" : "2024-01-26T20:04:32",
            "name" : "SRC",
            "room" : "321",
            "time" : "8:00 AM",
            "url" : "2024/01/SRC/SRCageJan27.24.pdf",
            "zoom" : "https://us02web.zoom.us/j/81944191844"
         }
      }
   }
}
