{
   "2023-01-30" : {
      "11:00:00" : {
         "Senate" : {
            "bills" : ["SJM3","SM2","SM3","SM5","SM9","SM10","SM12","SM13","SM14"],
            "date" : "2023-01-30",
            "datetime" : "2023-01-30T11:00:00",
            "mtime" : "2023-01-28T00:21:32",
            "name" : "Senate",
            "room" : "Senate Floor",
            "time" : "11:00 AM",
            "url" : "2023/01/sFloor/sFloor013023.pdf"
         }
      }
   }
}
