{
   "2023-01-31" : {
      "09:30:00" : {
         "SIRC" : {
            "bills" : ["SB188","SB115"],
            "date" : "2023-01-31",
            "datetime" : "2023-01-31T09:30:00",
            "mtime" : "2023-01-28T09:00:27",
            "name" : "SIRC",
            "room" : "303",
            "time" : "9:30 AM",
            "url" : "2023/01/SIRC/SIRCageJan31.23.pdf",
            "zoom" : "https://us02web.zoom.us/j/4330437643"
         }
      }
   }
}
