{
   "2021-03-11" : {
      "13:00:00" : {
         "SFC" : {
            "bills" : ["HB157","HJR1"],
            "date" : "2021-03-11",
            "datetime" : "2021-03-11T13:00:00",
            "mtime" : "2021-03-10T19:14:55",
            "name" : "SFC",
            "time" : "1:00 PM or 1/2 hour    Virtual Zoom Meeting",
            "url" : "2021/03/SFC/SFCageMar11.21.pdf"
         }
      }
   }
}
