{
   "2021-03-05" : {
      "13:00:00" : {
         "SFC" : {
            "bills" : ["SB61","SB98","SB160","SB127","SB210"],
            "date" : "2021-03-05",
            "datetime" : "2021-03-05T13:00:00",
            "mtime" : "2021-03-05T12:00:21",
            "name" : "SFC",
            "time" : "1:00 PM or 1/2 hour    Virtual Zoom Meeting",
            "url" : "2021/03/SFC/SFCageMar05.21.pdf"
         }
      }
   }
}
