{
   "2023-02-24" : {
      "13:30:00" : {
         "SFC" : {
            "bills" : ["SB124","SB20","SB24","SB182","SB202","SB381"],
            "date" : "2023-02-24",
            "datetime" : "2023-02-24T13:30:00",
            "mtime" : "2023-02-23T19:35:28",
            "name" : "SFC",
            "room" : "322",
            "time" : "1:30 PM",
            "url" : "2023/02/SFC/SFCageFeb24.23.pdf"
         }
      }
   }
}
