{
   "2023-02-02" : {
      "13:30:00" : {
         "SFC" : {
            "bills" : ["SB47"],
            "date" : "2023-02-02",
            "datetime" : "2023-02-02T13:30:00",
            "mtime" : "2023-02-01T18:07:10",
            "name" : "SFC",
            "room" : "322",
            "time" : "1:30 PM",
            "url" : "2023/02/SFC/SFCageFeb02.23.pdf"
         }
      }
   }
}
