{
   "2023-02-06" : {
      "08:30:00" : {
         "HEC" : {
            "bills" : ["HB52","HB30","HB137","HB151"],
            "date" : "2023-02-06",
            "datetime" : "2023-02-06T08:30:00",
            "mtime" : "2023-02-04T20:07:00",
            "name" : "HEC",
            "room" : "309",
            "time" : "8:30 AM",
            "url" : "2023/02/hSched/hSched020623.pdf",
            "zoom" : "https://us02web.zoom.us/j/82501768249"
         },
         "HGEIC" : {
            "bills" : ["HJR2","HJR8","HB165","HB148","HJM1"],
            "date" : "2023-02-06",
            "datetime" : "2023-02-06T08:30:00",
            "mtime" : "2023-02-04T20:07:00",
            "name" : "HGEIC",
            "room" : "305",
            "time" : "8:30 AM",
            "url" : "2023/02/hSched/hSched020623.pdf",
            "zoom" : "https://us02web.zoom.us/j/81850374006"
         },
         "HHHC" : {
            "bills" : ["HB168","HB172","HB173","HB177","HB187"],
            "date" : "2023-02-06",
            "datetime" : "2023-02-06T08:30:00",
            "mtime" : "2023-02-04T20:07:00",
            "name" : "HHHC",
            "room" : "307",
            "time" : "8:30 AM",
            "url" : "2023/02/hSched/hSched020623.pdf",
            "zoom" : "https://us02web.zoom.us/j/84266137922"
         },
         "HTRC" : {
            "bills" : ["HB67","HB69","HB78","HB123"],
            "date" : "2023-02-06",
            "datetime" : "2023-02-06T08:30:00",
            "mtime" : "2023-02-04T20:07:00",
            "name" : "HTRC",
            "room" : "317",
            "time" : "8:30 AM",
            "url" : "2023/02/hSched/hSched020623.pdf",
            "zoom" : "https://us02web.zoom.us/j/89087836680"
         }
      },
      "13:30:00" : {
         "HAFC" : {
            "bills" : [],
            "date" : "2023-02-06",
            "datetime" : "2023-02-06T13:30:00",
            "mtime" : "2023-02-04T20:07:00",
            "name" : "HAFC",
            "room" : "307",
            "time" : "1:30 PM",
            "url" : "2023/02/hSched/hSched020623.pdf"
         },
         "HCEDC" : {
            "bills" : ["HB23","HB228","HB229"],
            "date" : "2023-02-06",
            "datetime" : "2023-02-06T13:30:00",
            "mtime" : "2023-02-04T20:07:00",
            "name" : "HCEDC",
            "room" : "317",
            "time" : "1:30 PM",
            "url" : "2023/02/hSched/hSched020623.pdf",
            "zoom" : "https://us02web.zoom.us/j/81561067239"
         },
         "HJC" : {
            "bills" : ["HB40","HB205","HB90","HB297","HB77"],
            "date" : "2023-02-06",
            "datetime" : "2023-02-06T13:30:00",
            "mtime" : "2023-02-04T20:07:00",
            "name" : "HJC",
            "room" : "309",
            "time" : "1:30 PM",
            "url" : "2023/02/hSched/hSched020623.pdf",
            "zoom" : "https://us02web.zoom.us/j/81793611432"
         }
      }
   },
   "2023-02-07" : {
      "09:00:00" : {
         "HAAWC" : {
            "bills" : ["HB298"],
            "date" : "2023-02-07",
            "datetime" : "2023-02-07T09:00:00",
            "mtime" : "2023-02-04T20:07:00",
            "name" : "HAAWC",
            "room" : "315",
            "time" : "9:00 AM",
            "url" : "2023/02/hSched/hSched020623.pdf",
            "zoom" : "https://us02web.zoom.us/j/85936697460"
         },
         "HTPWC" : {
            "bills" : ["HB213","HB3","HB208"],
            "date" : "2023-02-07",
            "datetime" : "2023-02-07T09:00:00",
            "mtime" : "2023-02-04T20:07:00",
            "name" : "HTPWC",
            "room" : "305",
            "time" : "9:00 AM",
            "url" : "2023/02/hSched/hSched020623.pdf",
            "zoom" : "https://us02web.zoom.us/j/83429763870"
         }
      },
      "13:30:00" : {
         "HCPAC" : {
            "bills" : ["HB50","HB100","HB101","HB164"],
            "date" : "2023-02-07",
            "datetime" : "2023-02-07T13:30:00",
            "mtime" : "2023-02-04T20:07:00",
            "name" : "HCPAC",
            "room" : "317",
            "time" : "1:30 PM",
            "url" : "2023/02/hSched/hSched020623.pdf",
            "zoom" : "https://us02web.zoom.us/j/89037370054"
         },
         "HLVMC" : {
            "bills" : ["HB102","HB186","HB200"],
            "date" : "2023-02-07",
            "datetime" : "2023-02-07T13:30:00",
            "mtime" : "2023-02-04T20:07:00",
            "name" : "HLVMC",
            "room" : "315",
            "time" : "1:30 PM",
            "url" : "2023/02/hSched/hSched020623.pdf",
            "zoom" : "https://us02web.zoom.us/j/83177147401"
         }
      }
   },
   "2023-02-08" : {
      "13:30:00" : {
         "HCEDC" : {
            "bills" : ["HB115","HB237","HB79","HB93","HB94"],
            "date" : "2023-02-08",
            "datetime" : "2023-02-08T13:30:00",
            "mtime" : "2023-02-04T20:07:00",
            "name" : "HCEDC",
            "room" : "317",
            "time" : "1:30 PM",
            "url" : "2023/02/hSched/hSched020623.pdf",
            "zoom" : "https://us02web.zoom.us/j/81561067239"
         }
      }
   },
   "2023-02-09" : {
      "09:00:00" : {
         "HTPWC" : {
            "bills" : ["HB160","HB223","HB240","HB24"],
            "date" : "2023-02-09",
            "datetime" : "2023-02-09T09:00:00",
            "mtime" : "2023-02-04T20:07:00",
            "name" : "HTPWC",
            "room" : "305",
            "time" : "9:00 AM",
            "url" : "2023/02/hSched/hSched020623.pdf",
            "zoom" : "https://us02web.zoom.us/j/82326335475"
         }
      },
      "13:30:00" : {
         "HCPAC" : {
            "bills" : ["HB111","HB138","HB170","HB180","HB182","HB218"],
            "date" : "2023-02-09",
            "datetime" : "2023-02-09T13:30:00",
            "mtime" : "2023-02-04T20:07:00",
            "name" : "HCPAC",
            "room" : "317",
            "time" : "1:30 PM",
            "url" : "2023/02/hSched/hSched020623.pdf",
            "zoom" : "https://us02web.zoom.us/j/89037370054"
         },
         "HLVMC" : {
            "bills" : ["HB210","HB227","HB245","HB255"],
            "date" : "2023-02-09",
            "datetime" : "2023-02-09T13:30:00",
            "mtime" : "2023-02-04T20:07:00",
            "name" : "HLVMC",
            "room" : "315",
            "time" : "1:30 PM",
            "url" : "2023/02/hSched/hSched020623.pdf",
            "zoom" : "https://us02web.zoom.us/j/83177147401"
         }
      }
   }
}
