{
   "2023-03-07" : {
      "00:00:00" : {
         "STBTC" : {
            "bills" : ["SB345","SB51","SB130","SB155","SB164","SB232","SB266","SB281","HB27","HB78","HB90","HB160"],
            "date" : "2023-03-07",
            "datetime" : "2023-03-07T00:00:00",
            "mtime" : "2023-03-04T19:33:13",
            "name" : "STBTC",
            "room" : "321",
            "time" : "After Floor Session",
            "url" : "2023/03/STBTC/STBTCageMar07.23.pdf",
            "zoom" : "https://us02web.zoom.us/j/85614440294"
         }
      }
   }
}
