{
   "2023-03-16" : {
      "00:00:00" : {
         "STBTC" : {
            "bills" : ["SM1","HB320"],
            "date" : "2023-03-16",
            "datetime" : "2023-03-16T00:00:00",
            "mtime" : "2023-03-16T09:30:00",
            "name" : "STBTC",
            "room" : "311",
            "time" : "After the Floor Session",
            "url" : "2023/03/STBTC/STBTCageMar16.23.pdf",
            "zoom" : "https://us02web.zoom.us/j/85614440294"
         }
      }
   }
}
