{
   "2023-03-04" : {
      "08:30:00" : {
         "STBTC" : {
            "bills" : ["SB205","SB235","SB240","SB274","SB320","SB390","SB345","SB343","SB382","SB403","SB410","SB514","SB448","SB472","SB51","SB75","HB8","HB44","HB79"],
            "date" : "2023-03-04",
            "datetime" : "2023-03-04T08:30:00",
            "mtime" : "2023-03-03T13:23:54",
            "name" : "STBTC",
            "room" : "311",
            "time" : "8:30 AM",
            "url" : "2023/03/STBTC/STBTCageMar04.23.pdf",
            "zoom" : "https://us02web.zoom.us/j/85614440294"
         }
      }
   }
}
