{
   "2023-01-27" : {
      "13:30:00" : {
         "SHPAC" : {
            "bills" : ["SB7","SB65","SB84","SB89","SB96","SB99","SB81","SB92","SB103","SB139","SB140","SB141"],
            "date" : "2023-01-27",
            "datetime" : "2023-01-27T13:30:00",
            "mtime" : "2023-01-26T10:43:04",
            "name" : "SHPAC",
            "room" : "311",
            "time" : "1:30 PM or 1/2 hr after floor session",
            "url" : "2023/01/SHPAC/SHPACageJan27.23.pdf",
            "zoom" : "https://us02web.zoom.us/j/9124526531"
         }
      }
   }
}
