{
   "2024-01-26" : {
      "08:30:00" : {
         "HEC" : {
            "bills" : ["HB134","HB135","HB199"],
            "date" : "2024-01-26",
            "datetime" : "2024-01-26T08:30:00",
            "mtime" : "2024-01-25T17:56:34",
            "name" : "HEC",
            "room" : "309",
            "time" : "8:30 AM",
            "url" : "/home/esm/.cache/nmlegis/get-calendars/2024/01/hSched/hSched012624.pdf",
            "zoom" : "https://us02web.zoom.us/j/87512084108"
         },
         "HGEIC" : {
            "bills" : ["HJR7","HJR5","HJR1","HJR2"],
            "date" : "2024-01-26",
            "datetime" : "2024-01-26T08:30:00",
            "mtime" : "2024-01-25T17:56:34",
            "name" : "HGEIC",
            "room" : "305",
            "time" : "8:30 AM",
            "url" : "/home/esm/.cache/nmlegis/get-calendars/2024/01/hSched/hSched012624.pdf",
            "zoom" : "https://us02web.zoom.us/j/84200839142"
         },
         "HHHC" : {
            "bills" : ["HB11","HB50","HB93"],
            "date" : "2024-01-26",
            "datetime" : "2024-01-26T08:30:00",
            "mtime" : "2024-01-25T17:56:34",
            "name" : "HHHC",
            "room" : "307",
            "time" : "8:30 AM",
            "url" : "/home/esm/.cache/nmlegis/get-calendars/2024/01/hSched/hSched012624.pdf",
            "zoom" : "https://us02web.zoom.us/j/89525670464"
         },
         "HTRC" : {
            "bills" : ["HB73","HB92","HB140"],
            "date" : "2024-01-26",
            "datetime" : "2024-01-26T08:30:00",
            "mtime" : "2024-01-25T17:56:34",
            "name" : "HTRC",
            "room" : "317",
            "time" : "8:30 AM",
            "url" : "/home/esm/.cache/nmlegis/get-calendars/2024/01/hSched/hSched012624.pdf",
            "zoom" : "https://us02web.zoom.us/j/86372062936"
         },
         "SEC" : {
            "bills" : ["SB74","SB103","SB153","SB180","SJR9"],
            "date" : "2024-01-26",
            "datetime" : "2024-01-26T08:30:00",
            "mtime" : "2024-01-25T07:55:19",
            "name" : "SEC",
            "room" : "311",
            "time" : "8:30 AM",
            "url" : "/home/esm/.cache/nmlegis/get-calendars/2024/01/SEC/SECageJan26.24.pdf",
            "zoom" : "https://us02web.zoom.us/j/89615593412"
         }
      },
      "09:00:00" : {
         "SFC" : {
            "bills" : [],
            "date" : "2024-01-26",
            "datetime" : "2024-01-26T09:00:00",
            "mtime" : "2024-01-25T17:55:58",
            "name" : "SFC",
            "room" : "322",
            "time" : "9:00 AM",
            "url" : "/home/esm/.cache/nmlegis/get-calendars/2024/01/SFC/SFCageJan26.24.pdf",
            "zoom" : "https://us02web.zoom.us/j/81696207177"
         },
         "SRC" : {
            "bills" : [],
            "date" : "2024-01-26",
            "datetime" : "2024-01-26T09:00:00",
            "mtime" : "2024-01-25T13:35:41",
            "name" : "SRC",
            "room" : "321",
            "time" : "9:00 AM",
            "url" : "/home/esm/.cache/nmlegis/get-calendars/2024/01/SRC/SRCageJan26.24.pdf",
            "zoom" : "https://us02web.zoom.us/j/81944191844"
         }
      },
      "11:00:00" : {
         "House" : {
            "bills" : ["HJM1","HM1","HM13","HM21"],
            "date" : "2024-01-26",
            "datetime" : "2024-01-26T11:00:00",
            "mtime" : "2024-01-25T16:47:10",
            "name" : "House",
            "room" : "House Floor",
            "time" : "11:00 AM",
            "url" : "/home/esm/.cache/nmlegis/get-calendars/2024/01/hFloor/hFloor012624.pdf"
         },
         "Senate" : {
            "bills" : [],
            "date" : "2024-01-26",
            "datetime" : "2024-01-26T11:00:00",
            "mtime" : "2024-01-25T16:45:57",
            "name" : "Senate",
            "room" : "Senate Floor",
            "time" : "11:00 AM",
            "url" : "/home/esm/.cache/nmlegis/get-calendars/2024/01/sFloor/sFloor012624.pdf"
         }
      },
      "13:00:00" : {
         "SHPAC" : {
            "bills" : ["SB69","SB87","SB95","SB113","SB21","SB71","SB102","SB122","SB126"],
            "date" : "2024-01-26",
            "datetime" : "2024-01-26T13:00:00",
            "mtime" : "2024-01-25T10:35:33",
            "name" : "SHPAC",
            "room" : "311",
            "time" : "1:00 PM or 1/2 HR after floor session",
            "url" : "/home/esm/.cache/nmlegis/get-calendars/2024/01/SHPAC/SHPACageJan26.24.pdf",
            "zoom" : "https://us02web.zoom.us/j/81287336647"
         }
      },
      "13:30:00" : {
         "HAFC" : {
            "bills" : [],
            "date" : "2024-01-26",
            "datetime" : "2024-01-26T13:30:00",
            "mtime" : "2024-01-25T17:56:34",
            "name" : "HAFC",
            "room" : "307",
            "time" : "1:30 PM or at the call of the Chair",
            "url" : "/home/esm/.cache/nmlegis/get-calendars/2024/01/hSched/hSched012624.pdf",
            "zoom" : "https://us02web.zoom.us/j/84052541475"
         },
         "HCEDC" : {
            "bills" : ["HB83","HB159","HB117","HB81"],
            "date" : "2024-01-26",
            "datetime" : "2024-01-26T13:30:00",
            "mtime" : "2024-01-25T17:56:34",
            "name" : "HCEDC",
            "room" : "317",
            "time" : "1:30 PM",
            "url" : "/home/esm/.cache/nmlegis/get-calendars/2024/01/hSched/hSched012624.pdf",
            "zoom" : "https://us02web.zoom.us/j/85993976266"
         },
         "HJC" : {
            "bills" : ["HB114","HB101"],
            "date" : "2024-01-26",
            "datetime" : "2024-01-26T13:30:00",
            "mtime" : "2024-01-25T17:56:34",
            "name" : "HJC",
            "room" : "309",
            "time" : "1:30 PM",
            "url" : "/home/esm/.cache/nmlegis/get-calendars/2024/01/hSched/hSched012624.pdf",
            "zoom" : "https://us02web.zoom.us/j/82777125960"
         },
         "SJC" : {
            "bills" : ["SB5","SB6","SB175","SJR1"],
            "date" : "2024-01-26",
            "datetime" : "2024-01-26T13:30:00",
            "mtime" : "2024-01-25T16:15:46",
            "name" : "SJC",
            "room" : "21",
            "time" : "1:30 PM or 1/2 hour after floor session3.",
            "url" : "/home/esm/.cache/nmlegis/get-calendars/2024/01/SJC/SJCageJan26.24.pdf",
            "zoom" : "https://us02web.zoom.us/j/81502543362"
         }
      }
   },
   "2024-01-27" : {
      "09:00:00" : {
         "HENRC" : {
            "bills" : ["HB178","HB187","HB150"],
            "date" : "2024-01-27",
            "datetime" : "2024-01-27T09:00:00",
            "mtime" : "2024-01-25T17:56:34",
            "name" : "HENRC",
            "room" : "317",
            "time" : "9:00 AM",
            "url" : "/home/esm/.cache/nmlegis/get-calendars/2024/01/hSched/hSched012624.pdf",
            "zoom" : "https://us02web.zoom.us/j/86491927145"
         },
         "HHHC" : {
            "bills" : ["HB98","HB94","HB104","HB97","HB95"],
            "date" : "2024-01-27",
            "datetime" : "2024-01-27T09:00:00",
            "mtime" : "2024-01-25T17:56:34",
            "name" : "HHHC",
            "room" : "307",
            "time" : "9:00 AM",
            "url" : "/home/esm/.cache/nmlegis/get-calendars/2024/01/hSched/hSched012624.pdf",
            "zoom" : "https://us02web.zoom.us/j/89525670464"
         }
      },
      "13:30:00" : {
         "HCPAC" : {
            "bills" : ["HB72","HB38","HB116","HB128","HB191","HB198"],
            "date" : "2024-01-27",
            "datetime" : "2024-01-27T13:30:00",
            "mtime" : "2024-01-25T17:56:34",
            "name" : "HCPAC",
            "room" : "315",
            "time" : "1:30 PM",
            "url" : "/home/esm/.cache/nmlegis/get-calendars/2024/01/hSched/hSched012624.pdf",
            "zoom" : "https://us02web.zoom.us/j/82775218212"
         }
      }
   },
   "2024-01-29" : {
      "13:30:00" : {
         "HCEDC" : {
            "bills" : ["HB25","HB48"],
            "date" : "2024-01-29",
            "datetime" : "2024-01-29T13:30:00",
            "mtime" : "2024-01-25T17:56:34",
            "name" : "HCEDC",
            "room" : "317",
            "time" : "1:30 PM",
            "url" : "/home/esm/.cache/nmlegis/get-calendars/2024/01/hSched/hSched012624.pdf",
            "zoom" : "https://us02web.zoom.us/j/85993976266"
         }
      }
   },
   "2024-01-30" : {
      "09:00:00" : {
         "HTPWC" : {
            "bills" : ["HB119","HB238","HB231","HB245","HB186","HB190"],
            "date" : "2024-01-30",
            "datetime" : "2024-01-30T09:00:00",
            "mtime" : "2024-01-25T17:56:34",
            "name" : "HTPWC",
            "room" : "305",
            "time" : "9:00 AM",
            "url" : "/home/esm/.cache/nmlegis/get-calendars/2024/01/hSched/hSched012624.pdf",
            "zoom" : "https://us02web.zoom.us/j/85034821535"
         }
      },
      "13:30:00" : {
         "HLVMC" : {
            "bills" : ["HB240","HB241"],
            "date" : "2024-01-30",
            "datetime" : "2024-01-30T13:30:00",
            "mtime" : "2024-01-25T17:56:34",
            "name" : "HLVMC",
            "room" : "315",
            "time" : "1:30 PM",
            "url" : "/home/esm/.cache/nmlegis/get-calendars/2024/01/hSched/hSched012624.pdf",
            "zoom" : "https://us02web.zoom.us/j/83510818919"
         }
      }
   }
}
