{
   "2024-01-29" : {
      "08:00:00" : {
         "SRC" : {
            "bills" : ["SB14","SB108","SB137","SJR2","SJR5","SJM1","SJR16"],
            "date" : "2024-01-29",
            "datetime" : "2024-01-29T08:00:00",
            "mtime" : "2024-01-29T13:32:46",
            "name" : "SRC",
            "room" : "321",
            "time" : "8:00 AM",
            "url" : "/home/esm/.cache/nmlegis/get-calendars/2024/01/sSched/sSched012924.pdf",
            "zoom" : "https://us02web.zoom.us/j/81944191844"
         }
      },
      "08:30:00" : {
         "HAFC" : {
            "bills" : [],
            "date" : "2024-01-29",
            "datetime" : "2024-01-29T08:30:00",
            "mtime" : "2024-01-28T12:53:02",
            "name" : "HAFC",
            "room" : "307",
            "time" : "8:30 AM or at the call of the Chair",
            "url" : "/home/esm/.cache/nmlegis/get-calendars/2024/01/hSched/hSched012924.pdf",
            "zoom" : "https://us02web.zoom.us/j/84052541475"
         },
         "HEC" : {
            "bills" : ["HB71","HB171","HM4"],
            "date" : "2024-01-29",
            "datetime" : "2024-01-29T08:30:00",
            "mtime" : "2024-01-28T12:53:02",
            "name" : "HEC",
            "room" : "309",
            "time" : "8:30 AM",
            "url" : "/home/esm/.cache/nmlegis/get-calendars/2024/01/hSched/hSched012924.pdf",
            "zoom" : "https://us02web.zoom.us/j/87512084108"
         },
         "HGEIC" : {
            "bills" : ["HJR11","HM10","HB184","HB242"],
            "date" : "2024-01-29",
            "datetime" : "2024-01-29T08:30:00",
            "mtime" : "2024-01-28T12:53:02",
            "name" : "HGEIC",
            "room" : "305",
            "time" : "8:30 AM",
            "url" : "/home/esm/.cache/nmlegis/get-calendars/2024/01/hSched/hSched012924.pdf",
            "zoom" : "https://us02web.zoom.us/j/84200839142"
         },
         "HHHC" : {
            "bills" : ["HB149","HB151","HB163","HB165","HB179","HB180","HB192","HB95","HB97"],
            "date" : "2024-01-29",
            "datetime" : "2024-01-29T08:30:00",
            "mtime" : "2024-01-28T12:53:02",
            "name" : "HHHC",
            "room" : "315",
            "time" : "8:30 AM",
            "url" : "/home/esm/.cache/nmlegis/get-calendars/2024/01/hSched/hSched012924.pdf",
            "zoom" : "https://us02web.zoom.us/j/89525670464"
         },
         "HTRC" : {
            "bills" : ["HB92","HB140","HB253"],
            "date" : "2024-01-29",
            "datetime" : "2024-01-29T08:30:00",
            "mtime" : "2024-01-28T12:53:02",
            "name" : "HTRC",
            "room" : "317",
            "time" : "8:30 AM",
            "url" : "/home/esm/.cache/nmlegis/get-calendars/2024/01/hSched/hSched012924.pdf",
            "zoom" : "https://us02web.zoom.us/j/86372062936"
         },
         "SEC" : {
            "bills" : ["SB152","SB193"],
            "date" : "2024-01-29",
            "datetime" : "2024-01-29T08:30:00",
            "mtime" : "2024-01-29T13:32:46",
            "name" : "SEC",
            "room" : "311",
            "time" : "8:30 AM",
            "url" : "/home/esm/.cache/nmlegis/get-calendars/2024/01/sSched/sSched012924.pdf",
            "zoom" : "https://us02web.zoom.us/j/89615593412"
         }
      },
      "11:00:00" : {
         "Senate" : {
            "bills" : [],
            "date" : "2024-01-29",
            "datetime" : "2024-01-29T11:00:00",
            "mtime" : "2024-01-29T09:05:35",
            "name" : "Senate",
            "room" : "Senate Floor",
            "time" : "11:00 AM",
            "url" : "/home/esm/.cache/nmlegis/get-calendars/2024/01/sFloor/sFloor012924.pdf"
         }
      },
      "11:15:00" : {
         "House" : {
            "bills" : ["HJM1","HM1","HM13","HM21","HM28","HM15"],
            "date" : "2024-01-29",
            "datetime" : "2024-01-29T11:15:00",
            "mtime" : "2024-01-26T20:05:07",
            "name" : "House",
            "room" : "House Floor",
            "time" : "11:15 AM",
            "url" : "/home/esm/.cache/nmlegis/get-calendars/2024/01/hFloor/hFloor012924.pdf"
         }
      },
      "13:00:00" : {
         "SHPAC" : {
            "bills" : ["SB122","SB128","SB129","SB145","SB161","SB166","SB176","SB190","SB95","SB182","SB205"],
            "date" : "2024-01-29",
            "datetime" : "2024-01-29T13:00:00",
            "mtime" : "2024-01-29T13:32:46",
            "name" : "SHPAC",
            "room" : "311",
            "time" : "1:00 PM or 1/2 HR after floor session ends.",
            "url" : "/home/esm/.cache/nmlegis/get-calendars/2024/01/sSched/sSched012924.pdf",
            "zoom" : "https://us02web.zoom.us/j/81287336647"
         }
      },
      "13:30:00" : {
         "HCEDC" : {
            "bills" : ["HB252","HB25","HB48"],
            "date" : "2024-01-29",
            "datetime" : "2024-01-29T13:30:00",
            "mtime" : "2024-01-28T12:53:02",
            "name" : "HCEDC",
            "room" : "317",
            "time" : "1:30 PM",
            "url" : "/home/esm/.cache/nmlegis/get-calendars/2024/01/hSched/hSched012924.pdf",
            "zoom" : "https://us02web.zoom.us/j/85993976266"
         },
         "HJC" : {
            "bills" : ["HB27","HB129","HB8","HB133"],
            "date" : "2024-01-29",
            "datetime" : "2024-01-29T13:30:00",
            "mtime" : "2024-01-28T12:53:02",
            "name" : "HJC",
            "room" : "309",
            "time" : "1:30 PM",
            "url" : "/home/esm/.cache/nmlegis/get-calendars/2024/01/hSched/hSched012924.pdf",
            "zoom" : "https://us02web.zoom.us/j/82777125960"
         },
         "SFC" : {
            "bills" : [],
            "date" : "2024-01-29",
            "datetime" : "2024-01-29T13:30:00",
            "mtime" : "2024-01-29T13:32:46",
            "name" : "SFC",
            "room" : "322",
            "time" : "1:30 PM OR AT THE CALL OF THE CHAIR",
            "url" : "/home/esm/.cache/nmlegis/get-calendars/2024/01/sSched/sSched012924.pdf",
            "zoom" : "https://us02web.zoom.us/j/81696207177"
         },
         "SJC" : {
            "bills" : ["SB6","SB167"],
            "date" : "2024-01-29",
            "datetime" : "2024-01-29T13:30:00",
            "mtime" : "2024-01-29T13:32:46",
            "name" : "SJC",
            "room" : "321",
            "time" : "1:30 PM or 1/2 hour after floor session",
            "url" : "/home/esm/.cache/nmlegis/get-calendars/2024/01/sSched/sSched012924.pdf",
            "zoom" : "https://us02web.zoom.us/j/81502543362"
         }
      }
   },
   "2024-01-30" : {
      "09:00:00" : {
         "HAAWC" : {
            "bills" : ["HB211","HB162","HB257"],
            "date" : "2024-01-30",
            "datetime" : "2024-01-30T09:00:00",
            "mtime" : "2024-01-28T12:53:02",
            "name" : "HAAWC",
            "room" : "315",
            "time" : "9:00 AM",
            "url" : "/home/esm/.cache/nmlegis/get-calendars/2024/01/hSched/hSched012924.pdf",
            "zoom" : "https://us02web.zoom.us/j/85835620223"
         },
         "HRDLC" : {
            "bills" : ["HB218","HB209"],
            "date" : "2024-01-30",
            "datetime" : "2024-01-30T09:00:00",
            "mtime" : "2024-01-28T12:53:02",
            "name" : "HRDLC",
            "room" : "309",
            "time" : "9:00 AM",
            "url" : "/home/esm/.cache/nmlegis/get-calendars/2024/01/hSched/hSched012924.pdf",
            "zoom" : "https://us02web.zoom.us/j/81823001400"
         },
         "HTPWC" : {
            "bills" : ["HB119","HB238","HB231","HB245","HB186","HB190"],
            "date" : "2024-01-30",
            "datetime" : "2024-01-30T09:00:00",
            "mtime" : "2024-01-28T12:53:02",
            "name" : "HTPWC",
            "room" : "305",
            "time" : "9:00 AM",
            "url" : "/home/esm/.cache/nmlegis/get-calendars/2024/01/hSched/hSched012924.pdf",
            "zoom" : "https://us02web.zoom.us/j/85034821535"
         },
         "SCONC" : {
            "bills" : ["SB160","SB59","SB185","SB197","SB200"],
            "date" : "2024-01-30",
            "datetime" : "2024-01-30T09:00:00",
            "mtime" : "2024-01-29T13:32:46",
            "name" : "SCONC",
            "room" : "311",
            "time" : "9:00 AM",
            "url" : "/home/esm/.cache/nmlegis/get-calendars/2024/01/sSched/sSched012924.pdf",
            "zoom" : "https://us02web.zoom.us/j/82404382748"
         },
         "SIRC" : {
            "bills" : ["SB106","SB131","SB170","SB189"],
            "date" : "2024-01-30",
            "datetime" : "2024-01-30T09:00:00",
            "mtime" : "2024-01-29T13:32:46",
            "name" : "SIRC",
            "room" : "303",
            "time" : "9:00 AM",
            "url" : "/home/esm/.cache/nmlegis/get-calendars/2024/01/sSched/sSched012924.pdf",
            "zoom" : "https://us02web.zoom.us/j/83279870726"
         }
      },
      "13:30:00" : {
         "HCPAC" : {
            "bills" : ["HB144","HB195","HB226","HB46","HB239"],
            "date" : "2024-01-30",
            "datetime" : "2024-01-30T13:30:00",
            "mtime" : "2024-01-28T12:53:02",
            "name" : "HCPAC",
            "room" : "317",
            "time" : "1:30 PM",
            "url" : "/home/esm/.cache/nmlegis/get-calendars/2024/01/hSched/hSched012924.pdf"
         },
         "HLVMC" : {
            "bills" : ["HB240","HB241"],
            "date" : "2024-01-30",
            "datetime" : "2024-01-30T13:30:00",
            "mtime" : "2024-01-28T12:53:02",
            "name" : "HLVMC",
            "room" : "315",
            "time" : "1:30 PM",
            "url" : "/home/esm/.cache/nmlegis/get-calendars/2024/01/hSched/hSched012924.pdf",
            "zoom" : "https://us02web.zoom.us/j/83510818919"
         },
         "STBTC" : {
            "bills" : ["SB40","SB58","SB118","SB68","SB171","SB88","SB201","SB99","SB117","SB125"],
            "date" : "2024-01-30",
            "datetime" : "2024-01-30T13:30:00",
            "mtime" : "2024-01-29T13:32:46",
            "name" : "STBTC",
            "room" : "321",
            "time" : "1:30 PM or 30 minutes after floor session.",
            "url" : "/home/esm/.cache/nmlegis/get-calendars/2024/01/sSched/sSched012924.pdf",
            "zoom" : "https://us02web.zoom.us/j/85614440294"
         }
      }
   }
}
