{
   "2023-03-01" : {
      "13:30:00" : {
         "SHPAC" : {
            "bills" : ["HB7","HB93","SB16","SB398","SB399","SB411","SB412","SB417","SB423","SB409","SB419","SB436","SB454","SB467","SB495"],
            "date" : "2023-03-01",
            "datetime" : "2023-03-01T13:30:00",
            "mtime" : "2023-02-28T11:56:52",
            "name" : "SHPAC",
            "room" : "311",
            "time" : "1:30 PM or 1/2 hr after floor session",
            "url" : "2023/03/SHPAC/SHPACageMar01.23.pdf",
            "zoom" : "https://us02web.zoom.us/j/81287336647"
         }
      }
   }
}
