{
   "2023-02-23" : {
      "10:00:00" : {
         "SIRC" : {
            "bills" : ["SB27","SB86","SB33","SB468","SB483"],
            "date" : "2023-02-23",
            "datetime" : "2023-02-23T10:00:00",
            "mtime" : "2023-02-22T15:29:32",
            "name" : "SIRC",
            "room" : "303",
            "time" : "10:00 AM",
            "url" : "2023/02/SIRC/SIRCageFeb23.23.pdf",
            "zoom" : "https://us02web.zoom.us/j/83279870726"
         }
      }
   }
}
