{
   "2022-01-26" : {
      "09:00:00" : {
         "SEC" : {
            "bills" : ["SB1","SB32","SB36","SB38","SB50"],
            "date" : "2022-01-26",
            "datetime" : "2022-01-26T09:00:00",
            "mtime" : "2022-01-24T13:15:19",
            "name" : "SEC",
            "room" : "311",
            "time" : "9:00 AM",
            "url" : "2022/01/SEC/SECageJan26.22.pdf",
            "zoom" : "https://us02web.zoom.us/j/83582297843"
         }
      }
   }
}
