{
   "2021-02-09" : {
      "13:30:00" : {
         "STBTC" : {
            "bills" : ["SB53","SB5","SB62","SB66","SB72","SB73"],
            "date" : "2021-02-09",
            "datetime" : "2021-02-09T13:30:00",
            "mtime" : "2021-02-05T15:28:52",
            "name" : "STBTC",
            "time" : "1:30 PM",
            "url" : "2021/02/STBTC/STBTCageFeb09.21.pdf"
         }
      }
   }
}
