{
   "2023-02-01" : {
      "13:30:00" : {
         "SHPAC" : {
            "bills" : ["SB99","SB111","SB117","SB18","SB110","SB123","SB124","SB126","SB128","SB130"],
            "date" : "2023-02-01",
            "datetime" : "2023-02-01T13:30:00",
            "mtime" : "2023-01-31T08:03:32",
            "name" : "SHPAC",
            "room" : "311",
            "time" : "1:30 PM or 1/2 hr. after floor session",
            "url" : "2023/02/SHPAC/SHPACageFeb01.23.pdf",
            "zoom" : "https://us02web.zoom.us/j/9124526531"
         }
      }
   }
}
