{
   "2025-02-20" : {
      "11:30:00" : {
         "Senate" : {
            "bills" : ["SB6","SB109","SB36","SB135","SB13","SB112","SM4","SM5","SM7","HJM3"],
            "date" : "2025-02-20",
            "datetime" : "2025-02-20T11:30:00",
            "mtime" : "2025-02-20T09:43:38",
            "name" : "Senate",
            "room" : "Senate Floor",
            "time" : "11:30 AM",
            "url" : "2025/02/sFloor/sFloor022025.pdf"
         }
      }
   }
}
