{
   "2023-01-27" : {
      "13:30:00" : {
         "SJC" : {
            "bills" : [],
            "date" : "2023-01-27",
            "datetime" : "2023-01-27T13:30:00",
            "mtime" : "2023-01-26T14:38:18",
            "name" : "SJC",
            "room" : "321",
            "time" : "1:30 PM or 1/2 hour after floor session",
            "url" : "2023/01/SJC/SJCageJan27.23.pdf"
         }
      }
   }
}
