{
   "2023-03-15" : {
      "09:00:00" : {
         "SRC" : {
            "bills" : [],
            "date" : "2023-03-15",
            "datetime" : "2023-03-15T09:00:00",
            "mtime" : "2023-03-13T17:17:18",
            "name" : "SRC",
            "room" : "321",
            "time" : "9:00 AM",
            "url" : "2023/03/SRC/SRCageMar15.23.pdf",
            "zoom" : "https://us02web.zoom.us/j/81944191844"
         }
      }
   }
}
