{
   "2023-03-13" : {
      "09:00:00" : {
         "SRC" : {
            "bills" : ["SM1","SM18","SM64","SJM1","SJM9"],
            "date" : "2023-03-13",
            "datetime" : "2023-03-13T09:00:00",
            "mtime" : "2023-03-12T17:42:02",
            "name" : "SRC",
            "room" : "321",
            "time" : "9:00 AM",
            "url" : "2023/03/SRC/SRCageMar13.23.pdf",
            "zoom" : "https://us02web.zoom.us/j/81944191844"
         }
      }
   }
}
