{
   "2025-02-06" : {
      "09:00:00" : {
         "HAAWC" : {
            "bills" : ["HB137"],
            "date" : "2025-02-06",
            "datetime" : "2025-02-06T09:00:00",
            "mtime" : "2025-02-05T08:56:57",
            "name" : "HAAWC",
            "room" : "315",
            "time" : "9:00 AM",
            "url" : "2025/02/HAAWC/HAAWCageFeb06.25.pdf",
            "zoom" : "https://us02web.zoom.us/j/87536227091"
         }
      }
   }
}
