{
   "2021-03-03" : {
      "08:30:00" : {
         "HHHC" : {
            "bills" : ["HB305","SB27","SB96","SB21","SB124"],
            "date" : "2021-03-03",
            "datetime" : "2021-03-03T08:30:00",
            "mtime" : "2021-03-02T09:00:39",
            "name" : "HHHC",
            "time" : "8:30 AM",
            "url" : "2021/03/HHHC/HHHCageMar03.21.pdf",
            "zoom" : "https://us02web.zoom.us/j/89853256841"
         }
      }
   }
}
