{
   "2021-02-08" : {
      "08:00:00" : {
         "HEC" : {
            "bills" : ["HJR1","HB101"],
            "date" : "2021-02-08",
            "datetime" : "2021-02-08T08:00:00",
            "mtime" : "2021-02-06T15:21:24",
            "name" : "HEC",
            "time" : "8:00 AM",
            "url" : "2021/02/hSched/hSched020821.pdf",
            "zoom" : "https://us02web.zoom.us/j/84672132667"
         }
      },
      "08:30:00" : {
         "HGEIC" : {
            "bills" : ["HB208","HB209","HB231","HB211","HB54","HB52"],
            "date" : "2021-02-08",
            "datetime" : "2021-02-08T08:30:00",
            "mtime" : "2021-02-06T15:21:24",
            "name" : "HGEIC",
            "time" : "8:30 AM",
            "url" : "2021/02/hSched/hSched020821.pdf",
            "zoom" : "https://us02web.zoom.us/j/89283197941"
         },
         "HHHC" : {
            "bills" : ["HB112","HB147","HB154","HB160","HB167","HB174"],
            "date" : "2021-02-08",
            "datetime" : "2021-02-08T08:30:00",
            "mtime" : "2021-02-06T15:21:24",
            "name" : "HHHC",
            "time" : "8:30 AM",
            "url" : "2021/02/hSched/hSched020821.pdf",
            "zoom" : "https://us02web.zoom.us/j/89853256841"
         }
      },
      "09:00:00" : {
         "HTRC" : {
            "bills" : ["HB90","HB11","HB36","HB49","HB89"],
            "date" : "2021-02-08",
            "datetime" : "2021-02-08T09:00:00",
            "mtime" : "2021-02-06T15:21:24",
            "name" : "HTRC",
            "time" : "9:00 AM",
            "url" : "2021/02/hSched/hSched020821.pdf",
            "zoom" : "https://us02web.zoom.us/j/84898317503"
         }
      },
      "13:30:00" : {
         "HAFC" : {
            "bills" : [],
            "date" : "2021-02-08",
            "datetime" : "2021-02-08T13:30:00",
            "mtime" : "2021-02-06T15:21:24",
            "name" : "HAFC",
            "time" : "1:30 PM",
            "url" : "2021/02/hSched/hSched020821.pdf",
            "zoom" : "https://us02web.zoom.us/j/89430259212"
         },
         "HCEDC" : {
            "bills" : ["HB38","HB199"],
            "date" : "2021-02-08",
            "datetime" : "2021-02-08T13:30:00",
            "mtime" : "2021-02-06T15:21:24",
            "name" : "HCEDC",
            "time" : "1:30 PM",
            "url" : "2021/02/hSched/hSched020821.pdf",
            "zoom" : "https://us02web.zoom.us/j/82162614729"
         },
         "HJC" : {
            "bills" : ["HB4","HB114"],
            "date" : "2021-02-08",
            "datetime" : "2021-02-08T13:30:00",
            "mtime" : "2021-02-06T15:21:24",
            "name" : "HJC",
            "time" : "1:30 PM",
            "url" : "2021/02/hSched/hSched020821.pdf",
            "zoom" : "https://us02web.zoom.us/j/89543370073"
         }
      }
   },
   "2021-02-09" : {
      "08:30:00" : {
         "HAAWC" : {
            "bills" : ["HB33","HB133","HB168","HB170","HB177"],
            "date" : "2021-02-09",
            "datetime" : "2021-02-09T08:30:00",
            "mtime" : "2021-02-06T15:21:24",
            "name" : "HAAWC",
            "time" : "8:30 AM",
            "url" : "2021/02/hSched/hSched020821.pdf",
            "zoom" : "https://us02web.zoom.us/j/82072641109"
         },
         "HENRC" : {
            "bills" : ["HB195","HB239","HB245","HB258"],
            "date" : "2021-02-09",
            "datetime" : "2021-02-09T08:30:00",
            "mtime" : "2021-02-06T15:21:24",
            "name" : "HENRC",
            "time" : "8:30 AM",
            "url" : "2021/02/hSched/hSched020821.pdf",
            "zoom" : "https://us02web.zoom.us/j/88692377623"
         },
         "HTPWC" : {
            "bills" : ["HJR9","HB10"],
            "date" : "2021-02-09",
            "datetime" : "2021-02-09T08:30:00",
            "mtime" : "2021-02-06T15:21:24",
            "name" : "HTPWC",
            "time" : "8:30 AM",
            "url" : "2021/02/hSched/hSched020821.pdf",
            "zoom" : "https://us02web.zoom.us/j/87093881178"
         }
      },
      "09:00:00" : {
         "HRDLC" : {
            "bills" : ["HB16","HB212"],
            "date" : "2021-02-09",
            "datetime" : "2021-02-09T09:00:00",
            "mtime" : "2021-02-06T15:21:24",
            "name" : "HRDLC",
            "time" : "9:00 AM",
            "url" : "2021/02/hSched/hSched020821.pdf",
            "zoom" : "https://us02web.zoom.us/j/89983253499"
         }
      },
      "13:30:00" : {
         "HCPAC" : {
            "bills" : ["HB166","HB193","HB187","HB62","HB64","HB81"],
            "date" : "2021-02-09",
            "datetime" : "2021-02-09T13:30:00",
            "mtime" : "2021-02-06T15:21:24",
            "name" : "HCPAC",
            "time" : "1:30 PM",
            "url" : "2021/02/hSched/hSched020821.pdf",
            "zoom" : "https://us02web.zoom.us/j/89243737297"
         }
      },
      "14:00:00" : {
         "HLVMC" : {
            "bills" : ["HB148","HB155"],
            "date" : "2021-02-09",
            "datetime" : "2021-02-09T14:00:00",
            "mtime" : "2021-02-06T15:21:24",
            "name" : "HLVMC",
            "time" : "2:00 PM",
            "url" : "2021/02/hSched/hSched020821.pdf",
            "zoom" : "https://us02web.zoom.us/j/84249828480"
         }
      }
   },
   "2021-02-10" : {
      "13:30:00" : {
         "HCEDC" : {
            "bills" : ["HB255"],
            "date" : "2021-02-10",
            "datetime" : "2021-02-10T13:30:00",
            "mtime" : "2021-02-06T15:21:24",
            "name" : "HCEDC",
            "time" : "1:30 PM",
            "url" : "2021/02/hSched/hSched020821.pdf",
            "zoom" : "https://us02web.zoom.us/j/82162614729"
         }
      }
   },
   "2021-02-13" : {
      "13:30:00" : {
         "HCPAC" : {
            "bills" : ["HB173","HB206","HB183","HB201","HB216","HB225","HB226"],
            "date" : "2021-02-13",
            "datetime" : "2021-02-13T13:30:00",
            "mtime" : "2021-02-06T15:21:24",
            "name" : "HCPAC",
            "time" : "1:30 PM",
            "url" : "2021/02/hSched/hSched020821.pdf",
            "zoom" : "https://us02web.zoom.us/j/89243737297"
         }
      }
   }
}
