{
   "2024-01-17" : {
      "00:00:00" : {
         "SFC" : {
            "bills" : ["HB1"],
            "date" : "2024-01-17",
            "datetime" : "2024-01-17T00:00:00",
            "mtime" : "2024-01-17T15:23:44",
            "name" : "SFC",
            "room" : "322",
            "url" : "2024/01/SFC/SFCageJan17.24.pdf",
            "zoom" : "https://us02web.zoom.us/j/81696207177"
         }
      }
   }
}
