{
   "2024-01-26" : {
      "09:00:00" : {
         "SFC" : {
            "bills" : [],
            "date" : "2024-01-26",
            "datetime" : "2024-01-26T09:00:00",
            "mtime" : "2024-01-25T17:55:58",
            "name" : "SFC",
            "room" : "322",
            "time" : "9:00 AM",
            "url" : "2024/01/SFC/SFCageJan26.24.pdf",
            "zoom" : "https://us02web.zoom.us/j/81696207177"
         }
      }
   }
}
