{
   "2023-02-18" : {
      "09:00:00" : {
         "HENRC" : {
            "bills" : ["HB91","HB243","HB431"],
            "date" : "2023-02-18",
            "datetime" : "2023-02-18T09:00:00",
            "mtime" : "2023-02-17T12:52:51",
            "name" : "HENRC",
            "room" : "317",
            "time" : "9:00 AM",
            "url" : "2023/02/HENRC/HENRCageFeb18.23.pdf",
            "zoom" : "https://us02web.zoom.us/j/84388206089"
         }
      }
   }
}
