{
   "2021-03-14" : {
      "00:00:00" : {
         "STBTC" : {
            "bills" : ["HB20","HB60","SB306","SB414","HB303","HB230","HB67","HB54","SB294","SB381","HB168","HB248","HB245","HB235"],
            "date" : "2021-03-14",
            "datetime" : "2021-03-14T00:00:00",
            "mtime" : "2021-03-13T19:12:38",
            "name" : "STBTC",
            "url" : "2021/03/STBTC/STBTCageMar14.21.pdf"
         }
      }
   }
}
