{
   "2021-03-11" : {
      "13:30:00" : {
         "STBTC" : {
            "bills" : ["HB291","HB15","HB105","SB83","SB116","SB397","SB277","SB300","HB21","HB60","HB89","HB206","HB90","HB98","HB240","SB91","SB306","SB413"],
            "date" : "2021-03-11",
            "datetime" : "2021-03-11T13:30:00",
            "mtime" : "2021-03-10T12:48:01",
            "name" : "STBTC",
            "time" : "1:30 PM or 15 min. after Floor Session",
            "url" : "2021/03/STBTC/STBTCageMar11.21.pdf"
         }
      }
   }
}
