{
   "2025-03-06" : {
      "08:30:00" : {
         "HENRC" : {
            "bills" : ["SB5","HB273","HB270","HB538"],
            "date" : "2025-03-06",
            "datetime" : "2025-03-06T08:30:00",
            "mtime" : "2025-03-05T18:00:30",
            "name" : "HENRC",
            "room" : "317",
            "time" : "8:30 AM",
            "url" : "2025/03/hSched/hSched030625.pdf",
            "zoom" : "https://us02web.zoom.us/j/89512433827"
         }
      },
      "09:00:00" : {
         "HAAWC" : {
            "bills" : ["SB7","SB101"],
            "date" : "2025-03-06",
            "datetime" : "2025-03-06T09:00:00",
            "mtime" : "2025-03-05T18:00:30",
            "name" : "HAAWC",
            "room" : "315",
            "time" : "9:00 AM",
            "url" : "2025/03/hSched/hSched030625.pdf",
            "zoom" : "https://us02web.zoom.us/j/87536227091"
         },
         "HTPWC" : {
            "bills" : ["HB577","SB115","HB97"],
            "date" : "2025-03-06",
            "datetime" : "2025-03-06T09:00:00",
            "mtime" : "2025-03-05T18:00:30",
            "name" : "HTPWC",
            "room" : "309",
            "time" : "9:00 AM",
            "url" : "2025/03/hSched/hSched030625.pdf",
            "zoom" : "https://us02web.zoom.us/j/82037730356"
         }
      },
      "13:30:00" : {
         "HAFC" : {
            "bills" : ["HB73","HB21","HB115"],
            "date" : "2025-03-06",
            "datetime" : "2025-03-06T13:30:00",
            "mtime" : "2025-03-05T18:00:30",
            "name" : "HAFC",
            "room" : "307",
            "time" : "1:30 PM or 15 minutes after floor ends",
            "url" : "2025/03/hSched/hSched030625.pdf",
            "zoom" : "https://us02web.zoom.us/j/88154987441"
         },
         "HCPAC" : {
            "bills" : ["HB520","HB274","HB134"],
            "date" : "2025-03-06",
            "datetime" : "2025-03-06T13:30:00",
            "mtime" : "2025-03-05T18:00:30",
            "name" : "HCPAC",
            "room" : "317",
            "time" : "1:30 PM or 15 minutes after floor ends",
            "url" : "2025/03/hSched/hSched030625.pdf",
            "zoom" : "https://us02web.zoom.us/j/89876224491"
         }
      }
   },
   "2025-03-07" : {
      "08:30:00" : {
         "HEC" : {
            "bills" : ["HB473","HB532","SB242"],
            "date" : "2025-03-07",
            "datetime" : "2025-03-07T08:30:00",
            "mtime" : "2025-03-05T18:00:30",
            "name" : "HEC",
            "room" : "309",
            "time" : "8:30 AM",
            "url" : "2025/03/hSched/hSched030625.pdf",
            "zoom" : "https://us02web.zoom.us/j/89904664485"
         },
         "HGEIC" : {
            "bills" : ["HB402","HB554","HM40","HM35","HM34","HM27","HJM7","HB343","HB416"],
            "date" : "2025-03-07",
            "datetime" : "2025-03-07T08:30:00",
            "mtime" : "2025-03-05T18:00:30",
            "name" : "HGEIC",
            "room" : "305",
            "time" : "8:30 AM",
            "url" : "2025/03/hSched/hSched030625.pdf",
            "zoom" : "https://us02web.zoom.us/j/89282948977"
         },
         "HHHC" : {
            "bills" : ["HB531","HB534","HB542","HB543","HB544","SB417"],
            "date" : "2025-03-07",
            "datetime" : "2025-03-07T08:30:00",
            "mtime" : "2025-03-05T18:00:30",
            "name" : "HHHC",
            "room" : "307",
            "time" : "8:30 AM",
            "url" : "2025/03/hSched/hSched030625.pdf",
            "zoom" : "https://us02web.zoom.us/j/86178202695"
         },
         "HTRC" : {
            "bills" : ["HB295","HB330","HB357","HB477"],
            "date" : "2025-03-07",
            "datetime" : "2025-03-07T08:30:00",
            "mtime" : "2025-03-05T18:00:30",
            "name" : "HTRC",
            "room" : "317",
            "time" : "8:30 AM",
            "url" : "2025/03/hSched/hSched030625.pdf",
            "zoom" : "https://us02web.zoom.us/j/84092015982"
         }
      },
      "13:30:00" : {
         "HCEDC" : {
            "bills" : ["HB456","HB506","HB564","HB582","HB392","HB457"],
            "date" : "2025-03-07",
            "datetime" : "2025-03-07T13:30:00",
            "mtime" : "2025-03-05T18:00:30",
            "name" : "HCEDC",
            "room" : "317",
            "time" : "1:30 PM or 15 minutes after floor ends",
            "url" : "2025/03/hSched/hSched030625.pdf",
            "zoom" : "https://us02web.zoom.us/j/84498420158"
         },
         "HJC" : {
            "bills" : ["HB340","HB311","HB253","HB222","HB287","HB298"],
            "date" : "2025-03-07",
            "datetime" : "2025-03-07T13:30:00",
            "mtime" : "2025-03-05T18:00:30",
            "name" : "HJC",
            "room" : "309",
            "time" : "1:30 PM OR 15 minutes after floor ends",
            "url" : "2025/03/hSched/hSched030625.pdf",
            "zoom" : "https://us02web.zoom.us/j/85681041953"
         }
      }
   },
   "2025-03-08" : {
      "10:00:00" : {
         "HGEIC" : {
            "bills" : ["HM45","HR4","HB369","HB286","HB524","HB540","HB398","HB541"],
            "date" : "2025-03-08",
            "datetime" : "2025-03-08T10:00:00",
            "mtime" : "2025-03-05T18:00:30",
            "name" : "HGEIC",
            "room" : "305",
            "time" : "10:00 AM",
            "url" : "2025/03/hSched/hSched030625.pdf",
            "zoom" : "https://us02web.zoom.us/j/89282948977"
         }
      }
   },
   "2025-03-10" : {
      "13:30:00" : {
         "HCEDC" : {
            "bills" : ["SB92","SB112","SB162","SB175","SB72"],
            "date" : "2025-03-10",
            "datetime" : "2025-03-10T13:30:00",
            "mtime" : "2025-03-05T18:00:30",
            "name" : "HCEDC",
            "room" : "317",
            "time" : "1:30 PM or 15 minutes after floor ends",
            "url" : "2025/03/hSched/hSched030625.pdf",
            "zoom" : "https://us02web.zoom.us/j/84498420158"
         }
      }
   },
   "2025-03-11" : {
      "09:30:00" : {
         "HRDLC" : {
            "bills" : ["HB568"],
            "date" : "2025-03-11",
            "datetime" : "2025-03-11T09:30:00",
            "mtime" : "2025-03-05T18:00:30",
            "name" : "HRDLC",
            "room" : "305",
            "time" : "9:30 AM",
            "url" : "2025/03/hSched/hSched030625.pdf",
            "zoom" : "https://us02web.zoom.us/j/83538472931"
         }
      }
   }
}
