{
   "2025-03-05" : {
      "08:30:00" : {
         "HEC" : {
            "bills" : ["HB487","HM32","HM43","SB19"],
            "date" : "2025-03-05",
            "datetime" : "2025-03-05T08:30:00",
            "mtime" : "2025-03-04T17:56:29",
            "name" : "HEC",
            "room" : "309",
            "time" : "8:30 AM",
            "url" : "2025/03/hSched/hSched030525.pdf",
            "zoom" : "https://us02web.zoom.us/j/89904664485"
         },
         "HGEIC" : {
            "bills" : ["HB477","HB468","HB405","HB518","HM42","HB427","HB438","HB571","HB439","SJR11","HB459"],
            "date" : "2025-03-05",
            "datetime" : "2025-03-05T08:30:00",
            "mtime" : "2025-03-04T17:56:29",
            "name" : "HGEIC",
            "room" : "305",
            "time" : "8:30 AM",
            "url" : "2025/03/hSched/hSched030525.pdf",
            "zoom" : "https://us02web.zoom.us/j/89282948977"
         },
         "HHHC" : {
            "bills" : ["HM15","SB283","HB347","HB500","HB505","HB527","HB513","HB517"],
            "date" : "2025-03-05",
            "datetime" : "2025-03-05T08:30:00",
            "mtime" : "2025-03-04T17:56:29",
            "name" : "HHHC",
            "room" : "307",
            "time" : "8:30 AM",
            "url" : "2025/03/hSched/hSched030525.pdf",
            "zoom" : "https://us02web.zoom.us/j/86178202695"
         },
         "HTRC" : {
            "bills" : ["HB325","HB344","HB368","HB494"],
            "date" : "2025-03-05",
            "datetime" : "2025-03-05T08:30:00",
            "mtime" : "2025-03-04T17:56:29",
            "name" : "HTRC",
            "room" : "317",
            "time" : "8:30 AM",
            "url" : "2025/03/hSched/hSched030525.pdf",
            "zoom" : "https://us02web.zoom.us/j/84092015982"
         }
      },
      "13:30:00" : {
         "HAFC" : {
            "bills" : ["HB192","HB288","HB92","HB7","HB113"],
            "date" : "2025-03-05",
            "datetime" : "2025-03-05T13:30:00",
            "mtime" : "2025-03-04T17:56:29",
            "name" : "HAFC",
            "room" : "307",
            "time" : "1:30 PM",
            "url" : "2025/03/hSched/hSched030525.pdf",
            "zoom" : "https://us02web.zoom.us/j/88154987441"
         },
         "HCEDC" : {
            "bills" : ["HB476","HJM9","HB396","HB415","HB574"],
            "date" : "2025-03-05",
            "datetime" : "2025-03-05T13:30:00",
            "mtime" : "2025-03-04T17:56:29",
            "name" : "HCEDC",
            "room" : "317",
            "time" : "1:30 PM",
            "url" : "2025/03/hSched/hSched030525.pdf",
            "zoom" : "https://us02web.zoom.us/j/84498420158"
         },
         "HJC" : {
            "bills" : ["HB255","HB352","HB413","HB120","HB311","HB132","HB61"],
            "date" : "2025-03-05",
            "datetime" : "2025-03-05T13:30:00",
            "mtime" : "2025-03-04T17:56:29",
            "name" : "HJC",
            "room" : "309",
            "time" : "1:30 PM OR 15 minutes after floor ends",
            "url" : "2025/03/hSched/hSched030525.pdf",
            "zoom" : "https://us02web.zoom.us/j/85681041953"
         }
      }
   },
   "2025-03-06" : {
      "08:30:00" : {
         "HENRC" : {
            "bills" : ["SB5","HB273","HB270","HB538"],
            "date" : "2025-03-06",
            "datetime" : "2025-03-06T08:30:00",
            "mtime" : "2025-03-04T17:56:29",
            "name" : "HENRC",
            "room" : "317",
            "time" : "8:30 AM",
            "url" : "2025/03/hSched/hSched030525.pdf",
            "zoom" : "https://us02web.zoom.us/j/89512433827"
         }
      },
      "09:00:00" : {
         "HAAWC" : {
            "bills" : ["SB7","SB101"],
            "date" : "2025-03-06",
            "datetime" : "2025-03-06T09:00:00",
            "mtime" : "2025-03-04T17:56:29",
            "name" : "HAAWC",
            "room" : "315",
            "time" : "9:00 AM",
            "url" : "2025/03/hSched/hSched030525.pdf",
            "zoom" : "https://us02web.zoom.us/j/87536227091"
         },
         "HRDLC" : {
            "bills" : ["HB568"],
            "date" : "2025-03-06",
            "datetime" : "2025-03-06T09:00:00",
            "mtime" : "2025-03-04T17:56:29",
            "name" : "HRDLC",
            "room" : "305",
            "time" : "9:00 AM",
            "url" : "2025/03/hSched/hSched030525.pdf",
            "zoom" : "https://us02web.zoom.us/j/83538472931"
         },
         "HTPWC" : {
            "bills" : ["HB577","SB115","HB97"],
            "date" : "2025-03-06",
            "datetime" : "2025-03-06T09:00:00",
            "mtime" : "2025-03-04T17:56:29",
            "name" : "HTPWC",
            "room" : "309",
            "time" : "9:00 AM",
            "url" : "2025/03/hSched/hSched030525.pdf",
            "zoom" : "https://us02web.zoom.us/j/82037730356"
         }
      },
      "13:30:00" : {
         "HCPAC" : {
            "bills" : ["HB520","HB274","HB134"],
            "date" : "2025-03-06",
            "datetime" : "2025-03-06T13:30:00",
            "mtime" : "2025-03-04T17:56:29",
            "name" : "HCPAC",
            "room" : "317",
            "time" : "1:30 PM",
            "url" : "2025/03/hSched/hSched030525.pdf",
            "zoom" : "https://us02web.zoom.us/j/89876224491"
         }
      }
   },
   "2025-03-07" : {
      "08:30:00" : {
         "HEC" : {
            "bills" : ["HB473","HB532","SB242"],
            "date" : "2025-03-07",
            "datetime" : "2025-03-07T08:30:00",
            "mtime" : "2025-03-04T17:56:29",
            "name" : "HEC",
            "room" : "309",
            "time" : "8:30 AM",
            "url" : "2025/03/hSched/hSched030525.pdf",
            "zoom" : "https://us02web.zoom.us/j/89904664485"
         },
         "HGEIC" : {
            "bills" : ["HB402","HB554","HM40","HM35","HM34","HM27","HJM7","HB343","HB416"],
            "date" : "2025-03-07",
            "datetime" : "2025-03-07T08:30:00",
            "mtime" : "2025-03-04T17:56:29",
            "name" : "HGEIC",
            "room" : "305",
            "time" : "8:30 AM",
            "url" : "2025/03/hSched/hSched030525.pdf",
            "zoom" : "https://us02web.zoom.us/j/89282948977"
         },
         "HHHC" : {
            "bills" : ["HB552","HB531","HB534","HB542","HB543","HB544"],
            "date" : "2025-03-07",
            "datetime" : "2025-03-07T08:30:00",
            "mtime" : "2025-03-04T17:56:29",
            "name" : "HHHC",
            "room" : "307",
            "time" : "8:30 AM",
            "url" : "2025/03/hSched/hSched030525.pdf",
            "zoom" : "https://us02web.zoom.us/j/86178202695"
         }
      }
   }
}
