{
   "2021-03-11" : {
      "10:00:00" : {
         "SIRC" : {
            "bills" : [],
            "date" : "2021-03-11",
            "datetime" : "2021-03-11T10:00:00",
            "mtime" : "2021-03-09T14:24:39",
            "name" : "SIRC",
            "time" : "10:00 AM",
            "url" : "2021/03/SIRC/SIRCageMar11.21.pdf"
         }
      }
   }
}
