{
   "2025-03-05" : {
      "11:30:00" : {
         "Senate" : {
            "bills" : ["SB88","SB123","SB83","SB100","SB9","SB126","SB227","SB274","SB319","SJM2","SM2","SM16","SM14","SM4","SM5","SM7","SM17","HJM3"],
            "date" : "2025-03-05",
            "datetime" : "2025-03-05T11:30:00",
            "mtime" : "2025-03-04T18:58:05",
            "name" : "Senate",
            "room" : "Senate Floor",
            "time" : "11:30 AM",
            "url" : "2025/03/sFloor/sFloor030525.pdf"
         }
      }
   }
}
