{
   "2021-03-08" : {
      "00:00:00" : {
         "SHPAC" : {
            "bills" : ["HB20","HB23","HB152","HB112","SB317","SB343","SB344","SB345","SB355","SB342","SB351"],
            "date" : "2021-03-08",
            "datetime" : "2021-03-08T00:00:00",
            "mtime" : "2021-03-05T18:23:50",
            "name" : "SHPAC",
            "time" : "1/2 hour after floor session - Virtual Zoom Meeting",
            "url" : "2021/03/sSched/sSched030821.pdf"
         }
      },
      "08:30:00" : {
         "SEC" : {
            "bills" : ["HB232","HB128","HB6","HB43","HB93","HB138"],
            "date" : "2021-03-08",
            "datetime" : "2021-03-08T08:30:00",
            "mtime" : "2021-03-05T18:23:50",
            "name" : "SEC",
            "time" : "8:30 AM",
            "url" : "2021/03/sSched/sSched030821.pdf"
         }
      },
      "09:00:00" : {
         "SRC" : {
            "bills" : ["SB235","SJR22","HB244","HB25","HJM4"],
            "date" : "2021-03-08",
            "datetime" : "2021-03-08T09:00:00",
            "mtime" : "2021-03-05T18:23:50",
            "name" : "SRC",
            "time" : "9:00 AM",
            "url" : "2021/03/sSched/sSched030821.pdf"
         }
      },
      "13:00:00" : {
         "SFC" : {
            "bills" : ["SB127","SB17","SB379","SB404","SB299","SB11","SB328","SB289","SB291","SB295","SB315"],
            "date" : "2021-03-08",
            "datetime" : "2021-03-08T13:00:00",
            "mtime" : "2021-03-05T18:23:50",
            "name" : "SFC",
            "time" : "1:00 PM or 1/2 hour after floor session or",
            "url" : "2021/03/sSched/sSched030821.pdf"
         }
      }
   },
   "2021-03-09" : {
      "09:00:00" : {
         "SCONC" : {
            "bills" : ["SB431","HB200","HB239","HB33","HB241"],
            "date" : "2021-03-09",
            "datetime" : "2021-03-09T09:00:00",
            "mtime" : "2021-03-05T18:23:50",
            "name" : "SCONC",
            "time" : "9:00 AM",
            "url" : "2021/03/sSched/sSched030821.pdf"
         }
      },
      "10:00:00" : {
         "SIRC" : {
            "bills" : ["SB425"],
            "date" : "2021-03-09",
            "datetime" : "2021-03-09T10:00:00",
            "mtime" : "2021-03-05T18:23:50",
            "name" : "SIRC",
            "time" : "10:00 AM",
            "url" : "2021/03/sSched/sSched030821.pdf"
         }
      }
   }
}
