{
   "2023-03-09" : {
      "08:30:00" : {
         "HAAWC" : {
            "bills" : ["SB271","SB314","SB391"],
            "date" : "2023-03-09",
            "datetime" : "2023-03-09T08:30:00",
            "mtime" : "2023-03-08T08:51:44",
            "name" : "HAAWC",
            "room" : "315",
            "time" : "8:30 AM",
            "url" : "2023/03/HAAWC/HAAWCageMar09.23.pdf",
            "zoom" : "https://us02web.zoom.us/j/85936697460"
         }
      }
   }
}
