{
   "2021-03-16" : {
      "11:30:00" : {
         "HAFC" : {
            "bills" : ["HB211","SB223","SB234","SB256","SB438","SB439","SB234"],
            "date" : "2021-03-16",
            "datetime" : "2021-03-16T11:30:00",
            "mtime" : "2021-03-16T08:29:29",
            "name" : "HAFC",
            "time" : "11:30 AM",
            "url" : "2021/03/HAFC/HAFCageMar16.21.pdf",
            "zoom" : "https://us02web.zoom.us/j/84438031034"
         }
      }
   }
}
