{
   "2024-02-03" : {
      "09:30:00" : {
         "SFC" : {
            "bills" : ["SB37","SB3","SB7","SB31","SB161","SB189","SB116","SB108"],
            "date" : "2024-02-03",
            "datetime" : "2024-02-03T09:30:00",
            "mtime" : "2024-02-02T19:06:11",
            "name" : "SFC",
            "room" : "322",
            "time" : "9:30 AM",
            "url" : "2024/02/sSched/sSched020324.pdf",
            "zoom" : "https://us02web.zoom.us/j/81696207177"
         }
      },
      "10:00:00" : {
         "SHPAC" : {
            "bills" : ["SB16","SB15","SB17","SB139","SB223","SB224","SB240","SB244","SB278"],
            "date" : "2024-02-03",
            "datetime" : "2024-02-03T10:00:00",
            "mtime" : "2024-02-02T19:06:11",
            "name" : "SHPAC",
            "room" : "311",
            "time" : "10:00 AM",
            "url" : "2024/02/sSched/sSched020324.pdf",
            "zoom" : "https://us02web.zoom.us/j/81287336647"
         }
      }
   },
   "2024-02-05" : {
      "08:00:00" : {
         "SRC" : {
            "bills" : [],
            "date" : "2024-02-05",
            "datetime" : "2024-02-05T08:00:00",
            "mtime" : "2024-02-02T19:06:11",
            "name" : "SRC",
            "room" : "321",
            "time" : "8:00 AM",
            "url" : "2024/02/sSched/sSched020324.pdf",
            "zoom" : "https://us02web.zoom.us/j/81944191844"
         }
      },
      "08:30:00" : {
         "SEC" : {
            "bills" : ["SB239","SB254","SB263","SB270","HB171"],
            "date" : "2024-02-05",
            "datetime" : "2024-02-05T08:30:00",
            "mtime" : "2024-02-02T19:06:11",
            "name" : "SEC",
            "room" : "311",
            "time" : "8:30 AM",
            "url" : "2024/02/sSched/sSched020324.pdf",
            "zoom" : "https://us02web.zoom.us/j/89615593412"
         }
      },
      "13:30:00" : {
         "SJC" : {
            "bills" : ["SJR6","SJR16","SB201","SB237","SJR5"],
            "date" : "2024-02-05",
            "datetime" : "2024-02-05T13:30:00",
            "mtime" : "2024-02-02T19:06:11",
            "name" : "SJC",
            "room" : "321",
            "time" : "1:30 PM or 1/2 hour after floor session ends.",
            "url" : "2024/02/sSched/sSched020324.pdf",
            "zoom" : "https://us02web.zoom.us/j/81502543362"
         }
      }
   },
   "2024-02-06" : {
      "09:00:00" : {
         "SCONC" : {
            "bills" : ["SB215","SB249","SB266","SB267"],
            "date" : "2024-02-06",
            "datetime" : "2024-02-06T09:00:00",
            "mtime" : "2024-02-02T19:06:11",
            "name" : "SCONC",
            "room" : "311",
            "time" : "9:00 AM",
            "url" : "2024/02/sSched/sSched020324.pdf",
            "zoom" : "https://us02web.zoom.us/j/82404382748"
         }
      }
   }
}
