{
   "2023-01-27" : {
      "08:30:00" : {
         "HHHC" : {
            "bills" : ["HB53","HB73","HB83","HB93","HB104","HB136"],
            "date" : "2023-01-27",
            "datetime" : "2023-01-27T08:30:00",
            "mtime" : "2023-01-26T10:46:17",
            "name" : "HHHC",
            "room" : "315",
            "time" : "8:30 AM",
            "url" : "2023/01/HHHC/HHHCageJan27.23.pdf",
            "zoom" : "https://us02web.zoom.us/j/84266137922"
         }
      }
   }
}
