{
   "2025-03-06" : {
      "10:30:00" : {
         "House" : {
            "bills" : ["HB161","HB140","HB76","HB27","HB32","HB98","HB40","HB208","HB101","HB102","HB71","HB67","HB84","HB87","HB155","HB411","HB417","HB212","HB64","HB13","HB227","HB365","HB9","HB233","HB258","HB289","HB364","HB370","HB371","HB372","HJR5","HB62","HB209","HB243","HB323","HJM2","HJM4","HJM5","HJM6","HM2","HM24","HM31","HM37","HM8","HM10","HM28","HM30","HM46","HB156","HB175","HB191","HB240","HB368","HB405","HB427","HB439","HB449","HB468","HB494","HB518","HB571","SB283","HM15","HM32","HM42","HM43"],
            "date" : "2025-03-06",
            "datetime" : "2025-03-06T10:30:00",
            "mtime" : "2025-03-05T17:58:34",
            "name" : "House",
            "room" : "House Floor",
            "time" : "10:30 AM",
            "url" : "2025/03/hFloor/hFloor030625.pdf"
         }
      }
   }
}
