{
   "2025-02-11" : {
      "13:30:00" : {
         "STBTC" : {
            "bills" : ["SB20","SB67","SB89","SB91","SB211","SB212","SB92","SB112","SB219","SB123","SB126"],
            "date" : "2025-02-11",
            "datetime" : "2025-02-11T13:30:00",
            "mtime" : "2025-02-10T11:26:54",
            "name" : "STBTC",
            "room" : "323",
            "time" : "1:30 PM or 30 minutes after floor session.",
            "url" : "2025/02/STBTC/STBTCageFeb11.25.pdf",
            "zoom" : "https://us02web.zoom.us/j/85614440294"
         }
      }
   }
}
