{
   "2023-03-02" : {
      "13:30:00" : {
         "HCPAC" : {
            "bills" : ["HB484","HB491","HB514","HB509","HB320","HB74","HB306"],
            "date" : "2023-03-02",
            "datetime" : "2023-03-02T13:30:00",
            "mtime" : "2023-03-02T16:49:39",
            "name" : "HCPAC",
            "room" : "317",
            "time" : "1:30 PM",
            "url" : "2023/03/HCPAC/HCPACageMar02.23.pdf",
            "zoom" : "https://us02web.zoom.us/j/89037370054"
         }
      }
   }
}
