{
   "2025-02-14" : {
      "10:30:00" : {
         "House" : {
            "bills" : ["HB12","HB47","HB218","HB6","HB26","HB36","HB10","HB56","HB198","HM2","HM3","HM8","HM10","HM23","HJM3","HB103"],
            "date" : "2025-02-14",
            "datetime" : "2025-02-14T10:30:00",
            "mtime" : "2025-02-13T16:16:22",
            "name" : "House",
            "room" : "House Floor",
            "time" : "10:30 AM",
            "url" : "2025/02/hFloor/hFloor021425.pdf"
         }
      }
   }
}
