{
   "2025-02-11" : {
      "10:30:00" : {
         "House" : {
            "bills" : ["HB12","HB47","HB218","HM2","HM3","HM8","HM10","HM11","HM21","HJM3","HB6","HB26","HB36"],
            "date" : "2025-02-11",
            "datetime" : "2025-02-11T10:30:00",
            "mtime" : "2025-02-10T16:50:38",
            "name" : "House",
            "room" : "House Floor",
            "time" : "10:30 AM",
            "url" : "2025/02/hFloor/hFloor021125.pdf"
         }
      }
   }
}
