{
   "2025-02-12" : {
      "10:30:00" : {
         "House" : {
            "bills" : ["HB12","HB47","HB218","HB6","HB26","HB36","HM2","HM3","HM8","HM10","HM11","HM22","HJM3","HB10","HB56"],
            "date" : "2025-02-12",
            "datetime" : "2025-02-12T10:30:00",
            "mtime" : "2025-02-11T17:05:39",
            "name" : "House",
            "room" : "House Floor",
            "time" : "10:30 AM",
            "url" : "2025/02/hFloor/hFloor021225.pdf"
         }
      }
   }
}
