{
   "2025-02-13" : {
      "10:00:00" : {
         "SIRC" : {
            "bills" : ["SB353","SB306","SB315","SB332"],
            "date" : "2025-02-13",
            "datetime" : "2025-02-13T10:00:00",
            "mtime" : "2025-02-12T15:16:20",
            "name" : "SIRC",
            "room" : "303",
            "time" : "10:00 AM",
            "url" : "2025/02/SIRC/SIRCageFeb13.25.pdf",
            "zoom" : "https://us02web.zoom.us/j/83279870726"
         }
      }
   }
}
