{
   "2021-03-05" : {
      "09:00:00" : {
         "SRC" : {
            "bills" : ["HJR1","SJR1","SB354","SJM4","SB235","SB412"],
            "date" : "2021-03-05",
            "datetime" : "2021-03-05T09:00:00",
            "mtime" : "2021-03-04T08:52:38",
            "name" : "SRC",
            "time" : "9:00 AM",
            "url" : "2021/03/SRC/SRCageMar05.21.pdf"
         }
      }
   }
}
