{
   "2021-03-12" : {
      "09:00:00" : {
         "SRC" : {
            "bills" : ["HB55","SB314","SJR17","HJR12"],
            "date" : "2021-03-12",
            "datetime" : "2021-03-12T09:00:00",
            "mtime" : "2021-03-11T09:51:21",
            "name" : "SRC",
            "time" : "9:00 AM",
            "url" : "2021/03/SRC/SRCageMar12.21.pdf"
         }
      }
   }
}
