{
   "2021-03-10" : {
      "09:00:00" : {
         "SRC" : {
            "bills" : [],
            "date" : "2021-03-10",
            "datetime" : "2021-03-10T09:00:00",
            "mtime" : "2021-03-09T10:30:33",
            "name" : "SRC",
            "time" : "9:00 AM",
            "url" : "2021/03/SRC/SRCageMar10.21.pdf"
         }
      }
   }
}
