{
   "2025-02-19" : {
      "08:00:00" : {
         "HHHC" : {
            "bills" : ["SB3","HB417","HB303","HB344","HB345","HB349","HB350"],
            "date" : "2025-02-19",
            "datetime" : "2025-02-19T08:00:00",
            "mtime" : "2025-02-18T10:23:00",
            "name" : "HHHC",
            "room" : "307",
            "time" : "8:00 AM",
            "url" : "2025/02/HHHC/HHHCageFeb19.25.pdf",
            "zoom" : "https://us02web.zoom.us/j/86178202695"
         }
      }
   }
}
