{
   "2021-02-27" : {
      "09:00:00" : {
         "SCONC" : {
            "bills" : ["HB57","SB16","SB312","SB334"],
            "date" : "2021-02-27",
            "datetime" : "2021-02-27T09:00:00",
            "mtime" : "2021-02-25T13:40:12",
            "name" : "SCONC",
            "time" : "9:00 AM",
            "url" : "2021/02/SCONC/SCONCageFeb27.21.pdf"
         }
      }
   }
}
