{
   "2022-01-25" : {
      "13:30:00" : {
         "HCPAC" : {
            "bills" : ["HB37","HB49","HB65","HB68","HB69"],
            "date" : "2022-01-25",
            "datetime" : "2022-01-25T13:30:00",
            "mtime" : "2022-01-24T09:54:41",
            "name" : "HCPAC",
            "time" : "1:30 PM (Or 15 minutes following Floor Session)",
            "url" : "2022/01/HCPAC/HCPACageJan25.22.pdf",
            "zoom" : "https://us02web.zoom.us/j/82353539692"
         }
      }
   }
}
