{
   "2021-02-17" : {
      "13:30:00" : {
         "HJC" : {
            "bills" : ["HB123","HB124","HB137","HB145","HB88"],
            "date" : "2021-02-17",
            "datetime" : "2021-02-17T13:30:00",
            "mtime" : "2021-02-16T09:10:29",
            "name" : "HJC",
            "time" : "1:30 PM",
            "url" : "2021/02/HJC/HJCageFeb17.21.pdf",
            "zoom" : "https://us02web.zoom.us/j/89543370073"
         }
      }
   }
}
