{
   "2023-02-16" : {
      "09:00:00" : {
         "SCONC" : {
            "bills" : ["SB272","SB314","SB332","SB334","SB430","SB222","SB266","SB301"],
            "date" : "2023-02-16",
            "datetime" : "2023-02-16T09:00:00",
            "mtime" : "2023-02-15T15:57:18",
            "name" : "SCONC",
            "room" : "311",
            "time" : "9:00 AM",
            "url" : "2023/02/SCONC/SCONCageFeb16.23.pdf",
            "zoom" : "https://us02web.zoom.us/j/7739881331"
         }
      }
   }
}
