{
   "2023-03-06" : {
      "08:30:00" : {
         "HTRC" : {
            "bills" : ["HB547"],
            "date" : "2023-03-06",
            "datetime" : "2023-03-06T08:30:00",
            "mtime" : "2023-03-03T13:14:39",
            "name" : "HTRC",
            "room" : "317",
            "time" : "8:30 AM",
            "url" : "2023/03/HTRC/HTRCageMar06.23.pdf",
            "zoom" : "https://us02web.zoom.us/j/89087836680"
         }
      }
   }
}
