{
   "2023-02-10" : {
      "09:00:00" : {
         "SRC" : {
            "bills" : ["SJR1"],
            "date" : "2023-02-10",
            "datetime" : "2023-02-10T09:00:00",
            "mtime" : "2023-02-08T14:45:57",
            "name" : "SRC",
            "room" : "321",
            "time" : "9:00 AM",
            "url" : "2023/02/SRC/SRCageFeb10.23.pdf",
            "zoom" : "https://us02web.zoom.us/j/3396422464"
         }
      }
   }
}
