{
   "2023-02-22" : {
      "09:00:00" : {
         "SRC" : {
            "bills" : ["SB186","SB391","SB263","SB290","SM30"],
            "date" : "2023-02-22",
            "datetime" : "2023-02-22T09:00:00",
            "mtime" : "2023-02-21T13:52:12",
            "name" : "SRC",
            "room" : "321",
            "time" : "9:00 AM",
            "url" : "2023/02/SRC/SRCageFeb22.23.pdf",
            "zoom" : "https://us02web.zoom.us/j/81944191844"
         }
      }
   }
}
