{
   "2023-02-27" : {
      "08:30:00" : {
         "SRC" : {
            "bills" : ["HB4","SJR12","SB437","SB439"],
            "date" : "2023-02-27",
            "datetime" : "2023-02-27T08:30:00",
            "mtime" : "2023-02-25T18:56:22",
            "name" : "SRC",
            "room" : "321",
            "time" : "8:30 AM",
            "url" : "2023/02/SRC/SRCageFeb27.23.pdf",
            "zoom" : "https://us02web.zoom.us/j/81944191844"
         }
      }
   }
}
