{
   "2022-02-14" : {
      "11:00:00" : {
         "House" : {
            "bills" : ["HB101","HB116","HB126","HB87","HB160","HB165","HB166","HB175","HB151","HB193","HB6","HB228","SB4","SB134","HM5","HM21","HM11","HM26","HM4","HM15","HM18","HM22","HM3","HM24","HM36","HM33","HM38","HM35","HM43","HM48","HM1","HM7","HM13","HM17","HM31","HM34","HM37","HM39","HM40","HM41","HM50","HM51","HB227","HB92","HB94"],
            "date" : "2022-02-14",
            "datetime" : "2022-02-14T11:00:00",
            "mtime" : "2022-02-12T23:17:57",
            "name" : "House",
            "room" : "House Floor",
            "time" : "11:00 AM",
            "url" : "2022/02/hFloor/hFloor021422.pdf"
         }
      }
   }
}
