{
   "2022-02-09" : {
      "11:00:00" : {
         "House" : {
            "bills" : ["HB71","HB82","HB69","HB13","HB22","HB46","HB62","HB84","HB86","HB95","HB99","HB102","HB167","HJR1","HM5","HM21","HM11","HM26","HM4","HM15","HM18","HM22","HM3","HM24","HM36","HM1","HM7","HM10","HM13","HM17","HM31","HM34","HM37","HM39","HM40","HM41","HM42","HM50","HM51","HB227","HB57","HB92","HB96","HB101","HB104","HB116","HB119","HB124","HB126","HB144","HJM1"],
            "date" : "2022-02-09",
            "datetime" : "2022-02-09T11:00:00",
            "mtime" : "2022-02-11T18:15:31",
            "name" : "House",
            "room" : "House Floor",
            "time" : "11:00 AM",
            "url" : "2022/02/hFloor/hFloor020922.pdf"
         }
      }
   }
}
