{
   "2022-02-16" : {
      "00:00:00" : {
         "House" : {
            "bills" : ["SB144","SB198","SB243"],
            "date" : "2022-02-16",
            "mtime" : "2022-02-17T00:22:00",
            "name" : "House",
            "room" : "House Floor",
            "url" : "2022/02/hFloor/hFloor021622_Supplemental3.pdf"
         }
      }
   }
}
