{
   "2022-01-31" : {
      "09:00:00" : {
         "SFC" : {
            "bills" : ["SB6"],
            "date" : "2022-01-31",
            "datetime" : "2022-01-31T09:00:00",
            "mtime" : "2022-01-28T15:39:54",
            "name" : "SFC",
            "room" : "322",
            "time" : "9:00 AM",
            "url" : "2022/01/SFC/SFCageJan31.22.pdf"
         }
      }
   }
}
