{
   "2021-01-28" : {
      "09:00:00" : {
         "SIRC" : {
            "bills" : ["SB104","SB55","SB120","SB61"],
            "date" : "2021-01-28",
            "datetime" : "2021-01-28T09:00:00",
            "mtime" : "2021-01-27T09:42:45",
            "name" : "SIRC",
            "time" : "9:00 AM",
            "url" : "2021/01/SIRC/SIRCageJan28.21.pdf"
         }
      }
   }
}
