{
   "2025-02-18" : {
      "08:30:00" : {
         "HAAWC" : {
            "bills" : ["HB348","HB356","HB319"],
            "date" : "2025-02-18",
            "datetime" : "2025-02-18T08:30:00",
            "mtime" : "2025-02-17T18:04:23",
            "name" : "HAAWC",
            "room" : "315",
            "time" : "8:30 AM",
            "url" : "/home/esm/.cache/nmlegis/get-calendars/2025/02/hSched/hSched021825.pdf",
            "zoom" : "https://us02web.zoom.us/j/87536227091"
         },
         "HENRC" : {
            "bills" : ["HB259","HB91","HB361","HJM4"],
            "date" : "2025-02-18",
            "datetime" : "2025-02-18T08:30:00",
            "mtime" : "2025-02-17T18:04:23",
            "name" : "HENRC",
            "room" : "317",
            "time" : "8:30 AM",
            "url" : "/home/esm/.cache/nmlegis/get-calendars/2025/02/hSched/hSched021825.pdf",
            "zoom" : "https://us02web.zoom.us/j/89512433827"
         }
      },
      "09:00:00" : {
         "HAFC" : {
            "bills" : [],
            "date" : "2025-02-18",
            "datetime" : "2025-02-18T09:00:00",
            "mtime" : "2025-02-17T18:04:23",
            "name" : "HAFC",
            "room" : "307",
            "time" : "9:00 AM",
            "url" : "/home/esm/.cache/nmlegis/get-calendars/2025/02/hSched/hSched021825.pdf",
            "zoom" : "https://us02web.zoom.us/j/88154987441"
         },
         "HRDLC" : {
            "bills" : ["HB330","HB135","HB315","HB326"],
            "date" : "2025-02-18",
            "datetime" : "2025-02-18T09:00:00",
            "mtime" : "2025-02-17T18:04:23",
            "name" : "HRDLC",
            "room" : "305",
            "time" : "9:00 AM",
            "url" : "/home/esm/.cache/nmlegis/get-calendars/2025/02/hSched/hSched021825.pdf",
            "zoom" : "https://us02web.zoom.us/j/83538472931"
         },
         "HTPWC" : {
            "bills" : ["HB23","HB145","HB99","HB148","HB310"],
            "date" : "2025-02-18",
            "datetime" : "2025-02-18T09:00:00",
            "mtime" : "2025-02-17T18:04:23",
            "name" : "HTPWC",
            "room" : "309",
            "time" : "9:00 AM",
            "url" : "/home/esm/.cache/nmlegis/get-calendars/2025/02/hSched/hSched021825.pdf",
            "zoom" : "https://us02web.zoom.us/j/82037730356"
         },
         "SCONC" : {
            "bills" : ["SB231","SB240","SB260","SB262","SB264","SB281"],
            "date" : "2025-02-18",
            "datetime" : "2025-02-18T09:00:00",
            "mtime" : "2025-02-17T19:06:04",
            "name" : "SCONC",
            "room" : "311",
            "time" : "9:00 AM",
            "url" : "/home/esm/.cache/nmlegis/get-calendars/2025/02/sSched/sSched021825.pdf",
            "zoom" : "https://us02web.zoom.us/j/82404382748"
         }
      },
      "10:00:00" : {
         "SIRC" : {
            "bills" : ["SB316","SB41","SB276","SB308"],
            "date" : "2025-02-18",
            "datetime" : "2025-02-18T10:00:00",
            "mtime" : "2025-02-17T19:06:04",
            "name" : "SIRC",
            "room" : "303",
            "time" : "10:00 AM",
            "url" : "/home/esm/.cache/nmlegis/get-calendars/2025/02/sSched/sSched021825.pdf",
            "zoom" : "https://us02web.zoom.us/j/83279870726"
         }
      },
      "10:30:00" : {
         "HAFC" : {
            "bills" : [],
            "date" : "2025-02-18",
            "datetime" : "2025-02-18T10:30:00",
            "mtime" : "2025-02-18T10:00:40",
            "name" : "HAFC",
            "room" : "307",
            "time" : "10:30 AM",
            "url" : "/home/esm/.cache/nmlegis/get-calendars/2025/02/HAFC/HAFCageFeb18.25.pdf",
            "zoom" : "https://us02web.zoom.us/j/88154987441"
         },
         "House" : {
            "bills" : ["HB12","HB26","HB36","HB10","HB56","HB198","HB103","HB161","HB140","HB160","HB172","HJR1","HJR2","HM2","HM3","HM8","HM10","HM23","HJM3","HB76"],
            "date" : "2025-02-18",
            "datetime" : "2025-02-18T10:30:00",
            "mtime" : "2025-02-17T18:21:24",
            "name" : "House",
            "room" : "House Floor",
            "time" : "10:30 AM",
            "url" : "/home/esm/.cache/nmlegis/get-calendars/2025/02/hFloor/hFloor021825.pdf"
         }
      },
      "11:30:00" : {
         "Senate" : {
            "bills" : ["SB17","SB82","SB135","SM4","SM5","SM7"],
            "date" : "2025-02-18",
            "datetime" : "2025-02-18T11:30:00",
            "mtime" : "2025-02-17T19:05:56",
            "name" : "Senate",
            "room" : "Senate Floor",
            "time" : "11:30 AM",
            "url" : "/home/esm/.cache/nmlegis/get-calendars/2025/02/sFloor/sFloor021825.pdf"
         }
      },
      "13:30:00" : {
         "HCPAC" : {
            "bills" : ["HB9","HB281","HB306","HB231","HB339","HB287"],
            "date" : "2025-02-18",
            "datetime" : "2025-02-18T13:30:00",
            "mtime" : "2025-02-17T18:04:23",
            "name" : "HCPAC",
            "room" : "317",
            "time" : "1:30 PM",
            "url" : "/home/esm/.cache/nmlegis/get-calendars/2025/02/hSched/hSched021825.pdf",
            "zoom" : "https://us02web.zoom.us/j/89876224491"
         },
         "HLVMC" : {
            "bills" : ["HB331","HB337"],
            "date" : "2025-02-18",
            "datetime" : "2025-02-18T13:30:00",
            "mtime" : "2025-02-17T18:04:23",
            "name" : "HLVMC",
            "room" : "315",
            "time" : "1:30 PM",
            "url" : "/home/esm/.cache/nmlegis/get-calendars/2025/02/hSched/hSched021825.pdf",
            "zoom" : "https://us02web.zoom.us/j/85771184811"
         },
         "SFC" : {
            "bills" : ["SJR1","SB13","SB112","SB23","SB33"],
            "date" : "2025-02-18",
            "datetime" : "2025-02-18T13:30:00",
            "mtime" : "2025-02-17T19:06:04",
            "name" : "SFC",
            "room" : "322",
            "time" : "1:30 PM",
            "url" : "/home/esm/.cache/nmlegis/get-calendars/2025/02/sSched/sSched021825.pdf",
            "zoom" : "https://us02web.zoom.us/j/81696207177"
         },
         "STBTC" : {
            "bills" : ["SB20","SB158","SB159","SB164","SB169","SB170","SB194","SB241","SB179","SB180","SB162","SB31"],
            "date" : "2025-02-18",
            "datetime" : "2025-02-18T13:30:00",
            "mtime" : "2025-02-17T19:06:04",
            "name" : "STBTC",
            "room" : "321",
            "time" : "1:30 PM or 30 minutes after floor session",
            "url" : "/home/esm/.cache/nmlegis/get-calendars/2025/02/sSched/sSched021825.pdf",
            "zoom" : "https://us02web.zoom.us/j/85614440294"
         }
      }
   },
   "2025-02-19" : {
      "08:00:00" : {
         "HHHC" : {
            "bills" : ["SB3","HB417","HB303","HB266","HB267","HB349","HB350"],
            "date" : "2025-02-19",
            "datetime" : "2025-02-19T08:00:00",
            "mtime" : "2025-02-17T18:04:23",
            "name" : "HHHC",
            "room" : "307",
            "time" : "8:00 AM",
            "url" : "/home/esm/.cache/nmlegis/get-calendars/2025/02/hSched/hSched021825.pdf",
            "zoom" : "https://us02web.zoom.us/j/86178202695"
         }
      },
      "08:30:00" : {
         "HEC" : {
            "bills" : ["HB297"],
            "date" : "2025-02-19",
            "datetime" : "2025-02-19T08:30:00",
            "mtime" : "2025-02-17T18:04:23",
            "name" : "HEC",
            "room" : "309",
            "time" : "8:30 AM",
            "url" : "/home/esm/.cache/nmlegis/get-calendars/2025/02/hSched/hSched021825.pdf",
            "zoom" : "https://us02web.zoom.us/j/89904664485"
         },
         "HGEIC" : {
            "bills" : ["HB228","HB238","HB62","HJR12","HB192","HB199","HB249","HB208"],
            "date" : "2025-02-19",
            "datetime" : "2025-02-19T08:30:00",
            "mtime" : "2025-02-17T18:04:23",
            "name" : "HGEIC",
            "room" : "305",
            "time" : "8:30 AM",
            "url" : "/home/esm/.cache/nmlegis/get-calendars/2025/02/hSched/hSched021825.pdf",
            "zoom" : "https://us02web.zoom.us/j/89282948977"
         },
         "HTRC" : {
            "bills" : ["HB202","HB211","HB226"],
            "date" : "2025-02-19",
            "datetime" : "2025-02-19T08:30:00",
            "mtime" : "2025-02-17T18:04:23",
            "name" : "HTRC",
            "room" : "317",
            "time" : "8:30 AM",
            "url" : "/home/esm/.cache/nmlegis/get-calendars/2025/02/hSched/hSched021825.pdf",
            "zoom" : "https://us02web.zoom.us/j/84092015982"
         },
         "SEC" : {
            "bills" : ["SB314","SB325","SB344","SB286","SB345","SB354"],
            "date" : "2025-02-19",
            "datetime" : "2025-02-19T08:30:00",
            "mtime" : "2025-02-17T19:06:04",
            "name" : "SEC",
            "room" : "311",
            "time" : "8:30 AM",
            "url" : "/home/esm/.cache/nmlegis/get-calendars/2025/02/sSched/sSched021825.pdf",
            "zoom" : "https://us02web.zoom.us/j/89615593412"
         }
      },
      "13:30:00" : {
         "HCEDC" : {
            "bills" : ["HB11"],
            "date" : "2025-02-19",
            "datetime" : "2025-02-19T13:30:00",
            "mtime" : "2025-02-17T18:04:23",
            "name" : "HCEDC",
            "room" : "317",
            "time" : "1:30 PM",
            "url" : "/home/esm/.cache/nmlegis/get-calendars/2025/02/hSched/hSched021825.pdf",
            "zoom" : "https://us02web.zoom.us/j/84498420158"
         },
         "HJC" : {
            "bills" : ["HB104","HB101","HB102","HB123"],
            "date" : "2025-02-19",
            "datetime" : "2025-02-19T13:30:00",
            "mtime" : "2025-02-17T18:04:23",
            "name" : "HJC",
            "room" : "309",
            "time" : "1:30 PM",
            "url" : "/home/esm/.cache/nmlegis/get-calendars/2025/02/hSched/hSched021825.pdf",
            "zoom" : "https://us02web.zoom.us/j/85681041953"
         }
      }
   },
   "2025-02-20" : {
      "09:00:00" : {
         "HAAWC" : {
            "bills" : ["HB311","HB423","HJM5"],
            "date" : "2025-02-20",
            "datetime" : "2025-02-20T09:00:00",
            "mtime" : "2025-02-17T18:04:23",
            "name" : "HAAWC",
            "room" : "315",
            "time" : "9:00 AM",
            "url" : "/home/esm/.cache/nmlegis/get-calendars/2025/02/hSched/hSched021825.pdf",
            "zoom" : "https://us02web.zoom.us/j/87536227091"
         },
         "HAFC" : {
            "bills" : [],
            "date" : "2025-02-20",
            "datetime" : "2025-02-20T09:00:00",
            "mtime" : "2025-02-17T18:04:23",
            "name" : "HAFC",
            "room" : "307",
            "time" : "9:00 AM",
            "url" : "/home/esm/.cache/nmlegis/get-calendars/2025/02/hSched/hSched021825.pdf",
            "zoom" : "https://us02web.zoom.us/j/88154987441"
         },
         "HTPWC" : {
            "bills" : ["HB30","HB270","HB372"],
            "date" : "2025-02-20",
            "datetime" : "2025-02-20T09:00:00",
            "mtime" : "2025-02-17T18:04:23",
            "name" : "HTPWC",
            "room" : "309",
            "time" : "9:00 AM",
            "url" : "/home/esm/.cache/nmlegis/get-calendars/2025/02/hSched/hSched021825.pdf",
            "zoom" : "https://us02web.zoom.us/j/82037730356"
         }
      },
      "13:30:00" : {
         "HLVMC" : {
            "bills" : ["HB159","HB336"],
            "date" : "2025-02-20",
            "datetime" : "2025-02-20T13:30:00",
            "mtime" : "2025-02-17T18:04:23",
            "name" : "HLVMC",
            "room" : "315",
            "time" : "1:30 PM",
            "url" : "/home/esm/.cache/nmlegis/get-calendars/2025/02/hSched/hSched021825.pdf",
            "zoom" : "https://us02web.zoom.us/j/85771184811"
         }
      }
   },
   "2025-02-21" : {
      "13:30:00" : {
         "HCEDC" : {
            "bills" : ["HB285","HB93","HM18","HB154","HB155"],
            "date" : "2025-02-21",
            "datetime" : "2025-02-21T13:30:00",
            "mtime" : "2025-02-17T18:04:23",
            "name" : "HCEDC",
            "room" : "317",
            "time" : "1:30 PM",
            "url" : "/home/esm/.cache/nmlegis/get-calendars/2025/02/hSched/hSched021825.pdf",
            "zoom" : "https://us02web.zoom.us/j/84498420158"
         }
      }
   }
}
