{
   "2021-02-03" : {
      "13:30:00" : {
         "HCEDC" : {
            "bills" : ["HB149"],
            "date" : "2021-02-03",
            "datetime" : "2021-02-03T13:30:00",
            "mtime" : "2021-02-02T12:16:09",
            "name" : "HCEDC",
            "time" : "1:30 PM",
            "url" : "2021/02/HCEDC/HCEDCageFeb03.21.pdf",
            "zoom" : "https://us02web.zoom.us/j/82162614729"
         }
      }
   }
}
