{
   "2023-03-10" : {
      "13:30:00" : {
         "HJC" : {
            "bills" : ["SB260","SB302","HB6","SB133","HB15","SB180","SB43","HB462","HB494","SB187","SB53"],
            "date" : "2023-03-10",
            "datetime" : "2023-03-10T13:30:00",
            "mtime" : "2023-03-10T09:00:49",
            "name" : "HJC",
            "room" : "309",
            "time" : "1:30 PM",
            "url" : "2023/03/HJC/HJCageMar10.23.pdf",
            "zoom" : "https://us02web.zoom.us/j/81793611432"
         }
      }
   }
}
