{
   "2025-03-05" : {
      "08:30:00" : {
         "SRC" : {
            "bills" : ["SM3","SB514","HB181","SM19"],
            "date" : "2025-03-05",
            "datetime" : "2025-03-05T08:30:00",
            "mtime" : "2025-03-04T16:35:54",
            "name" : "SRC",
            "room" : "321",
            "time" : "8:30 AM",
            "url" : "2025/03/SRC/SRCageMar05.25.pdf",
            "zoom" : "https://us02web.zoom.us/j/81944191844"
         }
      }
   }
}
