{
   "2021-03-04" : {
      "13:30:00" : {
         "HCPAC" : {
            "bills" : ["HB352"],
            "date" : "2021-03-04",
            "datetime" : "2021-03-04T13:30:00",
            "mtime" : "2021-03-03T12:34:28",
            "name" : "HCPAC",
            "time" : "1:30 PM",
            "url" : "2021/03/HCPAC/HCPACageMar04.21.pdf",
            "zoom" : "https://us02web.zoom.us/j/89243737297"
         }
      }
   }
}
