{
   "2025-01-23" : {
      "10:00:00" : {
         "House" : {
            "bills" : ["HM1"],
            "date" : "2025-01-23",
            "datetime" : "2025-01-23T10:00:00",
            "mtime" : "2025-01-22T15:48:16",
            "name" : "House",
            "room" : "House Floor",
            "time" : "10:00 AM",
            "url" : "2025/01/hFloor/hFloor012325.pdf"
         }
      }
   }
}
