{
   "2025-03-06" : {
      "09:00:00" : {
         "SFC" : {
            "bills" : ["SB252","SB155"],
            "date" : "2025-03-06",
            "datetime" : "2025-03-06T09:00:00",
            "mtime" : "2025-03-05T17:12:52",
            "name" : "SFC",
            "room" : "322",
            "time" : "9:00 AM",
            "url" : "2025/03/SFC/SFCageMar06.25.pdf",
            "zoom" : "https://us02web.zoom.us/j/81696207177"
         }
      }
   }
}
