{
   "2025-02-24" : {
      "13:30:00" : {
         "HCEDC" : {
            "bills" : ["HB99","HB64","HB335","HB61"],
            "date" : "2025-02-24",
            "datetime" : "2025-02-24T13:30:00",
            "mtime" : "2025-02-20T15:29:11",
            "name" : "HCEDC",
            "room" : "317",
            "time" : "1:30 PM",
            "url" : "2025/02/HCEDC/HCEDCageFeb24.25.pdf",
            "zoom" : "https://us02web.zoom.us/j/84498420158"
         }
      }
   }
}
