{
   "2023-01-18" : {
      "09:00:00" : {
         "HAFC" : {
            "bills" : ["HB1"],
            "date" : "2023-01-18",
            "datetime" : "2023-01-18T09:00:00",
            "mtime" : "2023-01-17T20:16:38",
            "name" : "HAFC",
            "room" : "307",
            "time" : "9:00 AM",
            "url" : "/home/esm/.cache/nmlegis/get-calendars/2023/01/hSched/hSched011823.pdf",
            "zoom" : "https://us02web.zoom.us/j/85780733665"
         },
         "SFC" : {
            "bills" : [],
            "date" : "2023-01-18",
            "datetime" : "2023-01-18T09:00:00",
            "mtime" : "2023-01-17T20:02:09",
            "name" : "SFC",
            "room" : "322",
            "time" : "9:00 AM",
            "url" : "/home/esm/.cache/nmlegis/get-calendars/2023/01/SFC/SFCageJan18.23-1.pdf"
         }
      },
      "10:30:00" : {
         "House" : {
            "bills" : [],
            "date" : "2023-01-18",
            "datetime" : "2023-01-18T10:30:00",
            "mtime" : "2023-01-17T18:18:24",
            "name" : "House",
            "room" : "House Floor",
            "time" : "10:30 AM",
            "url" : "/home/esm/.cache/nmlegis/get-calendars/2023/01/hFloor/hFloor011823.pdf",
            "urls" : [
               "/home/esm/.cache/nmlegis/get-calendars/2023/01/hFloor/hFloor011823.pdf",
               "/home/esm/.cache/nmlegis/get-calendars/2023/01/hFloor/hFloor011823_Supplemental.pdf"
            ]
         }
      },
      "11:00:00" : {
         "Senate" : {
            "bills" : [],
            "date" : "2023-01-18",
            "datetime" : "2023-01-18T11:00:00",
            "mtime" : "2023-01-17T17:26:10",
            "name" : "Senate",
            "room" : "Senate Floor",
            "time" : "11:00 AM",
            "url" : "/home/esm/.cache/nmlegis/get-calendars/2023/01/sFloor/sFloor011823.pdf"
         }
      },
      "13:30:00" : {
         "HAFC" : {
            "bills" : [],
            "date" : "2023-01-18",
            "datetime" : "2023-01-18T13:30:00",
            "mtime" : "2023-01-17T20:16:38",
            "name" : "HAFC",
            "room" : "307",
            "time" : "1:30 PM",
            "url" : "/home/esm/.cache/nmlegis/get-calendars/2023/01/hSched/hSched011823.pdf"
         }
      }
   }
}
