{
   "2022-02-12" : {
      "10:00:00" : {
         "SFC" : {
            "bills" : ["HB8","SB69","SB155","SB202","SB12"],
            "date" : "2022-02-12",
            "datetime" : "2022-02-12T10:00:00",
            "mtime" : "2022-02-11T18:03:04",
            "name" : "SFC",
            "room" : "322",
            "time" : "10:00 AM",
            "url" : "2022/02/SFC/SFCageFeb12.22.pdf"
         }
      }
   }
}
