{
   "2022-02-14" : {
      "00:00:00" : {
         "SFC" : {
            "bills" : ["SB183","HB37","HB39","SB186","HB124","HB167","HB62","HB15","HB67","SB155"],
            "date" : "2022-02-14",
            "datetime" : "2022-02-14T00:00:00",
            "mtime" : "2022-02-13T16:08:31",
            "name" : "SFC",
            "room" : "322",
            "time" : "Call of the Chair",
            "url" : "2022/02/SFC/SFCageFeb14.22.pdf"
         }
      }
   }
}
