{
   "2022-02-16" : {
      "00:00:00" : {
         "SFC" : {
            "bills" : ["HB163","HB124","SB164","SB155"],
            "date" : "2022-02-16",
            "datetime" : "2022-02-16T00:00:00",
            "mtime" : "2022-02-16T11:15:26",
            "name" : "SFC",
            "room" : "322",
            "time" : "Call of the Chair",
            "url" : "2022/02/SFC/SFCageFeb16.22.pdf"
         }
      }
   }
}
