{
   "2023-03-18" : {
      "09:00:00" : {
         "Senate" : {
            "bills" : ["SB48","SB272","SB329","SB338","SB427","SB439","SB467","SB493","SJM1","SJM2","SM1","SM67","SM68","SM69","SM71","HB271","HB286","HB233","HB459","HB403","HB26","HB381","HB11","HB320","HB204","HJM3","SJM6"],
            "date" : "2023-03-18",
            "datetime" : "2023-03-18T09:00:00",
            "mtime" : "2023-03-18T06:32:09",
            "name" : "Senate",
            "room" : "Senate Floor",
            "time" : "9:00 AM",
            "url" : "2023/03/sFloor/sFloor031823.pdf"
         }
      }
   }
}
