{
   "2021-02-01" : {
      "09:00:00" : {
         "SEC" : {
            "bills" : ["SB44","SB29","SB43","SB54","SB63","SB94","SB107"],
            "date" : "2021-02-01",
            "datetime" : "2021-02-01T09:00:00",
            "mtime" : "2021-01-29T13:02:10",
            "name" : "SEC",
            "time" : "9:00 AM",
            "url" : "2021/02/SEC/SECageFeb01.21.pdf"
         }
      }
   }
}
