{
   "2023-03-08" : {
      "10:30:00" : {
         "House" : {
            "bills" : ["HJR2","HB177","HB100","HB147","HB231","HB132","HB112","HB189","HB250","HB336","HB388","HB267","HB366","HB432","SB47","HB260","HB381","HB330","HB399","HB5","SB68","HB379","HB426","HB11","HB233","HB273","HB313","HB349","HB395","HB403","HB407","HB446","HB510","HB545","HB547","SB3","SB307","HJM7","HJM5","HM35","HM51","HM55","HM58","HM34","HM56","HM59","HM60","HM11","HM12","HM16","HM18","HM37","HM48","HM63","HM78","HM79","SJM13","HB259","HB280","HB362","HB466","SB2","SB20","SB83","SB64","SB94","SB120","SJM11","HM45","HB9","HB7"],
            "date" : "2023-03-08",
            "datetime" : "2023-03-08T10:30:00",
            "mtime" : "2023-03-07T22:18:24",
            "name" : "House",
            "room" : "House Floor",
            "time" : "10:30 AM",
            "url" : "2023/03/hFloor/hFloor030823.pdf"
         }
      }
   }
}
