{
   "2023-03-18" : {
      "00:00:00" : {
         "House" : {
            "bills" : ["HB233"],
            "date" : "2023-03-18",
            "mtime" : "2023-03-18T10:53:33",
            "name" : "House",
            "room" : "House Floor",
            "url" : "2023/03/hFloor/hFloor031823_Concurrence.pdf"
         }
      }
   }
}
