{
   "2023-03-12" : {
      "13:30:00" : {
         "House" : {
            "bills" : ["HJR2","HB177","HB100","HB147","HB231","HB132","HB112","HB388","HB432","HB260","HB381","HB426","HB545","HB547","SB307","HB259","SB2","SB20","SB64","SB83","SB94","SB120","HB410","HB461","HB538","SB26","SB44","SB77","SB136","SB168","SB223","SB324","SB351","HB263","HB291","SB271","HB390","HB434","HB471","SB58","SB72","SB131","SB132","SB178","SB310","SB425","HB288","HB462","HB522","SB29","SB43","SB84","SB102","SB176","SB180","SB182","SB187","SB188","SB206","SB224","SB260","SB302","SB391","SJR12","HJM5","HM56","HM60","HM11","HM16","HM18","HM37","HM48","HM63","HM78","HM80","SJM3","SJM13","HB4","HJM7","HJM8","SJM11","HM55","HM58","HM34","HM59","HM45","HM40","HM44","HM74","HM51"],
            "date" : "2023-03-12",
            "datetime" : "2023-03-12T13:30:00",
            "mtime" : "2023-03-11T21:51:25",
            "name" : "House",
            "room" : "House Floor",
            "time" : "1:30 PM",
            "url" : "2023/03/hFloor/hFloor031223.pdf"
         }
      }
   }
}
