{
   "2022-02-08" : {
      "00:00:00" : {
         "STBTC" : {
            "bills" : ["SB106","SB170","SB69","SB184","SB186","SB193","SB207"],
            "date" : "2022-02-08",
            "datetime" : "2022-02-08T00:00:00",
            "mtime" : "2022-02-11T18:15:31",
            "name" : "STBTC",
            "room" : "321",
            "time" : "1/2 hr. after session",
            "url" : "/home/esm/.cache/nmlegis/get-calendars/2022/02/sSched/sSched020822.pdf",
            "zoom" : "https://us02web.zoom.us/j/84895112616"
         }
      },
      "08:30:00" : {
         "HAAWC" : {
            "bills" : ["HB83","HB169","HJM1"],
            "date" : "2022-02-08",
            "datetime" : "2022-02-08T08:30:00",
            "mtime" : "2022-02-11T18:15:31",
            "name" : "HAAWC",
            "room" : "315",
            "time" : "8:30 AM",
            "url" : "/home/esm/.cache/nmlegis/get-calendars/2022/02/hSched/hSched020822.pdf",
            "zoom" : "https://us02web.zoom.us/j/86337399512"
         }
      },
      "09:00:00" : {
         "HENRC" : {
            "bills" : [],
            "date" : "2022-02-08",
            "datetime" : "2022-02-08T09:00:00",
            "mtime" : "2022-02-11T18:15:31",
            "name" : "HENRC",
            "room" : "317",
            "time" : "9:00 AM",
            "url" : "/home/esm/.cache/nmlegis/get-calendars/2022/02/hSched/hSched020822.pdf"
         },
         "HRDLC" : {
            "bills" : ["HB173"],
            "date" : "2022-02-08",
            "datetime" : "2022-02-08T09:00:00",
            "mtime" : "2022-02-11T18:15:31",
            "name" : "HRDLC",
            "room" : "309",
            "time" : "9:00 AM",
            "url" : "/home/esm/.cache/nmlegis/get-calendars/2022/02/hSched/hSched020822.pdf",
            "zoom" : "https://us02web.zoom.us/j/82578106736"
         },
         "HTPWC" : {
            "bills" : ["HB183","HM47"],
            "date" : "2022-02-08",
            "datetime" : "2022-02-08T09:00:00",
            "mtime" : "2022-02-11T18:15:31",
            "name" : "HTPWC",
            "room" : "305",
            "time" : "9:00 AM",
            "url" : "/home/esm/.cache/nmlegis/get-calendars/2022/02/hSched/hSched020822.pdf",
            "zoom" : "https://us02web.zoom.us/j/84841772756"
         },
         "SCONC" : {
            "bills" : ["SB194","SB199"],
            "date" : "2022-02-08",
            "datetime" : "2022-02-08T09:00:00",
            "mtime" : "2022-02-11T18:15:31",
            "name" : "SCONC",
            "room" : "311",
            "time" : "9:00 AM",
            "url" : "/home/esm/.cache/nmlegis/get-calendars/2022/02/sSched/sSched020822.pdf",
            "zoom" : "https://us02web.zoom.us/j/86543845863"
         }
      },
      "10:00:00" : {
         "SIRC" : {
            "bills" : ["HB8","HB15"],
            "date" : "2022-02-08",
            "datetime" : "2022-02-08T10:00:00",
            "mtime" : "2022-02-11T18:15:31",
            "name" : "SIRC",
            "room" : "303",
            "time" : "10:00 AM",
            "url" : "/home/esm/.cache/nmlegis/get-calendars/2022/02/sSched/sSched020822.pdf",
            "zoom" : "https://us02web.zoom.us/j/87300724547"
         }
      },
      "11:00:00" : {
         "House" : {
            "bills" : ["HB67","HB81","HB71","HB82","HB56","HB69","HM5","HM21","HM11","HM26","HM4","HM15","HM18","HM22","HM3","HM24","HM36","HM1","HM7","HM10","HM13","HM17","HM31","HM34","HM37","HM39","HM40","HM41","HM42","HM46","HB227","HB13","HB22","HB46","HB62","HB84","HB86","HB95","HB99","HB102","HB167","HJR1"],
            "date" : "2022-02-08",
            "datetime" : "2022-02-08T11:00:00",
            "mtime" : "2022-02-11T18:15:31",
            "name" : "House",
            "room" : "House Floor",
            "time" : "11:00 AM",
            "url" : "/home/esm/.cache/nmlegis/get-calendars/2022/02/hFloor/hFloor020822.pdf"
         },
         "Senate" : {
            "bills" : ["SB39","SB38","SB158","SB43","SB172","SJR10","SJM2","SM6","SM4","SM5","SM8","SM17","SM19","SM21","SM22","SM23","SM24"],
            "date" : "2022-02-08",
            "datetime" : "2022-02-08T11:00:00",
            "mtime" : "2022-02-11T18:15:31",
            "name" : "Senate",
            "room" : "Senate Floor",
            "time" : "11:00 AM",
            "url" : "/home/esm/.cache/nmlegis/get-calendars/2022/02/sFloor/sFloor020822.pdf"
         }
      },
      "13:30:00" : {
         "HAFC" : {
            "bills" : ["HB60","HB87","HB88","HB90","HB134","HB152","HB142","HB160","HB204","HB157","HB66","HB128","HB94","HB155","HB171"],
            "date" : "2022-02-08",
            "datetime" : "2022-02-08T13:30:00",
            "mtime" : "2022-02-11T18:15:31",
            "name" : "HAFC",
            "room" : "307",
            "time" : "1:30 PM or at the call of the Chair",
            "url" : "/home/esm/.cache/nmlegis/get-calendars/2022/02/hSched/hSched020822.pdf",
            "zoom" : "https://us02web.zoom.us/j/86709842182"
         },
         "HCPAC" : {
            "bills" : ["HB172","HM38","HB180"],
            "date" : "2022-02-08",
            "datetime" : "2022-02-08T13:30:00",
            "mtime" : "2022-02-11T18:15:31",
            "name" : "HCPAC",
            "room" : "317",
            "time" : "1:30 PM (or 15 minutes following the floor session)",
            "url" : "/home/esm/.cache/nmlegis/get-calendars/2022/02/hSched/hSched020822.pdf",
            "zoom" : "https://us02web.zoom.us/j/82353539692"
         },
         "HLVMC" : {
            "bills" : ["HB73","HB106","HB168","HB110"],
            "date" : "2022-02-08",
            "datetime" : "2022-02-08T13:30:00",
            "mtime" : "2022-02-11T18:15:31",
            "name" : "HLVMC",
            "room" : "315",
            "time" : "1:30 PM or 15 minutes after floor session",
            "url" : "/home/esm/.cache/nmlegis/get-calendars/2022/02/hSched/hSched020822.pdf",
            "zoom" : "https://us02web.zoom.us/j/89015442467"
         },
         "SFC" : {
            "bills" : ["SB7","SB125","SB135"],
            "date" : "2022-02-08",
            "datetime" : "2022-02-08T13:30:00",
            "mtime" : "2022-02-11T18:15:31",
            "name" : "SFC",
            "room" : "322",
            "time" : "1:30 PM or 1/2 hour after Floor Session",
            "url" : "/home/esm/.cache/nmlegis/get-calendars/2022/02/SFC/SFCageFeb08.22.pdf"
         }
      }
   },
   "2022-02-09" : {
      "08:30:00" : {
         "HEC" : {
            "bills" : ["HB184","HB193","HB159","HM33"],
            "date" : "2022-02-09",
            "datetime" : "2022-02-09T08:30:00",
            "mtime" : "2022-02-11T18:15:31",
            "name" : "HEC",
            "room" : "309",
            "time" : "8:30 AM",
            "url" : "/home/esm/.cache/nmlegis/get-calendars/2022/02/hSched/hSched020822.pdf",
            "zoom" : "https://us02web.zoom.us/j/82380513568"
         },
         "HHHC" : {
            "bills" : [],
            "date" : "2022-02-09",
            "datetime" : "2022-02-09T08:30:00",
            "mtime" : "2022-02-11T18:15:31",
            "name" : "HHHC",
            "room" : "315",
            "time" : "8:30 AM",
            "url" : "/home/esm/.cache/nmlegis/get-calendars/2022/02/hSched/hSched020822.pdf"
         },
         "HTRC" : {
            "bills" : ["HB207","HB48","HB49","HB129"],
            "date" : "2022-02-09",
            "datetime" : "2022-02-09T08:30:00",
            "mtime" : "2022-02-11T18:15:31",
            "name" : "HTRC",
            "room" : "317",
            "time" : "8:30 AM",
            "url" : "/home/esm/.cache/nmlegis/get-calendars/2022/02/hSched/hSched020822.pdf",
            "zoom" : "https://us02web.zoom.us/j/84861630345"
         }
      },
      "09:00:00" : {
         "SEC" : {
            "bills" : ["SB243"],
            "date" : "2022-02-09",
            "datetime" : "2022-02-09T09:00:00",
            "mtime" : "2022-02-11T18:15:31",
            "name" : "SEC",
            "room" : "311",
            "time" : "9:00 AM",
            "url" : "/home/esm/.cache/nmlegis/get-calendars/2022/02/sSched/sSched020822.pdf",
            "zoom" : "https://us02web.zoom.us/j/83582297843"
         }
      }
   }
}
