{
   "2024-01-22" : {
      "13:00:00" : {
         "SHPAC" : {
            "bills" : ["SB7","SB23","SB31","SB33","SB12","SB61"],
            "date" : "2024-01-22",
            "datetime" : "2024-01-22T13:00:00",
            "mtime" : "2024-01-22T13:23:48",
            "name" : "SHPAC",
            "room" : "311",
            "time" : "1:00 PM or 1/2 HR after floor session",
            "url" : "2024/01/SHPAC/SHPACageJan22.24.pdf",
            "zoom" : "https://us02wed.zoom.us/j/81287336647"
         }
      }
   }
}
