{
   "2025-01-30" : {
      "08:30:00" : {
         "SCONC" : {
            "bills" : ["SB21","SB22","SB23","SB29","SB33"],
            "date" : "2025-01-30",
            "datetime" : "2025-01-30T08:30:00",
            "mtime" : "2025-01-29T18:49:59",
            "name" : "SCONC",
            "room" : "311",
            "time" : "8:30 AM",
            "url" : "2025/01/sSched/sSched013025.pdf",
            "zoom" : "https://us02web.zoom.us/j/82404382748"
         }
      },
      "13:30:00" : {
         "SFC" : {
            "bills" : [],
            "date" : "2025-01-30",
            "datetime" : "2025-01-30T13:30:00",
            "mtime" : "2025-01-29T18:49:59",
            "name" : "SFC",
            "room" : "322",
            "time" : "1:30 PM",
            "url" : "2025/01/sSched/sSched013025.pdf",
            "zoom" : "https://us02web.zoom.us/j/81696207177"
         },
         "STBTC" : {
            "bills" : [],
            "date" : "2025-01-30",
            "datetime" : "2025-01-30T13:30:00",
            "mtime" : "2025-01-29T18:49:59",
            "name" : "STBTC",
            "room" : "321",
            "time" : "1:30 PM or 30 minutes after floor session",
            "url" : "2025/01/sSched/sSched013025.pdf",
            "zoom" : "https://us02web.zoom.us/j/85614440294"
         }
      }
   },
   "2025-01-31" : {
      "09:00:00" : {
         "SEC" : {
            "bills" : ["SB10","SB13","SB19","SB64","SB68","SB75"],
            "date" : "2025-01-31",
            "datetime" : "2025-01-31T09:00:00",
            "mtime" : "2025-01-29T18:49:59",
            "name" : "SEC",
            "room" : "311",
            "time" : "9:00 AM",
            "url" : "2025/01/sSched/sSched013025.pdf",
            "zoom" : "https://us02web.zoom.us/j/89615593412"
         },
         "SRC" : {
            "bills" : ["SB135","SB109","SB124"],
            "date" : "2025-01-31",
            "datetime" : "2025-01-31T09:00:00",
            "mtime" : "2025-01-29T18:49:59",
            "name" : "SRC",
            "room" : "321",
            "time" : "9:00 AM",
            "url" : "2025/01/sSched/sSched013025.pdf",
            "zoom" : "https://us02web.zoom.us/j/81944191844"
         }
      }
   },
   "2025-02-04" : {
      "10:30:00" : {
         "SIRC" : {
            "bills" : [],
            "date" : "2025-02-04",
            "datetime" : "2025-02-04T10:30:00",
            "mtime" : "2025-01-29T18:49:59",
            "name" : "SIRC",
            "room" : "303",
            "time" : "10:30 AM",
            "url" : "2025/01/sSched/sSched013025.pdf",
            "zoom" : "https://us02web.zoom.us/j/83279870726"
         }
      }
   }
}
