{
   "2023-02-07" : {
      "00:00:00" : {
         "STBTC" : {
            "bills" : ["SB38","SB204","SB50","SB52","SB54","SB55","SB56","SB62","SB66","SB68"],
            "date" : "2023-02-07",
            "datetime" : "2023-02-07T00:00:00",
            "mtime" : "2023-02-06T18:54:25",
            "name" : "STBTC",
            "room" : "321",
            "time" : "After the floor session ends",
            "url" : "/home/esm/.cache/nmlegis/get-calendars/2023/02/sSched/sSched020723.pdf",
            "zoom" : "https://us02web.zoom.us/j/4011289295"
         }
      },
      "08:30:00" : {
         "HENRC" : {
            "bills" : ["HB243","HB261","HB276"],
            "date" : "2023-02-07",
            "datetime" : "2023-02-07T08:30:00",
            "mtime" : "2023-02-06T17:51:59",
            "name" : "HENRC",
            "room" : "317",
            "time" : "8:30 AM",
            "url" : "/home/esm/.cache/nmlegis/get-calendars/2023/02/hSched/hSched020723.pdf",
            "zoom" : "https://us02web.zoom.us/j/82140964843"
         }
      },
      "09:00:00" : {
         "HAAWC" : {
            "bills" : ["HB298"],
            "date" : "2023-02-07",
            "datetime" : "2023-02-07T09:00:00",
            "mtime" : "2023-02-06T17:51:59",
            "name" : "HAAWC",
            "room" : "315",
            "time" : "9:00 AM",
            "url" : "/home/esm/.cache/nmlegis/get-calendars/2023/02/hSched/hSched020723.pdf",
            "zoom" : "https://us02web.zoom.us/j/85936697460"
         },
         "HRDLC" : {
            "bills" : ["HB33","HB274","HM19"],
            "date" : "2023-02-07",
            "datetime" : "2023-02-07T09:00:00",
            "mtime" : "2023-02-06T17:51:59",
            "name" : "HRDLC",
            "room" : "309",
            "time" : "9:00 AM",
            "url" : "/home/esm/.cache/nmlegis/get-calendars/2023/02/hSched/hSched020723.pdf",
            "zoom" : "https://us02web.zoom.us/j/89292510566"
         },
         "HTPWC" : {
            "bills" : ["HB3","HB213","HB208"],
            "date" : "2023-02-07",
            "datetime" : "2023-02-07T09:00:00",
            "mtime" : "2023-02-06T17:51:59",
            "name" : "HTPWC",
            "room" : "305",
            "time" : "9:00 AM",
            "url" : "/home/esm/.cache/nmlegis/get-calendars/2023/02/hSched/hSched020723.pdf",
            "zoom" : "https://us02web.zoom.us/j/83429763870"
         },
         "SCONC" : {
            "bills" : ["SB58","SB164","SB165","SB169","SB182"],
            "date" : "2023-02-07",
            "datetime" : "2023-02-07T09:00:00",
            "mtime" : "2023-02-06T18:54:25",
            "name" : "SCONC",
            "room" : "311",
            "time" : "9:00 AM",
            "url" : "/home/esm/.cache/nmlegis/get-calendars/2023/02/sSched/sSched020723.pdf",
            "zoom" : "https://us02web.zoom.us/j/7739881331"
         }
      },
      "10:00:00" : {
         "SIRC" : {
            "bills" : ["SB214","SB258"],
            "date" : "2023-02-07",
            "datetime" : "2023-02-07T10:00:00",
            "mtime" : "2023-02-06T18:54:25",
            "name" : "SIRC",
            "room" : "303",
            "time" : "10:00 AM",
            "url" : "/home/esm/.cache/nmlegis/get-calendars/2023/02/sSched/sSched020723.pdf",
            "zoom" : "https://us02web.zoom.us/j/4330437643"
         }
      },
      "10:30:00" : {
         "House" : {
            "bills" : ["HB9","HB131","HB75","HJM2","HM4","HM2","HM8","HM11","HM12","HM16","HM17","HM18","HM24","HM25","HM27","HM30","HM32","HB31","HB44","HB62","HB78","HB95","HB103"],
            "date" : "2023-02-07",
            "datetime" : "2023-02-07T10:30:00",
            "mtime" : "2023-02-06T17:51:34",
            "name" : "House",
            "room" : "House Floor",
            "time" : "10:30 AM",
            "url" : "/home/esm/.cache/nmlegis/get-calendars/2023/02/hFloor/hFloor020723.pdf"
         }
      },
      "11:00:00" : {
         "Senate" : {
            "bills" : ["SB71","SB29","SB47","SB44","SJM3","SJM6","SM2","SM3","SM9","SM10","SM15","SM17","SM21","SM22","SM24","SM25","SM26","SM28","SM31","SM32"],
            "date" : "2023-02-07",
            "datetime" : "2023-02-07T11:00:00",
            "mtime" : "2023-02-06T18:54:21",
            "name" : "Senate",
            "room" : "Senate Floor",
            "time" : "11:00 AM",
            "url" : "/home/esm/.cache/nmlegis/get-calendars/2023/02/sFloor/sFloor020723.pdf"
         }
      },
      "13:30:00" : {
         "HAFC" : {
            "bills" : [],
            "date" : "2023-02-07",
            "datetime" : "2023-02-07T13:30:00",
            "mtime" : "2023-02-06T17:51:59",
            "name" : "HAFC",
            "room" : "307",
            "time" : "1:30 PM",
            "url" : "/home/esm/.cache/nmlegis/get-calendars/2023/02/hSched/hSched020723.pdf"
         },
         "HCPAC" : {
            "bills" : ["HB50","HB100","HB101","HB164"],
            "date" : "2023-02-07",
            "datetime" : "2023-02-07T13:30:00",
            "mtime" : "2023-02-06T17:51:59",
            "name" : "HCPAC",
            "room" : "317",
            "time" : "1:30 PM",
            "url" : "/home/esm/.cache/nmlegis/get-calendars/2023/02/hSched/hSched020723.pdf",
            "zoom" : "https://us02web.zoom.us/j/89037370054"
         },
         "HLVMC" : {
            "bills" : ["HB102","HB186","HB200"],
            "date" : "2023-02-07",
            "datetime" : "2023-02-07T13:30:00",
            "mtime" : "2023-02-06T17:51:59",
            "name" : "HLVMC",
            "room" : "315",
            "time" : "1:30 PM",
            "url" : "/home/esm/.cache/nmlegis/get-calendars/2023/02/hSched/hSched020723.pdf",
            "zoom" : "https://us02web.zoom.us/j/83177147401"
         },
         "SFC" : {
            "bills" : [],
            "date" : "2023-02-07",
            "datetime" : "2023-02-07T13:30:00",
            "mtime" : "2023-02-06T18:54:25",
            "name" : "SFC",
            "room" : "322",
            "time" : "1:30 PM",
            "url" : "/home/esm/.cache/nmlegis/get-calendars/2023/02/sSched/sSched020723.pdf",
            "zoom" : "https://us02web.zoom.us/j/8300773742"
         }
      }
   },
   "2023-02-08" : {
      "08:30:00" : {
         "HEC" : {
            "bills" : ["HB126","HB127","HB199"],
            "date" : "2023-02-08",
            "datetime" : "2023-02-08T08:30:00",
            "mtime" : "2023-02-06T17:51:59",
            "name" : "HEC",
            "room" : "309",
            "time" : "8:30 AM",
            "url" : "/home/esm/.cache/nmlegis/get-calendars/2023/02/hSched/hSched020723.pdf",
            "zoom" : "https://us02web.zoom.us/j/82501768249"
         },
         "HGEIC" : {
            "bills" : ["HB4","HB46","HB171"],
            "date" : "2023-02-08",
            "datetime" : "2023-02-08T08:30:00",
            "mtime" : "2023-02-06T17:51:59",
            "name" : "HGEIC",
            "room" : "305",
            "time" : "8:30 AM",
            "url" : "/home/esm/.cache/nmlegis/get-calendars/2023/02/hSched/hSched020723.pdf",
            "zoom" : "https://us02web.zoom.us/j/81850374006"
         },
         "HHHC" : {
            "bills" : ["HB51","HB53","HB132"],
            "date" : "2023-02-08",
            "datetime" : "2023-02-08T08:30:00",
            "mtime" : "2023-02-06T17:51:59",
            "name" : "HHHC",
            "room" : "307",
            "time" : "8:30 AM",
            "url" : "/home/esm/.cache/nmlegis/get-calendars/2023/02/hSched/hSched020723.pdf",
            "zoom" : "https://us02web.zoom.us/j/84266137922"
         },
         "HTRC" : {
            "bills" : ["HB81","HB119","HB120","HB124"],
            "date" : "2023-02-08",
            "datetime" : "2023-02-08T08:30:00",
            "mtime" : "2023-02-06T17:51:59",
            "name" : "HTRC",
            "room" : "317",
            "time" : "8:30 AM",
            "url" : "/home/esm/.cache/nmlegis/get-calendars/2023/02/hSched/hSched020723.pdf",
            "zoom" : "https://us02web.zoom.us/j/89087836680"
         }
      },
      "09:00:00" : {
         "SEC" : {
            "bills" : ["SB227","SB177","SB231","SB234","SB236","SB237"],
            "date" : "2023-02-08",
            "datetime" : "2023-02-08T09:00:00",
            "mtime" : "2023-02-06T18:54:25",
            "name" : "SEC",
            "room" : "311",
            "time" : "9:00 AM",
            "url" : "/home/esm/.cache/nmlegis/get-calendars/2023/02/sSched/sSched020723.pdf",
            "zoom" : "https://us02web.zoom.us/j/6057087163"
         },
         "SRC" : {
            "bills" : [],
            "date" : "2023-02-08",
            "datetime" : "2023-02-08T09:00:00",
            "mtime" : "2023-02-06T18:54:25",
            "name" : "SRC",
            "room" : "321",
            "time" : "9:00 AM",
            "url" : "/home/esm/.cache/nmlegis/get-calendars/2023/02/sSched/sSched020723.pdf",
            "zoom" : "https://us02web.zoom.us/j/3396422464"
         }
      },
      "13:30:00" : {
         "HCEDC" : {
            "bills" : ["HB115","HB79","HB237","HB93","HB94"],
            "date" : "2023-02-08",
            "datetime" : "2023-02-08T13:30:00",
            "mtime" : "2023-02-06T17:51:59",
            "name" : "HCEDC",
            "room" : "317",
            "time" : "1:30 PM",
            "url" : "/home/esm/.cache/nmlegis/get-calendars/2023/02/hSched/hSched020723.pdf",
            "zoom" : "https://us02web.zoom.us/j/81561067239"
         },
         "HJC" : {
            "bills" : ["HB297","HB7"],
            "date" : "2023-02-08",
            "datetime" : "2023-02-08T13:30:00",
            "mtime" : "2023-02-06T17:51:59",
            "name" : "HJC",
            "room" : "309",
            "time" : "1:30 PM",
            "url" : "/home/esm/.cache/nmlegis/get-calendars/2023/02/hSched/hSched020723.pdf",
            "zoom" : "https://us02web.zoom.us/j/81793611432"
         },
         "SFC" : {
            "bills" : [],
            "date" : "2023-02-08",
            "datetime" : "2023-02-08T13:30:00",
            "mtime" : "2023-02-06T18:54:25",
            "name" : "SFC",
            "room" : "322",
            "time" : "1:30 PM",
            "url" : "/home/esm/.cache/nmlegis/get-calendars/2023/02/sSched/sSched020723.pdf",
            "zoom" : "https://us02web.zoom.us/j/8300773742"
         }
      }
   },
   "2023-02-09" : {
      "09:00:00" : {
         "HTPWC" : {
            "bills" : ["HB160","HB223","HB240","HB24"],
            "date" : "2023-02-09",
            "datetime" : "2023-02-09T09:00:00",
            "mtime" : "2023-02-06T17:51:59",
            "name" : "HTPWC",
            "room" : "305",
            "time" : "9:00 AM",
            "url" : "/home/esm/.cache/nmlegis/get-calendars/2023/02/hSched/hSched020723.pdf",
            "zoom" : "https://us02web.zoom.us/j/82326335475"
         }
      },
      "13:30:00" : {
         "HCPAC" : {
            "bills" : ["HB111","HB138","HB170","HB180","HB182","HB73","HB218"],
            "date" : "2023-02-09",
            "datetime" : "2023-02-09T13:30:00",
            "mtime" : "2023-02-06T17:51:59",
            "name" : "HCPAC",
            "room" : "317",
            "time" : "1:30 PM",
            "url" : "/home/esm/.cache/nmlegis/get-calendars/2023/02/hSched/hSched020723.pdf",
            "zoom" : "https://us02web.zoom.us/j/89037370054"
         },
         "HLVMC" : {
            "bills" : ["HB210","HB227"],
            "date" : "2023-02-09",
            "datetime" : "2023-02-09T13:30:00",
            "mtime" : "2023-02-06T17:51:59",
            "name" : "HLVMC",
            "room" : "315",
            "time" : "1:30 PM",
            "url" : "/home/esm/.cache/nmlegis/get-calendars/2023/02/hSched/hSched020723.pdf",
            "zoom" : "https://us02web.zoom.us/j/83177147401"
         }
      }
   },
   "2023-02-10" : {
      "08:30:00" : {
         "HGEIC" : {
            "bills" : ["HB179","HB192","HB193","HB143"],
            "date" : "2023-02-10",
            "datetime" : "2023-02-10T08:30:00",
            "mtime" : "2023-02-06T17:51:59",
            "name" : "HGEIC",
            "room" : "305",
            "time" : "8:30 AM",
            "url" : "/home/esm/.cache/nmlegis/get-calendars/2023/02/hSched/hSched020723.pdf",
            "zoom" : "https://us02web.zoom.us/j/81850374006"
         }
      }
   },
   "2023-02-11" : {
      "09:00:00" : {
         "HCPAC" : {
            "bills" : ["HB190","HB212","HB224","HB238","HB225","HB232"],
            "date" : "2023-02-11",
            "datetime" : "2023-02-11T09:00:00",
            "mtime" : "2023-02-06T17:51:59",
            "name" : "HCPAC",
            "room" : "309",
            "time" : "9:00 AM",
            "url" : "/home/esm/.cache/nmlegis/get-calendars/2023/02/hSched/hSched020723.pdf",
            "zoom" : "https://us02web.zoom.us/j/83498727886"
         }
      }
   },
   "2023-02-14" : {
      "13:30:00" : {
         "HCPAC" : {
            "bills" : ["HB241","HB253","HB273","HB279","HB282"],
            "date" : "2023-02-14",
            "datetime" : "2023-02-14T13:30:00",
            "mtime" : "2023-02-06T17:51:59",
            "name" : "HCPAC",
            "room" : "317",
            "time" : "1:30 PM",
            "url" : "/home/esm/.cache/nmlegis/get-calendars/2023/02/hSched/hSched020723.pdf",
            "zoom" : "https://us02web.zoom.us/j/89037370054"
         }
      }
   }
}
