{
   "2023-02-03" : {
      "08:30:00" : {
         "HGEIC" : {
            "bills" : ["HB161","HB4","HB188"],
            "date" : "2023-02-03",
            "datetime" : "2023-02-03T08:30:00",
            "mtime" : "2023-02-02T16:47:47",
            "name" : "HGEIC",
            "room" : "305",
            "time" : "8:30 AM",
            "url" : "/home/esm/.cache/nmlegis/get-calendars/2023/02/hSched/hSched020323.pdf",
            "zoom" : "https://us02web.zoom.us/j/81850374006"
         },
         "HHHC" : {
            "bills" : ["HB7","HB83"],
            "date" : "2023-02-03",
            "datetime" : "2023-02-03T08:30:00",
            "mtime" : "2023-02-02T16:47:47",
            "name" : "HHHC",
            "room" : "307",
            "time" : "8:30 AM",
            "url" : "/home/esm/.cache/nmlegis/get-calendars/2023/02/hSched/hSched020323.pdf",
            "zoom" : "https://us02web.zoom.us/j/84266137922"
         },
         "HTRC" : {
            "bills" : ["HB67","HB99"],
            "date" : "2023-02-03",
            "datetime" : "2023-02-03T08:30:00",
            "mtime" : "2023-02-02T16:47:47",
            "name" : "HTRC",
            "room" : "317",
            "time" : "8:30 AM",
            "url" : "/home/esm/.cache/nmlegis/get-calendars/2023/02/hSched/hSched020323.pdf",
            "zoom" : "https://us02web.zoom.us/j/89087836680"
         }
      },
      "09:00:00" : {
         "HEC" : {
            "bills" : ["HB52","HB149","HB198"],
            "date" : "2023-02-03",
            "datetime" : "2023-02-03T09:00:00",
            "mtime" : "2023-02-02T16:47:47",
            "name" : "HEC",
            "room" : "309",
            "time" : "9:00 AM",
            "url" : "/home/esm/.cache/nmlegis/get-calendars/2023/02/hSched/hSched020323.pdf",
            "zoom" : "https://us02web.zoom.us/j/82501768249"
         },
         "SFC" : {
            "bills" : [],
            "date" : "2023-02-03",
            "datetime" : "2023-02-03T09:00:00",
            "mtime" : "2023-02-02T20:09:59",
            "name" : "SFC",
            "room" : "322",
            "time" : "9:00 AM",
            "url" : "/home/esm/.cache/nmlegis/get-calendars/2023/02/sSched/sSched020323.pdf",
            "zoom" : "https://us02web.zoom.us/j/8300773742"
         },
         "SRC" : {
            "bills" : ["SB73","SB175","SJR7","SJR1"],
            "date" : "2023-02-03",
            "datetime" : "2023-02-03T09:00:00",
            "mtime" : "2023-02-02T20:09:59",
            "name" : "SRC",
            "room" : "321",
            "time" : "9:00 AM",
            "url" : "/home/esm/.cache/nmlegis/get-calendars/2023/02/sSched/sSched020323.pdf",
            "zoom" : "https://us02web.zoom.us/j/3396422464"
         }
      },
      "09:30:00" : {
         "SEC" : {
            "bills" : ["SB113","SB120","SB131","SB137"],
            "date" : "2023-02-03",
            "datetime" : "2023-02-03T09:30:00",
            "mtime" : "2023-02-02T20:09:59",
            "name" : "SEC",
            "room" : "311",
            "time" : "9:30 AM",
            "url" : "/home/esm/.cache/nmlegis/get-calendars/2023/02/sSched/sSched020323.pdf",
            "zoom" : "https://us02web.zoom.us/j/6057087163"
         }
      },
      "11:00:00" : {
         "Senate" : {
            "bills" : ["SB29","SJM3","SJM6","SM2","SM3","SM9","SM10","SM15","SM17","SM21","SM22","SM23","SM24","SM25","SM26"],
            "date" : "2023-02-03",
            "datetime" : "2023-02-03T11:00:00",
            "mtime" : "2023-02-02T20:09:55",
            "name" : "Senate",
            "room" : "Senate Floor",
            "time" : "11:00 AM",
            "url" : "/home/esm/.cache/nmlegis/get-calendars/2023/02/sFloor/sFloor020323.pdf"
         }
      },
      "11:30:00" : {
         "House" : {
            "bills" : ["HB9","HB43","HM2","HM8","HM11","HM12","HM16","HM17","HM18","HM21","HM24","HM25","HM26","HM27","HB48","HB131","HJM2"],
            "date" : "2023-02-03",
            "datetime" : "2023-02-03T11:30:00",
            "mtime" : "2023-02-02T17:27:59",
            "name" : "House",
            "room" : "House Floor",
            "time" : "11:30 AM",
            "url" : "/home/esm/.cache/nmlegis/get-calendars/2023/02/hFloor/hFloor020323.pdf"
         }
      },
      "13:30:00" : {
         "HAFC" : {
            "bills" : [],
            "date" : "2023-02-03",
            "datetime" : "2023-02-03T13:30:00",
            "mtime" : "2023-02-02T16:47:47",
            "name" : "HAFC",
            "room" : "307",
            "time" : "1:30 PM",
            "url" : "/home/esm/.cache/nmlegis/get-calendars/2023/02/hSched/hSched020323.pdf"
         },
         "HCEDC" : {
            "bills" : ["HB55","HB234","HB8"],
            "date" : "2023-02-03",
            "datetime" : "2023-02-03T13:30:00",
            "mtime" : "2023-02-02T16:47:47",
            "name" : "HCEDC",
            "room" : "317",
            "time" : "1:30 PM",
            "url" : "/home/esm/.cache/nmlegis/get-calendars/2023/02/hSched/hSched020323.pdf",
            "zoom" : "https://us02web.zoom.us/j/81561067239"
         },
         "HJC" : {
            "bills" : ["HB130","HB31","HB113","HB72","HB62"],
            "date" : "2023-02-03",
            "datetime" : "2023-02-03T13:30:00",
            "mtime" : "2023-02-02T16:47:47",
            "name" : "HJC",
            "room" : "309",
            "time" : "1:30 PM",
            "url" : "/home/esm/.cache/nmlegis/get-calendars/2023/02/hSched/hSched020323.pdf",
            "zoom" : "https://us02web.zoom.us/j/81793611432"
         },
         "SFC" : {
            "bills" : [],
            "date" : "2023-02-03",
            "datetime" : "2023-02-03T13:30:00",
            "mtime" : "2023-02-02T20:09:47",
            "name" : "SFC",
            "room" : "322",
            "time" : "1:30 PM",
            "url" : "/home/esm/.cache/nmlegis/get-calendars/2023/02/SFC/SFCageFeb03.23.pdf"
         },
         "SHPAC" : {
            "bills" : ["SB132","SB133","SB117","SB124","SB128","SB130","SB134","SB145","SB144","SB162"],
            "date" : "2023-02-03",
            "datetime" : "2023-02-03T13:30:00",
            "mtime" : "2023-02-03T09:24:21",
            "name" : "SHPAC",
            "room" : "311",
            "time" : "1:30 PM or 1/2 hr. after floor session",
            "url" : "/home/esm/.cache/nmlegis/get-calendars/2023/02/SHPAC/SHPACageFeb03.23.pdf",
            "zoom" : "https://us02web.zoom.us/j/9124526531"
         },
         "SJC" : {
            "bills" : ["SB1","SB40","SB53","SB44","SB84","SB230"],
            "date" : "2023-02-03",
            "datetime" : "2023-02-03T13:30:00",
            "mtime" : "2023-02-02T20:09:59",
            "name" : "SJC",
            "room" : "321",
            "time" : "1:30 PM or 1/2 hour after floor session",
            "url" : "/home/esm/.cache/nmlegis/get-calendars/2023/02/sSched/sSched020323.pdf",
            "zoom" : "https://us02web.zoom.us/j/3616365786"
         }
      }
   },
   "2023-02-04" : {
      "09:00:00" : {
         "HCPAC" : {
            "bills" : ["HB73","HB109","HB117","HB135","HB155","HB203"],
            "date" : "2023-02-04",
            "datetime" : "2023-02-04T09:00:00",
            "mtime" : "2023-02-02T16:47:47",
            "name" : "HCPAC",
            "room" : "309",
            "time" : "9:00 AM",
            "url" : "/home/esm/.cache/nmlegis/get-calendars/2023/02/hSched/hSched020323.pdf",
            "zoom" : "https://us02web.zoom.us/j/83498727886"
         },
         "HENRC" : {
            "bills" : ["HB142","HB91","HB95","HB242"],
            "date" : "2023-02-04",
            "datetime" : "2023-02-04T09:00:00",
            "mtime" : "2023-02-02T16:47:47",
            "name" : "HENRC",
            "room" : "317",
            "time" : "9:00 AM",
            "url" : "/home/esm/.cache/nmlegis/get-calendars/2023/02/hSched/hSched020323.pdf",
            "zoom" : "https://us02web.zoom.us/j/88691432458"
         }
      },
      "14:00:00" : {
         "HJC" : {
            "bills" : ["HB44","HB105","HB54","HB103"],
            "date" : "2023-02-04",
            "datetime" : "2023-02-04T14:00:00",
            "mtime" : "2023-02-02T16:47:47",
            "name" : "HJC",
            "room" : "309",
            "time" : "2:00 PM",
            "url" : "/home/esm/.cache/nmlegis/get-calendars/2023/02/hSched/hSched020323.pdf",
            "zoom" : "https://us02web.zoom.us/j/81793611432"
         }
      }
   },
   "2023-02-06" : {
      "08:30:00" : {
         "HEC" : {
            "bills" : ["HB30","HB137"],
            "date" : "2023-02-06",
            "datetime" : "2023-02-06T08:30:00",
            "mtime" : "2023-02-02T16:47:47",
            "name" : "HEC",
            "room" : "309",
            "time" : "8:30 AM",
            "url" : "/home/esm/.cache/nmlegis/get-calendars/2023/02/hSched/hSched020323.pdf",
            "zoom" : "https://us02web.zoom.us/j/82501768249"
         },
         "HGEIC" : {
            "bills" : ["HJR2","HJR8","HB165","HB148","HJM1"],
            "date" : "2023-02-06",
            "datetime" : "2023-02-06T08:30:00",
            "mtime" : "2023-02-02T16:47:47",
            "name" : "HGEIC",
            "room" : "305",
            "time" : "8:30 AM",
            "url" : "/home/esm/.cache/nmlegis/get-calendars/2023/02/hSched/hSched020323.pdf",
            "zoom" : "https://us02web.zoom.us/j/81850374006"
         },
         "HHHC" : {
            "bills" : ["HB168","HB172","HB173","HB177","HB187"],
            "date" : "2023-02-06",
            "datetime" : "2023-02-06T08:30:00",
            "mtime" : "2023-02-02T16:47:47",
            "name" : "HHHC",
            "room" : "307",
            "time" : "8:30 AM",
            "url" : "/home/esm/.cache/nmlegis/get-calendars/2023/02/hSched/hSched020323.pdf",
            "zoom" : "https://us02web.zoom.us/j/84266137922"
         },
         "HTRC" : {
            "bills" : ["HB69","HB78","HB123"],
            "date" : "2023-02-06",
            "datetime" : "2023-02-06T08:30:00",
            "mtime" : "2023-02-02T16:47:47",
            "name" : "HTRC",
            "room" : "317",
            "time" : "8:30 AM",
            "url" : "/home/esm/.cache/nmlegis/get-calendars/2023/02/hSched/hSched020323.pdf",
            "zoom" : "https://us02web.zoom.us/j/89087836680"
         }
      },
      "09:00:00" : {
         "SEC" : {
            "bills" : ["SB148","SB149","SB202","SB211","SB219","SB227"],
            "date" : "2023-02-06",
            "datetime" : "2023-02-06T09:00:00",
            "mtime" : "2023-02-02T20:09:59",
            "name" : "SEC",
            "room" : "311",
            "time" : "9:00 AM",
            "url" : "/home/esm/.cache/nmlegis/get-calendars/2023/02/sSched/sSched020323.pdf",
            "zoom" : "https://us02web.zoom.us/j/6057087163"
         }
      },
      "13:30:00" : {
         "HCEDC" : {
            "bills" : ["HB23","HB228","HB229","HB237"],
            "date" : "2023-02-06",
            "datetime" : "2023-02-06T13:30:00",
            "mtime" : "2023-02-02T16:47:47",
            "name" : "HCEDC",
            "room" : "317",
            "time" : "1:30 PM",
            "url" : "/home/esm/.cache/nmlegis/get-calendars/2023/02/hSched/hSched020323.pdf",
            "zoom" : "https://us02web.zoom.us/j/81561067239"
         },
         "HJC" : {
            "bills" : ["HB40","HB205","HB275","HB106","HB90"],
            "date" : "2023-02-06",
            "datetime" : "2023-02-06T13:30:00",
            "mtime" : "2023-02-02T16:47:47",
            "name" : "HJC",
            "room" : "309",
            "time" : "1:30 PM",
            "url" : "/home/esm/.cache/nmlegis/get-calendars/2023/02/hSched/hSched020323.pdf",
            "zoom" : "https://us02web.zoom.us/j/81793611432"
         },
         "SHPAC" : {
            "bills" : ["SB136","SB138","SB150","SB163","SB168","SB171","SB172","SB174","SB178","SB179","SB181"],
            "date" : "2023-02-06",
            "datetime" : "2023-02-06T13:30:00",
            "mtime" : "2023-02-02T20:09:59",
            "name" : "SHPAC",
            "room" : "311",
            "time" : "1:30 PM or 1/2 hr. after floor session",
            "url" : "/home/esm/.cache/nmlegis/get-calendars/2023/02/sSched/sSched020323.pdf",
            "zoom" : "https://us02web.zoom.us/j/9124526531"
         }
      }
   },
   "2023-02-07" : {
      "09:00:00" : {
         "HTPWC" : {
            "bills" : ["HB213","HB3","HB208"],
            "date" : "2023-02-07",
            "datetime" : "2023-02-07T09:00:00",
            "mtime" : "2023-02-02T16:47:47",
            "name" : "HTPWC",
            "room" : "305",
            "time" : "9:00 AM",
            "url" : "/home/esm/.cache/nmlegis/get-calendars/2023/02/hSched/hSched020323.pdf",
            "zoom" : "https://us02web.zoom.us/j/83429763870"
         }
      },
      "09:30:00" : {
         "SIRC" : {
            "bills" : ["SB25","SB214","SB258","SB33"],
            "date" : "2023-02-07",
            "datetime" : "2023-02-07T09:30:00",
            "mtime" : "2023-02-02T20:09:59",
            "name" : "SIRC",
            "room" : "303",
            "time" : "9:30 AM",
            "url" : "/home/esm/.cache/nmlegis/get-calendars/2023/02/sSched/sSched020323.pdf",
            "zoom" : "https://us02web.zoom.us/j/4330437643"
         }
      },
      "13:30:00" : {
         "HCPAC" : {
            "bills" : ["HB50","HB100","HB101","HB164"],
            "date" : "2023-02-07",
            "datetime" : "2023-02-07T13:30:00",
            "mtime" : "2023-02-02T16:47:47",
            "name" : "HCPAC",
            "room" : "317",
            "time" : "1:30 PM",
            "url" : "/home/esm/.cache/nmlegis/get-calendars/2023/02/hSched/hSched020323.pdf",
            "zoom" : "https://us02web.zoom.us/j/89037370054"
         },
         "HLVMC" : {
            "bills" : ["HB102","HB151","HB186","HB200"],
            "date" : "2023-02-07",
            "datetime" : "2023-02-07T13:30:00",
            "mtime" : "2023-02-02T16:47:47",
            "name" : "HLVMC",
            "room" : "315",
            "time" : "1:30 PM",
            "url" : "/home/esm/.cache/nmlegis/get-calendars/2023/02/hSched/hSched020323.pdf",
            "zoom" : "https://us02web.zoom.us/j/83177147401"
         }
      }
   },
   "2023-02-08" : {
      "09:00:00" : {
         "SEC" : {
            "bills" : ["SB177","SB231","SB234","SB236","SB237"],
            "date" : "2023-02-08",
            "datetime" : "2023-02-08T09:00:00",
            "mtime" : "2023-02-02T20:09:59",
            "name" : "SEC",
            "room" : "311",
            "time" : "9:00 AM",
            "url" : "/home/esm/.cache/nmlegis/get-calendars/2023/02/sSched/sSched020323.pdf",
            "zoom" : "https://us02web.zoom.us/j/6057087163"
         }
      },
      "13:30:00" : {
         "HCEDC" : {
            "bills" : ["HB115","HB79","HB93","HB94"],
            "date" : "2023-02-08",
            "datetime" : "2023-02-08T13:30:00",
            "mtime" : "2023-02-02T16:47:47",
            "name" : "HCEDC",
            "room" : "317",
            "time" : "1:30 PM",
            "url" : "/home/esm/.cache/nmlegis/get-calendars/2023/02/hSched/hSched020323.pdf",
            "zoom" : "https://us02web.zoom.us/j/81561067239"
         }
      }
   },
   "2023-02-09" : {
      "09:00:00" : {
         "HTPWC" : {
            "bills" : ["HB160","HB223","HB240"],
            "date" : "2023-02-09",
            "datetime" : "2023-02-09T09:00:00",
            "mtime" : "2023-02-02T16:47:47",
            "name" : "HTPWC",
            "room" : "305",
            "time" : "9:00 AM",
            "url" : "/home/esm/.cache/nmlegis/get-calendars/2023/02/hSched/hSched020323.pdf",
            "zoom" : "https://us02web.zoom.us/j/82326335475"
         }
      },
      "13:30:00" : {
         "HCPAC" : {
            "bills" : ["HB111","HB138","HB170","HB180","HB182","HB218"],
            "date" : "2023-02-09",
            "datetime" : "2023-02-09T13:30:00",
            "mtime" : "2023-02-02T16:47:47",
            "name" : "HCPAC",
            "room" : "317",
            "time" : "1:30 PM",
            "url" : "/home/esm/.cache/nmlegis/get-calendars/2023/02/hSched/hSched020323.pdf",
            "zoom" : "https://us02web.zoom.us/j/89037370054"
         }
      }
   }
}
