{
   "2023-02-13" : {
      "08:30:00" : {
         "HTRC" : {
            "bills" : ["HB137","HB323","HB124"],
            "date" : "2023-02-13",
            "datetime" : "2023-02-13T08:30:00",
            "mtime" : "2023-02-09T10:43:14",
            "name" : "HTRC",
            "room" : "317",
            "time" : "8:30 AM",
            "url" : "2023/02/HTRC/HTRCageFeb13.23.pdf",
            "zoom" : "https://us02web.zoom.us/j/89087836680"
         }
      }
   }
}
