{
   "2023-01-23" : {
      "09:00:00" : {
         "SFC" : {
            "bills" : [],
            "date" : "2023-01-23",
            "datetime" : "2023-01-23T09:00:00",
            "mtime" : "2023-01-19T16:44:36",
            "name" : "SFC",
            "room" : "322",
            "time" : "9:00 AM",
            "url" : "2023/01/SFC/SFCageJan23.23.pdf",
            "zoom" : "https://us02web.zoom.us/j/8300773742"
         }
      }
   }
}
