{
   "2024-01-24" : {
      "11:00:00" : {
         "Senate" : {
            "bills" : [],
            "date" : "2024-01-24",
            "datetime" : "2024-01-24T11:00:00",
            "mtime" : "2024-01-23T18:24:37",
            "name" : "Senate",
            "room" : "Senate Floor",
            "time" : "11:00 AM",
            "url" : "2024/01/sFloor/sFloor012424.pdf"
         }
      }
   }
}
