{
   "2025-02-13" : {
      "09:00:00" : {
         "SCONC" : {
            "bills" : ["SB139","SB142","SB156","SB178","SB188","SB208","SB210"],
            "date" : "2025-02-13",
            "datetime" : "2025-02-13T09:00:00",
            "mtime" : "2025-02-13T10:04:45",
            "name" : "SCONC",
            "room" : "311",
            "time" : "9:00 AM",
            "url" : "2025/02/sSched/sSched021325.pdf",
            "zoom" : "https://us02web.zoom.us/j/82404382748"
         }
      },
      "10:00:00" : {
         "SIRC" : {
            "bills" : ["SB353","SB306","SB315","SB332"],
            "date" : "2025-02-13",
            "datetime" : "2025-02-13T10:00:00",
            "mtime" : "2025-02-13T10:04:45",
            "name" : "SIRC",
            "room" : "303",
            "time" : "10:00 AM",
            "url" : "2025/02/sSched/sSched021325.pdf",
            "zoom" : "https://us02web.zoom.us/j/83279870726"
         }
      },
      "13:30:00" : {
         "SFC" : {
            "bills" : ["SB220","SB82","SB23"],
            "date" : "2025-02-13",
            "datetime" : "2025-02-13T13:30:00",
            "mtime" : "2025-02-13T10:04:45",
            "name" : "SFC",
            "room" : "322",
            "time" : "1:30 PM",
            "url" : "2025/02/sSched/sSched021325.pdf",
            "zoom" : "https://us02web.zoom.us/j/81696207177"
         },
         "STBTC" : {
            "bills" : ["SB128","SB110","SB111","SB141","SB137","SB143","SB225","SB265","SB175","SB152","SB267","SB129"],
            "date" : "2025-02-13",
            "datetime" : "2025-02-13T13:30:00",
            "mtime" : "2025-02-13T10:04:45",
            "name" : "STBTC",
            "room" : "321",
            "time" : "1:30 PM or 30 minutes after the floor   session.",
            "url" : "2025/02/sSched/sSched021325.pdf",
            "zoom" : "https://us02web.zoom.us/j/85614440294"
         }
      }
   },
   "2025-02-14" : {
      "09:30:00" : {
         "SEC" : {
            "bills" : ["SB247","SB258","SB266","SB268"],
            "date" : "2025-02-14",
            "datetime" : "2025-02-14T09:30:00",
            "mtime" : "2025-02-13T10:04:45",
            "name" : "SEC",
            "room" : "311",
            "time" : "9:30 AM",
            "url" : "2025/02/sSched/sSched021325.pdf",
            "zoom" : "https://us02web.zoom.us/j/89615593412"
         }
      }
   }
}
