{
   "2025-02-15" : {
      "09:00:00" : {
         "SCONC" : {
            "bills" : ["SB178","SB214","SB231","SB240","SB260","SB262","SB281"],
            "date" : "2025-02-15",
            "datetime" : "2025-02-15T09:00:00",
            "mtime" : "2025-02-14T19:45:58",
            "name" : "SCONC",
            "room" : "311",
            "time" : "9:00 AM",
            "url" : "2025/02/sSched/sSched021525.pdf",
            "zoom" : "https://us02web.zoom.us/j/82404382748"
         }
      }
   },
   "2025-02-17" : {
      "08:30:00" : {
         "SEC" : {
            "bills" : ["SB266","SB268","SB280","SB163","SB300","SB314","SB325","SB343","SB344"],
            "date" : "2025-02-17",
            "datetime" : "2025-02-17T08:30:00",
            "mtime" : "2025-02-14T19:45:58",
            "name" : "SEC",
            "room" : "311",
            "time" : "8:30 AM",
            "url" : "2025/02/sSched/sSched021525.pdf",
            "zoom" : "https://us02web.zoom.us/j/89615593412"
         },
         "SRC" : {
            "bills" : ["SJR3","SJR6","SJR11","SB254","SB299","SJR10"],
            "date" : "2025-02-17",
            "datetime" : "2025-02-17T08:30:00",
            "mtime" : "2025-02-14T19:45:58",
            "name" : "SRC",
            "room" : "321",
            "time" : "8:30 AM",
            "url" : "2025/02/sSched/sSched021525.pdf",
            "zoom" : "https://us02web.zoom.us/j/81944191844"
         }
      },
      "13:30:00" : {
         "SFC" : {
            "bills" : ["SB23","SB33"],
            "date" : "2025-02-17",
            "datetime" : "2025-02-17T13:30:00",
            "mtime" : "2025-02-14T19:45:58",
            "name" : "SFC",
            "room" : "322",
            "time" : "1:30 PM",
            "url" : "2025/02/sSched/sSched021525.pdf",
            "zoom" : "https://us02web.zoom.us/j/81696207177"
         },
         "SHPAC" : {
            "bills" : ["SB55","SB57","SB58","SB61","SB71"],
            "date" : "2025-02-17",
            "datetime" : "2025-02-17T13:30:00",
            "mtime" : "2025-02-14T19:45:58",
            "name" : "SHPAC",
            "room" : "311",
            "time" : "1:30 PM",
            "url" : "2025/02/sSched/sSched021525.pdf",
            "zoom" : "https://us02web.zoom.us/j/81287336647"
         },
         "SJC" : {
            "bills" : ["SB6","SB16","SB36","SB54","SB65","SB72","SB91","SB109","SB119","SB329","SB330"],
            "date" : "2025-02-17",
            "datetime" : "2025-02-17T13:30:00",
            "mtime" : "2025-02-14T19:45:58",
            "name" : "SJC",
            "room" : "321",
            "time" : "1:30 PM or 1/2 hour after Floor Session",
            "url" : "2025/02/sSched/sSched021525.pdf",
            "zoom" : "https://us02web.zoom.us/j/88109017169"
         }
      }
   },
   "2025-02-18" : {
      "10:00:00" : {
         "SIRC" : {
            "bills" : ["SB316","SB41","SB276","SB308"],
            "date" : "2025-02-18",
            "datetime" : "2025-02-18T10:00:00",
            "mtime" : "2025-02-14T19:45:58",
            "name" : "SIRC",
            "room" : "303",
            "time" : "10:00 AM",
            "url" : "2025/02/sSched/sSched021525.pdf",
            "zoom" : "https://us02web.zoom.us/j/83279870726"
         }
      }
   }
}
