{
   "2025-02-05" : {
      "09:00:00" : {
         "SEC" : {
            "bills" : ["SB64","SB116","SB136","SB125","SB130"],
            "date" : "2025-02-05",
            "datetime" : "2025-02-05T09:00:00",
            "mtime" : "2025-02-04T18:00:06",
            "name" : "SEC",
            "room" : "311",
            "time" : "9:00 AM",
            "url" : "2025/02/sSched/sSched020525.pdf",
            "zoom" : "https://us02web.zoom.us/j/89615593412"
         },
         "SRC" : {
            "bills" : ["SJR1"],
            "date" : "2025-02-05",
            "datetime" : "2025-02-05T09:00:00",
            "mtime" : "2025-02-04T18:00:06",
            "name" : "SRC",
            "room" : "321",
            "time" : "9:00 AM",
            "url" : "2025/02/sSched/sSched020525.pdf",
            "zoom" : "https://us02web.zoom.us/j/81944191844"
         }
      },
      "13:30:00" : {
         "SFC" : {
            "bills" : [],
            "date" : "2025-02-05",
            "datetime" : "2025-02-05T13:30:00",
            "mtime" : "2025-02-04T18:00:06",
            "name" : "SFC",
            "room" : "322",
            "time" : "1:30 PM",
            "url" : "2025/02/sSched/sSched020525.pdf",
            "zoom" : "https://us02web.zoom.us/j/81696207177"
         },
         "SHPAC" : {
            "bills" : ["SB12","SB17","SB30","SB45","SB52"],
            "date" : "2025-02-05",
            "datetime" : "2025-02-05T13:30:00",
            "mtime" : "2025-02-04T18:00:06",
            "name" : "SHPAC",
            "room" : "311",
            "time" : "1:30 PM or 1/2 HR after floor session",
            "url" : "2025/02/sSched/sSched020525.pdf",
            "zoom" : "https://us02web.zoom.us/j/81287336647"
         },
         "SJC" : {
            "bills" : ["SB155","SB85","SB124","SB220"],
            "date" : "2025-02-05",
            "datetime" : "2025-02-05T13:30:00",
            "mtime" : "2025-02-04T18:00:06",
            "name" : "SJC",
            "room" : "321",
            "time" : "1:30 PM or 1/2 hour after floor session",
            "url" : "2025/02/sSched/sSched020525.pdf",
            "zoom" : "https://us02web.zoom.us/j/88109017169"
         }
      }
   },
   "2025-02-06" : {
      "08:30:00" : {
         "SCONC" : {
            "bills" : ["SB23","SB37","SB60","SB86","SB98"],
            "date" : "2025-02-06",
            "datetime" : "2025-02-06T08:30:00",
            "mtime" : "2025-02-04T18:00:06",
            "name" : "SCONC",
            "room" : "311",
            "time" : "8:30 AM",
            "url" : "2025/02/sSched/sSched020525.pdf",
            "zoom" : "https://us02web.zoom.us/j/82404382748"
         }
      }
   }
}
