{
   "2025-02-27" : {
      "09:00:00" : {
         "SCONC" : {
            "bills" : ["SB358","SB469","SB470"],
            "date" : "2025-02-27",
            "datetime" : "2025-02-27T09:00:00",
            "mtime" : "2025-02-26T19:54:48",
            "name" : "SCONC",
            "room" : "311",
            "time" : "9:00 AM",
            "url" : "2025/02/sSched/sSched022725.pdf",
            "zoom" : "https://us02web.zoom.us/j/82404382748"
         },
         "SFC" : {
            "bills" : ["SB30","SJR3","SB199","SB282","SB258"],
            "date" : "2025-02-27",
            "datetime" : "2025-02-27T09:00:00",
            "mtime" : "2025-02-26T19:54:48",
            "name" : "SFC",
            "room" : "322",
            "time" : "9:00 AM",
            "url" : "2025/02/sSched/sSched022725.pdf",
            "zoom" : "https://us02web.zoom.us/j/81696207177"
         }
      },
      "10:30:00" : {
         "SIRC" : {
            "bills" : ["SB415"],
            "date" : "2025-02-27",
            "datetime" : "2025-02-27T10:30:00",
            "mtime" : "2025-02-26T19:54:48",
            "name" : "SIRC",
            "room" : "303",
            "time" : "10:30 AM",
            "url" : "2025/02/sSched/sSched022725.pdf",
            "zoom" : "https://us02web.zoom.us/j/83279870726"
         }
      },
      "13:30:00" : {
         "STBTC" : {
            "bills" : ["SB239","SB233","SB369","SB41","SB275","SB420","SB335","SB294","SB357","SB287","SB393","SB290","SB297","SB304"],
            "date" : "2025-02-27",
            "datetime" : "2025-02-27T13:30:00",
            "mtime" : "2025-02-26T19:54:48",
            "name" : "STBTC",
            "room" : "321",
            "time" : "1:30 PM or 30 minutes after floor session",
            "url" : "2025/02/sSched/sSched022725.pdf",
            "zoom" : "https://us02web.zoom.us/j/85614440294"
         }
      }
   },
   "2025-02-28" : {
      "08:30:00" : {
         "SEC" : {
            "bills" : ["SB416","SB148","SB426","SB437"],
            "date" : "2025-02-28",
            "datetime" : "2025-02-28T08:30:00",
            "mtime" : "2025-02-26T19:54:48",
            "name" : "SEC",
            "room" : "311",
            "time" : "8:30 AM",
            "url" : "2025/02/sSched/sSched022725.pdf",
            "zoom" : "https://us02web.zoom.us/j/89615593412"
         },
         "SRC" : {
            "bills" : ["SB274","SB458","SM14","SM16"],
            "date" : "2025-02-28",
            "datetime" : "2025-02-28T08:30:00",
            "mtime" : "2025-02-26T19:54:48",
            "name" : "SRC",
            "room" : "321",
            "time" : "8:30 AM",
            "url" : "2025/02/sSched/sSched022725.pdf",
            "zoom" : "https://us02web.zoom.us/j/81944191844"
         }
      }
   }
}
