{
   "2023-01-25" : {
      "08:30:00" : {
         "HEC" : {
            "bills" : ["HB39","HB43","HB125"],
            "date" : "2023-01-25",
            "datetime" : "2023-01-25T08:30:00",
            "mtime" : "2023-01-24T17:06:26",
            "name" : "HEC",
            "room" : "309",
            "time" : "8:30 AM",
            "url" : "2023/01/hSched/hSched012523.pdf",
            "zoom" : "https://us02web.zoom.us/j/82501768249"
         },
         "HGEIC" : {
            "bills" : ["HB26","HB35","HB80","HB113"],
            "date" : "2023-01-25",
            "datetime" : "2023-01-25T08:30:00",
            "mtime" : "2023-01-24T17:06:26",
            "name" : "HGEIC",
            "room" : "305",
            "time" : "8:30 AM",
            "url" : "2023/01/hSched/hSched012523.pdf",
            "zoom" : "https://us02web.zoom.us/j/81850374006"
         },
         "HHHC" : {
            "bills" : ["HB40","HB42","HB48","HB51","HB53"],
            "date" : "2023-01-25",
            "datetime" : "2023-01-25T08:30:00",
            "mtime" : "2023-01-24T17:06:26",
            "name" : "HHHC",
            "room" : "315",
            "time" : "8:30 AM",
            "url" : "2023/01/hSched/hSched012523.pdf",
            "zoom" : "https://us02web.zoom.us/j/84266137922"
         },
         "HTRC" : {
            "bills" : [],
            "date" : "2023-01-25",
            "datetime" : "2023-01-25T08:30:00",
            "mtime" : "2023-01-24T17:06:26",
            "name" : "HTRC",
            "room" : "317",
            "time" : "8:30 AM",
            "url" : "2023/01/hSched/hSched012523.pdf"
         }
      },
      "13:30:00" : {
         "HAFC" : {
            "bills" : [],
            "date" : "2023-01-25",
            "datetime" : "2023-01-25T13:30:00",
            "mtime" : "2023-01-24T17:06:26",
            "name" : "HAFC",
            "room" : "307",
            "time" : "1:30 PM",
            "url" : "2023/01/hSched/hSched012523.pdf"
         },
         "HCEDC" : {
            "bills" : [],
            "date" : "2023-01-25",
            "datetime" : "2023-01-25T13:30:00",
            "mtime" : "2023-01-24T17:06:26",
            "name" : "HCEDC",
            "room" : "317",
            "time" : "1:30 PM",
            "url" : "2023/01/hSched/hSched012523.pdf"
         }
      }
   },
   "2023-01-26" : {
      "08:30:00" : {
         "HAAWC" : {
            "bills" : ["HB153"],
            "date" : "2023-01-26",
            "datetime" : "2023-01-26T08:30:00",
            "mtime" : "2023-01-24T17:06:26",
            "name" : "HAAWC",
            "room" : "315",
            "time" : "8:30 AM",
            "url" : "2023/01/hSched/hSched012523.pdf",
            "zoom" : "https://us02web.zoom.us/j/85936697460"
         },
         "HENRC" : {
            "bills" : ["HB32","HB67","HB91","HB142"],
            "date" : "2023-01-26",
            "datetime" : "2023-01-26T08:30:00",
            "mtime" : "2023-01-24T17:06:26",
            "name" : "HENRC",
            "room" : "317",
            "time" : "8:30 AM",
            "url" : "2023/01/hSched/hSched012523.pdf",
            "zoom" : "https://us02web.zoom.us/j/82140964843"
         }
      },
      "09:00:00" : {
         "HRDLC" : {
            "bills" : ["HB45","HB33","HB20"],
            "date" : "2023-01-26",
            "datetime" : "2023-01-26T09:00:00",
            "mtime" : "2023-01-24T17:06:26",
            "name" : "HRDLC",
            "room" : "309",
            "time" : "9:00 AM",
            "url" : "2023/01/hSched/hSched012523.pdf",
            "zoom" : "https://us02web.zoom.us/j/89292510566"
         }
      },
      "13:30:00" : {
         "HCPAC" : {
            "bills" : ["HB22","HB71","HB34","HB74","HB131"],
            "date" : "2023-01-26",
            "datetime" : "2023-01-26T13:30:00",
            "mtime" : "2023-01-24T17:06:26",
            "name" : "HCPAC",
            "room" : "317",
            "time" : "1:30 PM",
            "url" : "2023/01/hSched/hSched012523.pdf",
            "zoom" : "https://us02web.zoom.us/j/89037370054"
         }
      }
   },
   "2023-01-27" : {
      "08:30:00" : {
         "HGEIC" : {
            "bills" : ["HB103","HB54","HB84","HB110"],
            "date" : "2023-01-27",
            "datetime" : "2023-01-27T08:30:00",
            "mtime" : "2023-01-24T17:06:26",
            "name" : "HGEIC",
            "room" : "305",
            "time" : "8:30 AM",
            "url" : "2023/01/hSched/hSched012523.pdf",
            "zoom" : "https://us02web.zoom.us/j/81850374006"
         }
      },
      "13:30:00" : {
         "HCEDC" : {
            "bills" : ["HB44","HB55","HB62","HB69","HB77","HB90","HB114"],
            "date" : "2023-01-27",
            "datetime" : "2023-01-27T13:30:00",
            "mtime" : "2023-01-24T17:06:26",
            "name" : "HCEDC",
            "room" : "317",
            "time" : "1:30 PM",
            "url" : "2023/01/hSched/hSched012523.pdf",
            "zoom" : "https://us02web.zoom.us/j/81561067239"
         }
      }
   }
}
