{
   "2023-03-02" : {
      "09:30:00" : {
         "SFC" : {
            "bills" : ["SB4","SB329","SB474","SB450","SB468","SB396","SB425"],
            "date" : "2023-03-02",
            "datetime" : "2023-03-02T09:30:00",
            "mtime" : "2023-03-02T13:25:17",
            "name" : "SFC",
            "room" : "322",
            "time" : "9:30 AM",
            "url" : "2023/03/SFC/SFCageMar02.23.pdf"
         }
      }
   }
}
