{
   "2023-03-07" : {
      "09:00:00" : {
         "SFC" : {
            "bills" : ["HB76","SB66","HB175","HB298","SB8","SB194","SB272","SB316","SB423","SB205","SB382"],
            "date" : "2023-03-07",
            "datetime" : "2023-03-07T09:00:00",
            "mtime" : "2023-03-06T23:13:20",
            "name" : "SFC",
            "room" : "322",
            "time" : "9:00 AM",
            "url" : "2023/03/SFC/SFCageMar07.23.pdf",
            "zoom" : "https://us02web.zoom.us/j/81696207177"
         }
      }
   }
}
