{
   "2024-01-26" : {
      "13:30:00" : {
         "SJC" : {
            "bills" : ["SB5","SB6","SB175","SJR1"],
            "date" : "2024-01-26",
            "datetime" : "2024-01-26T13:30:00",
            "mtime" : "2024-01-25T16:15:46",
            "name" : "SJC",
            "room" : "21",
            "time" : "1:30 PM or 1/2 hour after floor session3.",
            "url" : "2024/01/SJC/SJCageJan26.24.pdf",
            "zoom" : "https://us02web.zoom.us/j/81502543362"
         }
      }
   }
}
