{
   "2025-03-02" : {
      "13:00:00" : {
         "SHPAC" : {
            "bills" : ["SB105","SB144","SB145","SB216","SB198","SB232","SB235","SB322","SB173","SB127","SB189","SB250"],
            "date" : "2025-03-02",
            "datetime" : "2025-03-02T13:00:00",
            "mtime" : "2025-02-28T18:14:48",
            "name" : "SHPAC",
            "room" : "311",
            "time" : "1:00 PM",
            "url" : "2025/03/SHPAC/SHPACageMar01.25.pdf",
            "zoom" : "https://us02web.zoom.us/j/81287336647"
         }
      }
   }
}
