{
   "2022-01-17" : {
      "13:30:00" : {
         "SFC" : {
            "bills" : [],
            "date" : "2022-01-17",
            "datetime" : "2022-01-17T13:30:00",
            "mtime" : "2022-01-14T18:01:54",
            "name" : "SFC",
            "room" : "322",
            "time" : "1:30 PM",
            "url" : "2022/01/sSched/sSched011722.pdf"
         }
      }
   },
   "2022-01-19" : {
      "13:30:00" : {
         "SFC" : {
            "bills" : ["HB1"],
            "date" : "2022-01-19",
            "datetime" : "2022-01-19T13:30:00",
            "mtime" : "2022-01-14T18:01:54",
            "name" : "SFC",
            "room" : "322",
            "time" : "1:30 PM",
            "url" : "2022/01/sSched/sSched011722.pdf"
         }
      }
   },
   "2022-01-20" : {
      "09:00:00" : {
         "SFC" : {
            "bills" : [],
            "date" : "2022-01-20",
            "datetime" : "2022-01-20T09:00:00",
            "mtime" : "2022-01-14T18:01:54",
            "name" : "SFC",
            "room" : "322",
            "time" : "9:00 AM",
            "url" : "2022/01/sSched/sSched011722.pdf"
         }
      }
   },
   "2022-01-21" : {
      "08:30:00" : {
         "SFC" : {
            "bills" : [],
            "date" : "2022-01-21",
            "datetime" : "2022-01-21T08:30:00",
            "mtime" : "2022-01-14T18:01:54",
            "name" : "SFC",
            "room" : "322",
            "time" : "8:30 AM",
            "url" : "2022/01/sSched/sSched011722.pdf"
         }
      }
   },
   "2022-01-24" : {
      "09:00:00" : {
         "SFC" : {
            "bills" : [],
            "date" : "2022-01-24",
            "datetime" : "2022-01-24T09:00:00",
            "mtime" : "2022-01-14T18:01:54",
            "name" : "SFC",
            "room" : "322",
            "time" : "9:00 AM",
            "url" : "2022/01/sSched/sSched011722.pdf"
         }
      }
   },
   "2022-01-25" : {
      "09:00:00" : {
         "SFC" : {
            "bills" : [],
            "date" : "2022-01-25",
            "datetime" : "2022-01-25T09:00:00",
            "mtime" : "2022-01-14T18:01:54",
            "name" : "SFC",
            "room" : "322",
            "time" : "9:00 AM",
            "url" : "2022/01/sSched/sSched011722.pdf"
         }
      }
   },
   "2022-01-26" : {
      "13:30:00" : {
         "SFC" : {
            "bills" : [],
            "date" : "2022-01-26",
            "datetime" : "2022-01-26T13:30:00",
            "mtime" : "2022-01-14T18:01:54",
            "name" : "SFC",
            "room" : "322",
            "time" : "1:30 PM",
            "url" : "2022/01/sSched/sSched011722.pdf"
         }
      }
   },
   "2022-01-27" : {
      "09:00:00" : {
         "SFC" : {
            "bills" : [],
            "date" : "2022-01-27",
            "datetime" : "2022-01-27T09:00:00",
            "mtime" : "2022-01-14T18:01:54",
            "name" : "SFC",
            "room" : "322",
            "time" : "9:00 AM",
            "url" : "2022/01/sSched/sSched011722.pdf"
         }
      }
   },
   "2022-01-28" : {
      "13:30:00" : {
         "SFC" : {
            "bills" : [],
            "date" : "2022-01-28",
            "datetime" : "2022-01-28T13:30:00",
            "mtime" : "2022-01-14T18:01:54",
            "name" : "SFC",
            "room" : "322",
            "time" : "1:30 PM",
            "url" : "2022/01/sSched/sSched011722.pdf"
         }
      }
   }
}
