{
   "2025-01-31" : {
      "08:00:00" : {
         "HEC" : {
            "bills" : [],
            "date" : "2025-01-31",
            "datetime" : "2025-01-31T08:00:00",
            "mtime" : "2025-01-30T19:09:01",
            "name" : "HEC",
            "room" : "309",
            "time" : "8:00 AM",
            "url" : "/home/esm/.cache/nmlegis/get-calendars/2025/01/hSched/hSched013125.pdf",
            "zoom" : "https://us02web.zoom.us/j/89904664485"
         }
      },
      "08:30:00" : {
         "HGEIC" : {
            "bills" : ["HB75","HB62","HB69","HJR4","HJR3"],
            "date" : "2025-01-31",
            "datetime" : "2025-01-31T08:30:00",
            "mtime" : "2025-01-30T19:09:01",
            "name" : "HGEIC",
            "room" : "305",
            "time" : "8:30 AM",
            "url" : "/home/esm/.cache/nmlegis/get-calendars/2025/01/hSched/hSched013125.pdf",
            "zoom" : "https://us02web.zoom.us/j/89282948977"
         },
         "HHHC" : {
            "bills" : ["HB53","HB46","HB74","HB76","HB77","HB78","HB79","HB81","HB82"],
            "date" : "2025-01-31",
            "datetime" : "2025-01-31T08:30:00",
            "mtime" : "2025-01-30T19:09:01",
            "name" : "HHHC",
            "room" : "307",
            "time" : "8:30 AM",
            "url" : "/home/esm/.cache/nmlegis/get-calendars/2025/01/hSched/hSched013125.pdf",
            "zoom" : "https://us02web.zoom.us/j/86178202695"
         }
      },
      "09:00:00" : {
         "SEC" : {
            "bills" : ["SB10","SB13","SB19","SB64","SB68","SB75"],
            "date" : "2025-01-31",
            "datetime" : "2025-01-31T09:00:00",
            "mtime" : "2025-01-30T18:48:26",
            "name" : "SEC",
            "room" : "311",
            "time" : "9:00 AM",
            "url" : "/home/esm/.cache/nmlegis/get-calendars/2025/01/sSched/sSched013125.pdf",
            "zoom" : "https://us02web.zoom.us/j/89615593412"
         },
         "SRC" : {
            "bills" : ["SB135","SB109","SB124","SJM1"],
            "date" : "2025-01-31",
            "datetime" : "2025-01-31T09:00:00",
            "mtime" : "2025-01-30T18:48:26",
            "name" : "SRC",
            "room" : "321",
            "time" : "9:00 AM",
            "url" : "/home/esm/.cache/nmlegis/get-calendars/2025/01/sSched/sSched013125.pdf",
            "zoom" : "https://us02web.zoom.us/j/81944191844"
         }
      },
      "11:00:00" : {
         "Senate" : {
            "bills" : [],
            "date" : "2025-01-31",
            "datetime" : "2025-01-31T11:00:00",
            "mtime" : "2025-01-30T19:26:41",
            "name" : "Senate",
            "room" : "Senate Floor",
            "time" : "11:00 AM",
            "url" : "/home/esm/.cache/nmlegis/get-calendars/2025/01/sFloor/sFloor013125.pdf"
         }
      },
      "13:30:00" : {
         "HAFC" : {
            "bills" : [],
            "date" : "2025-01-31",
            "datetime" : "2025-01-31T13:30:00",
            "mtime" : "2025-01-30T19:09:01",
            "name" : "HAFC",
            "time" : "1:30 PM",
            "url" : "/home/esm/.cache/nmlegis/get-calendars/2025/01/hSched/hSched013125.pdf",
            "zoom" : "https://us02web.zoom.us/j/88154987441"
         },
         "HCEDC" : {
            "bills" : ["HB44"],
            "date" : "2025-01-31",
            "datetime" : "2025-01-31T13:30:00",
            "mtime" : "2025-01-30T19:09:01",
            "name" : "HCEDC",
            "room" : "317",
            "time" : "1:30 PM",
            "url" : "/home/esm/.cache/nmlegis/get-calendars/2025/01/hSched/hSched013125.pdf",
            "zoom" : "https://us02web.zoom.us/j/84498420158"
         },
         "HJC" : {
            "bills" : [],
            "date" : "2025-01-31",
            "datetime" : "2025-01-31T13:30:00",
            "mtime" : "2025-01-30T19:09:01",
            "name" : "HJC",
            "room" : "309",
            "time" : "1:30 PM",
            "url" : "/home/esm/.cache/nmlegis/get-calendars/2025/01/hSched/hSched013125.pdf",
            "zoom" : "https://us02web.zoom.us/j/85681041953"
         },
         "SJC" : {
            "bills" : ["SB161","SB191","SB150","SB151"],
            "date" : "2025-01-31",
            "datetime" : "2025-01-31T13:30:00",
            "mtime" : "2025-01-30T18:48:26",
            "name" : "SJC",
            "room" : "321",
            "time" : "1:30 PM or 1/2 hour after floor session",
            "url" : "/home/esm/.cache/nmlegis/get-calendars/2025/01/sSched/sSched013125.pdf",
            "zoom" : "https://us02web.zoom.us/j/88109017169"
         }
      }
   },
   "2025-02-01" : {
      "09:00:00" : {
         "HAFC" : {
            "bills" : [],
            "date" : "2025-02-01",
            "datetime" : "2025-02-01T09:00:00",
            "mtime" : "2025-01-30T19:09:01",
            "name" : "HAFC",
            "room" : "307",
            "time" : "9:00 AM",
            "url" : "/home/esm/.cache/nmlegis/get-calendars/2025/01/hSched/hSched013125.pdf",
            "zoom" : "https://us02web.zoom.us/j/88154987441"
         }
      }
   },
   "2025-02-03" : {
      "08:30:00" : {
         "HEC" : {
            "bills" : ["HB63","HB156","HM2"],
            "date" : "2025-02-03",
            "datetime" : "2025-02-03T08:30:00",
            "mtime" : "2025-01-30T19:09:01",
            "name" : "HEC",
            "room" : "309",
            "time" : "8:30 AM",
            "url" : "/home/esm/.cache/nmlegis/get-calendars/2025/01/hSched/hSched013125.pdf",
            "zoom" : "https://us02web.zoom.us/j/89904664485"
         }
      },
      "13:30:00" : {
         "HCEDC" : {
            "bills" : ["HB10","HB59","HB100","HB202"],
            "date" : "2025-02-03",
            "datetime" : "2025-02-03T13:30:00",
            "mtime" : "2025-01-30T19:09:01",
            "name" : "HCEDC",
            "room" : "317",
            "time" : "1:30 PM",
            "url" : "/home/esm/.cache/nmlegis/get-calendars/2025/01/hSched/hSched013125.pdf",
            "zoom" : "https://us02web.zoom.us/j/84498420158"
         },
         "HJC" : {
            "bills" : ["HB127","HB147","HB149","HB182","HB183"],
            "date" : "2025-02-03",
            "datetime" : "2025-02-03T13:30:00",
            "mtime" : "2025-01-30T19:09:01",
            "name" : "HJC",
            "room" : "309",
            "time" : "1:30 PM",
            "url" : "/home/esm/.cache/nmlegis/get-calendars/2025/01/hSched/hSched013125.pdf",
            "zoom" : "https://us02web.zoom.us/j/85681041953"
         },
         "SFC" : {
            "bills" : [],
            "date" : "2025-02-03",
            "datetime" : "2025-02-03T13:30:00",
            "mtime" : "2025-01-30T18:48:26",
            "name" : "SFC",
            "room" : "322",
            "time" : "1:30 PM",
            "url" : "/home/esm/.cache/nmlegis/get-calendars/2025/01/sSched/sSched013125.pdf",
            "zoom" : "https://us02web.zoom.us/j/81696207177"
         }
      }
   },
   "2025-02-04" : {
      "09:00:00" : {
         "SCONC" : {
            "bills" : ["SB23","SB29","SB33","SB34","SB47"],
            "date" : "2025-02-04",
            "datetime" : "2025-02-04T09:00:00",
            "mtime" : "2025-01-30T18:48:26",
            "name" : "SCONC",
            "room" : "311",
            "time" : "9:00 AM",
            "url" : "/home/esm/.cache/nmlegis/get-calendars/2025/01/sSched/sSched013125.pdf",
            "zoom" : "https://us02web.zoom.us/j/82404382748"
         }
      },
      "10:30:00" : {
         "SIRC" : {
            "bills" : [],
            "date" : "2025-02-04",
            "datetime" : "2025-02-04T10:30:00",
            "mtime" : "2025-01-30T18:48:26",
            "name" : "SIRC",
            "room" : "303",
            "time" : "10:30 AM",
            "url" : "/home/esm/.cache/nmlegis/get-calendars/2025/01/sSched/sSched013125.pdf",
            "zoom" : "https://us02web.zoom.us/j/83279870726"
         }
      },
      "13:30:00" : {
         "HCPAC" : {
            "bills" : ["HB73","HB86","HB87","HB89","HB83"],
            "date" : "2025-02-04",
            "datetime" : "2025-02-04T13:30:00",
            "mtime" : "2025-01-30T19:09:01",
            "name" : "HCPAC",
            "room" : "317",
            "time" : "1:30 PM",
            "url" : "/home/esm/.cache/nmlegis/get-calendars/2025/01/hSched/hSched013125.pdf",
            "zoom" : "https://us02web.zoom.us/j/89876224491"
         }
      }
   },
   "2025-02-05" : {
      "08:30:00" : {
         "HEC" : {
            "bills" : ["HB157","HB193","HB201"],
            "date" : "2025-02-05",
            "datetime" : "2025-02-05T08:30:00",
            "mtime" : "2025-01-30T19:09:01",
            "name" : "HEC",
            "room" : "309",
            "time" : "8:30 AM",
            "url" : "/home/esm/.cache/nmlegis/get-calendars/2025/01/hSched/hSched013125.pdf",
            "zoom" : "https://us02web.zoom.us/j/89904664485"
         }
      },
      "13:30:00" : {
         "HCEDC" : {
            "bills" : ["HB220","HB215","HB179","HB130"],
            "date" : "2025-02-05",
            "datetime" : "2025-02-05T13:30:00",
            "mtime" : "2025-01-30T19:09:01",
            "name" : "HCEDC",
            "room" : "317",
            "time" : "1:30 PM",
            "url" : "/home/esm/.cache/nmlegis/get-calendars/2025/01/hSched/hSched013125.pdf",
            "zoom" : "https://us02web.zoom.us/j/84498420158"
         },
         "HJC" : {
            "bills" : ["HB12","HB198","HB209","HB216"],
            "date" : "2025-02-05",
            "datetime" : "2025-02-05T13:30:00",
            "mtime" : "2025-01-30T19:09:01",
            "name" : "HJC",
            "room" : "309",
            "time" : "1:30 PM",
            "url" : "/home/esm/.cache/nmlegis/get-calendars/2025/01/hSched/hSched013125.pdf",
            "zoom" : "https://us02web.zoom.us/j/85681041953"
         }
      }
   },
   "2025-02-06" : {
      "13:30:00" : {
         "HCPAC" : {
            "bills" : ["HB111","HB124","HB125","HB101","HB102","HB103"],
            "date" : "2025-02-06",
            "datetime" : "2025-02-06T13:30:00",
            "mtime" : "2025-01-30T19:09:01",
            "name" : "HCPAC",
            "room" : "317",
            "time" : "1:30 PM",
            "url" : "/home/esm/.cache/nmlegis/get-calendars/2025/01/hSched/hSched013125.pdf",
            "zoom" : "https://us02web.zoom.us/j/89876224491"
         }
      }
   },
   "2025-02-07" : {
      "13:30:00" : {
         "HCEDC" : {
            "bills" : ["HB112","HB61"],
            "date" : "2025-02-07",
            "datetime" : "2025-02-07T13:30:00",
            "mtime" : "2025-01-30T19:09:01",
            "name" : "HCEDC",
            "room" : "317",
            "time" : "1:30 PM",
            "url" : "/home/esm/.cache/nmlegis/get-calendars/2025/01/hSched/hSched013125.pdf",
            "zoom" : "https://us02web.zoom.us/j/84498420158"
         }
      }
   },
   "2025-02-08" : {
      "09:00:00" : {
         "HCPAC" : {
            "bills" : ["HB104","HB105","HB107","HB132","HB134","HB136"],
            "date" : "2025-02-08",
            "datetime" : "2025-02-08T09:00:00",
            "mtime" : "2025-01-30T19:09:01",
            "name" : "HCPAC",
            "room" : "317",
            "time" : "9:00 AM",
            "url" : "/home/esm/.cache/nmlegis/get-calendars/2025/01/hSched/hSched013125.pdf",
            "zoom" : "https://us02web.zoom.us/j/89876224491"
         }
      }
   }
}
