{
   "2024-01-23" : {
      "08:30:00" : {
         "HENRC" : {
            "bills" : ["HB108","HB73","HB140","HB91","HB92"],
            "date" : "2024-01-23",
            "datetime" : "2024-01-23T08:30:00",
            "mtime" : "2024-01-22T09:06:35",
            "name" : "HENRC",
            "room" : "417",
            "time" : "8:30 AM",
            "url" : "2024/01/HENRC/HENRCageJan23.24.pdf",
            "zoom" : "https://us02web.zoom.us/j/82358523878"
         }
      }
   }
}
