{
   "2025-02-07" : {
      "09:00:00" : {
         "SRC" : {
            "bills" : ["SB19","SJR7","SB90","SB237"],
            "date" : "2025-02-07",
            "datetime" : "2025-02-07T09:00:00",
            "mtime" : "2025-02-06T13:37:36",
            "name" : "SRC",
            "room" : "321",
            "time" : "9:00 AM",
            "url" : "2025/02/SRC/SRCageFeb07.25.pdf",
            "zoom" : "https://us02web.zoom.us/j/81944191844"
         }
      }
   }
}
