{
   "2023-03-09" : {
      "00:00:00" : {
         "STBTC" : {
            "bills" : ["SB281","SB393","SB402","SB432","SB435","SB444","SB456","SB485","HB170","HB186","HB229","HB253"],
            "date" : "2023-03-09",
            "datetime" : "2023-03-09T00:00:00",
            "mtime" : "2023-03-08T22:48:54",
            "name" : "STBTC",
            "room" : "321",
            "time" : "after the floor session",
            "url" : "2023/03/sSched/sSched030923.pdf",
            "zoom" : "https://us02web.zoom.us/j/85614440294"
         }
      },
      "09:00:00" : {
         "SCONC" : {
            "bills" : ["HB184","HB365","SM29","SM38","SM44"],
            "date" : "2023-03-09",
            "datetime" : "2023-03-09T09:00:00",
            "mtime" : "2023-03-08T22:48:54",
            "name" : "SCONC",
            "room" : "311",
            "time" : "9:00 AM",
            "url" : "2023/03/sSched/sSched030923.pdf",
            "zoom" : "https://us02web.zoom.us/j/82404382748"
         }
      },
      "09:30:00" : {
         "SFC" : {
            "bills" : ["SB453","SB385","SB493","HB130","HB199","SB158"],
            "date" : "2023-03-09",
            "datetime" : "2023-03-09T09:30:00",
            "mtime" : "2023-03-08T22:48:54",
            "name" : "SFC",
            "room" : "322",
            "time" : "9:30 AM",
            "url" : "2023/03/sSched/sSched030923.pdf",
            "zoom" : "https://us02web.zoom.us/j/81696207177"
         },
         "SIRC" : {
            "bills" : ["HB35","HB161","HB33"],
            "date" : "2023-03-09",
            "datetime" : "2023-03-09T09:30:00",
            "mtime" : "2023-03-08T22:48:54",
            "name" : "SIRC",
            "room" : "303",
            "time" : "9:30 AM",
            "url" : "2023/03/sSched/sSched030923.pdf",
            "zoom" : "https://us02web.zoom.us/j/83279870726"
         }
      }
   },
   "2023-03-10" : {
      "08:30:00" : {
         "SRC" : {
            "bills" : [],
            "date" : "2023-03-10",
            "datetime" : "2023-03-10T08:30:00",
            "mtime" : "2023-03-08T22:48:54",
            "name" : "SRC",
            "room" : "321",
            "time" : "8:30 AM",
            "url" : "2023/03/sSched/sSched030923.pdf",
            "zoom" : "https://us02web.zoom.us/j/81944191844"
         }
      }
   }
}
